(-3.0, 8.654999999999633), (0, 0),0
(-2.0, 8.654999999999633), (0, 0),0
(-1.0, 8.654999999999633), (0, 0),0
(0.0, 8.654999999999633), (0, 0),0
(1.0, 8.654999999999633), (0, 0),0
(2.0, 8.654999999999633), (0, 0),0
(3.0, 8.654999999999633), (0, 0),0
(-3.0, 9.654999999999633), (0, 0),0
(-2.0, 9.654999999999633), (0, 0),0
(-1.0, 9.654999999999633), (0, 0),0
(0.0, 9.654999999999633), (0, 0),0
(1.0, 9.654999999999633), (0, 0),0
(2.0, 9.654999999999633), (0, 0),0
(3.0, 9.654999999999633), (0, 0),0
(-3.0, 10.654999999999633), (0, 0),0
(-2.0, 10.654999999999633), (0, 0),0
(-1.0, 10.654999999999633), (0, 0),0
(0.0, 10.654999999999633), (0, 0),0
(1.0, 10.654999999999633), (0, 0),0
(2.0, 10.654999999999633), (0, 0),0
(3.0, 10.654999999999633), (0, 0),0
(-3.0, 11.654999999999633), (0, 0),0
(-2.0, 11.654999999999633), (0, 0),0
(-1.0, 11.654999999999633), (0, 0),0
(0.0, 11.654999999999633), (0, 0),0
(1.0, 11.654999999999633), (0, 0),0
(2.0, 11.654999999999633), (0, 0),0
(3.0, 11.654999999999633), (0, 0),0
(-3.0, 12.654999999999633), (0, 0),0
(-2.0, 12.654999999999633), (0, 0),0
(-1.0, 12.654999999999633), (0, 0),0
(0.0, 12.654999999999633), (0, 0),0
(1.0, 12.654999999999633), (0, 0),0
(2.0, 12.654999999999633), (0, 0),0
(3.0, 12.654999999999633), (0, 0),0
(-3.0, 13.654999999999633), (0, 0),0
(-2.0, 13.654999999999633), (0, 0),0
(-1.0, 13.654999999999633), (0, 0),0
(0.0, 13.654999999999633), (0, 0),0
(1.0, 13.654999999999633), (0, 0),0
(2.0, 13.654999999999633), (0, 0),0
(3.0, 13.654999999999633), (0, 0),0
(-3.0, 14.654999999999989), (0, 0),0
(-2.0, 14.654999999999989), (0, 0),0
(-1.0, 14.654999999999989), (0, 0),0
(0.0, 14.654999999999989), (0, 0),0
(1.0, 14.654999999999989), (0, 0),0
(2.0, 14.654999999999989), (0, 0),0
(3.0, 14.654999999999989), (0, 0),0
(-3.0, 15.655000000000344), (0, 0),0
(-2.0, 15.655000000000344), (0, 0),0
(-1.0, 15.655000000000344), (0, 0),0
(0.0, 15.655000000000344), (0, 0),0
(1.0, 15.655000000000344), (0, 0),0
(2.0, 15.655000000000344), (0, 0),0
(3.0, 15.655000000000344), (0, 0),0
(-3.0, 16.655000000000467), (0, 0),0
(-2.0, 16.655000000000467), (0, 0),0
(-1.0, 16.655000000000467), (0, 0),0
(0.0, 16.655000000000467), (0, 0),0
(1.0, 16.655000000000467), (0, 0),0
(2.0, 16.655000000000467), (0, 0),0
(3.0, 16.655000000000467), (0, 0),0
