(-3.0, 8.864999999999666), (0, 0),0
(-2.0, 8.864999999999666), (0, 0),0
(-1.0, 8.864999999999666), (0, 0),0
(0.0, 8.864999999999666), (0, 0),0
(1.0, 8.864999999999666), (0, 0),0
(2.0, 8.864999999999666), (0, 0),0
(3.0, 8.864999999999666), (0, 0),0
(-3.0, 9.864999999999666), (0, 0),0
(-2.0, 9.864999999999666), (0, 0),0
(-1.0, 9.864999999999666), (0, 0),0
(0.0, 9.864999999999666), (0, 0),0
(1.0, 9.864999999999666), (0, 0),0
(2.0, 9.864999999999666), (0, 0),0
(3.0, 9.864999999999666), (0, 0),0
(-3.0, 10.864999999999666), (0, 0),0
(-2.0, 10.864999999999666), (0, 0),0
(-1.0, 10.864999999999666), (0, 0),0
(0.0, 10.864999999999666), (0, 0),0
(1.0, 10.864999999999666), (0, 0),0
(2.0, 10.864999999999666), (0, 0),0
(3.0, 10.864999999999666), (0, 0),0
(-3.0, 11.864999999999666), (0, 0),0
(-2.0, 11.864999999999666), (0, 0),0
(-1.0, 11.864999999999666), (0, 0),0
(0.0, 11.864999999999666), (0, 0),0
(1.0, 11.864999999999666), (0, 0),0
(2.0, 11.864999999999666), (0, 0),0
(3.0, 11.864999999999666), (0, 0),0
(-3.0, 12.864999999999666), (0, 0),0
(-2.0, 12.864999999999666), (0, 0),0
(-1.0, 12.864999999999666), (0, 0),0
(0.0, 12.864999999999666), (0, 0),0
(1.0, 12.864999999999666), (0, 0),0
(2.0, 12.864999999999666), (0, 0),0
(3.0, 12.864999999999666), (0, 0),0
(-3.0, 13.864999999999666), (0, 0),0
(-2.0, 13.864999999999666), (0, 0),0
(-1.0, 13.864999999999666), (0, 0),0
(0.0, 13.864999999999666), (0, 0),0
(1.0, 13.864999999999666), (0, 0),0
(2.0, 13.864999999999666), (0, 0),0
(3.0, 13.864999999999666), (0, 0),0
(-3.0, 14.865000000000022), (0, 0),0
(-2.0, 14.865000000000022), (0, 0),0
(-1.0, 14.865000000000022), (0, 0),0
(0.0, 14.865000000000022), (0, 0),0
(1.0, 14.865000000000022), (0, 0),0
(2.0, 14.865000000000022), (0, 0),0
(3.0, 14.865000000000022), (0, 0),0
(-3.0, 15.865000000000377), (0, 0),0
(-2.0, 15.865000000000377), (0, 0),0
(-1.0, 15.865000000000377), (0, 0),0
(0.0, 15.865000000000377), (0, 0),0
(1.0, 15.865000000000377), (0, 0),0
(2.0, 15.865000000000377), (0, 0),0
(3.0, 15.865000000000377), (0, 0),0
(-3.0, 16.865000000000425), (0, 0),0
(-2.0, 16.865000000000425), (0, 0),0
(-1.0, 16.865000000000425), (0, 0),0
(0.0, 16.865000000000425), (0, 0),0
(1.0, 16.865000000000425), (0, 0),0
(2.0, 16.865000000000425), (0, 0),0
(3.0, 16.865000000000425), (0, 0),0
