(-3.0, 10.48999999999992), (0, 0),0
(-2.0, 10.48999999999992), (0, 0),0
(-1.0, 10.48999999999992), (0, 0),0
(0.0, 10.48999999999992), (0, 0),0
(1.0, 10.48999999999992), (0, 0),0
(2.0, 10.48999999999992), (0, 0),0
(3.0, 10.48999999999992), (0, 0),0
(-3.0, 11.48999999999992), (0, 0),0
(-2.0, 11.48999999999992), (0, 0),0
(-1.0, 11.48999999999992), (0, 0),0
(0.0, 11.48999999999992), (0, 0),0
(1.0, 11.48999999999992), (0, 0),0
(2.0, 11.48999999999992), (0, 0),0
(3.0, 11.48999999999992), (0, 0),0
(-3.0, 12.48999999999992), (0, 0),0
(-2.0, 12.48999999999992), (0, 0),0
(-1.0, 12.48999999999992), (0, 0),0
(0.0, 12.48999999999992), (0, 0),0
(1.0, 12.48999999999992), (0, 0),0
(2.0, 12.48999999999992), (0, 0),0
(3.0, 12.48999999999992), (0, 0),0
(-3.0, 13.48999999999992), (0, 0),0
(-2.0, 13.48999999999992), (0, 0),0
(-1.0, 13.48999999999992), (0, 0),0
(0.0, 13.48999999999992), (0, 0),0
(1.0, 13.48999999999992), (0, 0),0
(2.0, 13.48999999999992), (0, 0),0
(3.0, 13.48999999999992), (0, 0),0
(-3.0, 14.48999999999992), (0, 0),0
(-2.0, 14.48999999999992), (0, 0),0
(-1.0, 14.48999999999992), (0, 0),0
(0.0, 14.48999999999992), (0, 0),0
(1.0, 14.48999999999992), (0, 0),0
(2.0, 14.48999999999992), (0, 0),0
(3.0, 14.48999999999992), (0, 0),0
(-3.0, 15.48999999999992), (0, 0),0
(-2.0, 15.48999999999992), (0, 0),0
(-1.0, 15.48999999999992), (0, 0),0
(0.0, 15.48999999999992), (0, 0),0
(1.0, 15.48999999999992), (0, 0),0
(2.0, 15.48999999999992), (0, 0),0
(3.0, 15.48999999999992), (0, 0),0
(-3.0, 16.4900000000001), (0, 0),0
(-2.0, 16.4900000000001), (0, 0),0
(-1.0, 16.4900000000001), (0, 0),0
(0.0, 16.4900000000001), (0, 0),0
(1.0, 16.4900000000001), (0, 0),0
(2.0, 16.4900000000001), (0, 0),0
(3.0, 16.4900000000001), (0, 0),0
(-3.0, 17.4900000000001), (0, 0),0
(-2.0, 17.4900000000001), (0, 0),0
(-1.0, 17.4900000000001), (0, 0),0
(0.0, 17.4900000000001), (0, 0),0
(1.0, 17.4900000000001), (0, 0),0
(2.0, 17.4900000000001), (0, 0),0
(3.0, 17.4900000000001), (0, 0),0
(-3.0, 18.4900000000001), (0, 0),0
(-2.0, 18.4900000000001), (0, 0),0
(-1.0, 18.4900000000001), (0, 0),0
(0.0, 18.4900000000001), (0, 0),0
(1.0, 18.4900000000001), (0, 0),0
(2.0, 18.4900000000001), (0, 0),0
(3.0, 18.4900000000001), (0, 0),0
