(-3.000000000000032, 7.61499999999948), (0.0, -3.5527136788004694e-14),8.881784197001252e-15
(-2.000000000000032, 7.61499999999948), (0.0, -3.5527136788004694e-14),8.881784197001252e-15
(-1.0000000000000313, 7.61499999999948), (0.0, -3.5527136788004694e-14),8.881784197001252e-15
(-3.088118649685612e-14, 7.61499999999948), (0.0, -3.5527136788004694e-14),8.881784197001252e-15
(0.9999999999999694, 7.61499999999948), (0.0, -3.5527136788004694e-14),8.881784197001252e-15
(1.9999999999999698, 7.61499999999948), (0.0, -3.5527136788004694e-14),8.881784197001252e-15
(2.99999999999997, 7.61499999999948), (0.0, -3.5527136788004694e-14),8.881784197001252e-15
(-3.000000000000032, 8.61499999999947), (0.0, 3.5527136788004694e-14),8.881784197001252e-15
(-2.000000000000032, 8.61499999999947), (0.0, 3.5527136788004694e-14),8.881784197001252e-15
(-1.0000000000000313, 8.61499999999947), (0.0, 3.5527136788004694e-14),8.881784197001252e-15
(-3.088118649685612e-14, 8.61499999999947), (0.0, 3.5527136788004694e-14),8.881784197001252e-15
(0.9999999999999694, 8.61499999999947), (0.0, 3.5527136788004694e-14),8.881784197001252e-15
(1.9999999999999698, 8.61499999999947), (0.0, 3.5527136788004694e-14),8.881784197001252e-15
(2.99999999999997, 8.61499999999947), (0.0, 3.5527136788004694e-14),8.881784197001252e-15
(-3.0, 9.61499999999947), (0, 0),0
(-2.0, 9.61499999999947), (0, 0),0
(-1.0, 9.61499999999947), (0, 0),0
(0.0, 9.61499999999947), (0, 0),0
(1.0, 9.61499999999947), (0, 0),0
(2.0, 9.61499999999947), (0, 0),0
(3.0, 9.61499999999947), (0, 0),0
(-3.0, 10.61499999999947), (0, 0),0
(-2.0, 10.61499999999947), (0, 0),0
(-1.0, 10.61499999999947), (0, 0),0
(0.0, 10.61499999999947), (0, 0),0
(1.0, 10.61499999999947), (0, 0),0
(2.0, 10.61499999999947), (0, 0),0
(3.0, 10.61499999999947), (0, 0),0
(-3.0, 11.61499999999947), (0, 0),0
(-2.0, 11.61499999999947), (0, 0),0
(-1.0, 11.61499999999947), (0, 0),0
(0.0, 11.61499999999947), (0, 0),0
(1.0, 11.61499999999947), (0, 0),0
(2.0, 11.61499999999947), (0, 0),0
(3.0, 11.61499999999947), (0, 0),0
(-3.0, 12.61499999999947), (0, 0),0
(-2.0, 12.61499999999947), (0, 0),0
(-1.0, 12.61499999999947), (0, 0),0
(0.0, 12.61499999999947), (0, 0),0
(1.0, 12.61499999999947), (0, 0),0
(2.0, 12.61499999999947), (0, 0),0
(3.0, 12.61499999999947), (0, 0),0
(-3.0, 13.614999999999826), (0, 0),0
(-2.0, 13.614999999999826), (0, 0),0
(-1.0, 13.614999999999826), (0, 0),0
(0.0, 13.614999999999826), (0, 0),0
(1.0, 13.614999999999826), (0, 0),0
(2.0, 13.614999999999826), (0, 0),0
(3.0, 13.614999999999826), (0, 0),0
(-3.0, 14.615000000000181), (0, 0),0
(-2.0, 14.615000000000181), (0, 0),0
(-1.0, 14.615000000000181), (0, 0),0
(0.0, 14.615000000000181), (0, 0),0
(1.0, 14.615000000000181), (0, 0),0
(2.0, 14.615000000000181), (0, 0),0
(3.0, 14.615000000000181), (0, 0),0
(-3.0, 15.615000000000537), (0, 0),0
(-2.0, 15.615000000000537), (0, 0),0
(-1.0, 15.615000000000537), (0, 0),0
(0.0, 15.615000000000537), (0, 0),0
(1.0, 15.615000000000537), (0, 0),0
(2.0, 15.615000000000537), (0, 0),0
(3.0, 15.615000000000537), (0, 0),0
