(-3.0, 9.384999999999748), (0, 0),0
(-2.0, 9.384999999999748), (0, 0),0
(-1.0, 9.384999999999748), (0, 0),0
(0.0, 9.384999999999748), (0, 0),0
(1.0, 9.384999999999748), (0, 0),0
(2.0, 9.384999999999748), (0, 0),0
(3.0, 9.384999999999748), (0, 0),0
(-3.0, 10.384999999999748), (0, 0),0
(-2.0, 10.384999999999748), (0, 0),0
(-1.0, 10.384999999999748), (0, 0),0
(0.0, 10.384999999999748), (0, 0),0
(1.0, 10.384999999999748), (0, 0),0
(2.0, 10.384999999999748), (0, 0),0
(3.0, 10.384999999999748), (0, 0),0
(-3.0, 11.384999999999748), (0, 0),0
(-2.0, 11.384999999999748), (0, 0),0
(-1.0, 11.384999999999748), (0, 0),0
(0.0, 11.384999999999748), (0, 0),0
(1.0, 11.384999999999748), (0, 0),0
(2.0, 11.384999999999748), (0, 0),0
(3.0, 11.384999999999748), (0, 0),0
(-3.0, 12.384999999999748), (0, 0),0
(-2.0, 12.384999999999748), (0, 0),0
(-1.0, 12.384999999999748), (0, 0),0
(0.0, 12.384999999999748), (0, 0),0
(1.0, 12.384999999999748), (0, 0),0
(2.0, 12.384999999999748), (0, 0),0
(3.0, 12.384999999999748), (0, 0),0
(-3.0, 13.384999999999748), (0, 0),0
(-2.0, 13.384999999999748), (0, 0),0
(-1.0, 13.384999999999748), (0, 0),0
(0.0, 13.384999999999748), (0, 0),0
(1.0, 13.384999999999748), (0, 0),0
(2.0, 13.384999999999748), (0, 0),0
(3.0, 13.384999999999748), (0, 0),0
(-3.0, 14.384999999999748), (0, 0),0
(-2.0, 14.384999999999748), (0, 0),0
(-1.0, 14.384999999999748), (0, 0),0
(0.0, 14.384999999999748), (0, 0),0
(1.0, 14.384999999999748), (0, 0),0
(2.0, 14.384999999999748), (0, 0),0
(3.0, 14.384999999999748), (0, 0),0
(-3.0, 15.385000000000103), (0, 0),0
(-2.0, 15.385000000000103), (0, 0),0
(-1.0, 15.385000000000103), (0, 0),0
(0.0, 15.385000000000103), (0, 0),0
(1.0, 15.385000000000103), (0, 0),0
(2.0, 15.385000000000103), (0, 0),0
(3.0, 15.385000000000103), (0, 0),0
(-3.0, 16.38500000000032), (0, 0),0
(-2.0, 16.38500000000032), (0, 0),0
(-1.0, 16.38500000000032), (0, 0),0
(0.0, 16.38500000000032), (0, 0),0
(1.0, 16.38500000000032), (0, 0),0
(2.0, 16.38500000000032), (0, 0),0
(3.0, 16.38500000000032), (0, 0),0
(-3.0, 17.38500000000032), (0, 0),0
(-2.0, 17.38500000000032), (0, 0),0
(-1.0, 17.38500000000032), (0, 0),0
(0.0, 17.38500000000032), (0, 0),0
(1.0, 17.38500000000032), (0, 0),0
(2.0, 17.38500000000032), (0, 0),0
(3.0, 17.38500000000032), (0, 0),0
