(-3.0000000000000613, 7.284999999999428), (0.0, -3.5527136788004694e-14),8.881784197001252e-15
(-2.0000000000000613, 7.284999999999428), (0.0, -3.5527136788004694e-14),8.881784197001252e-15
(-1.0000000000000606, 7.284999999999428), (0.0, -3.5527136788004694e-14),8.881784197001252e-15
(-6.019107434696025e-14, 7.284999999999428), (0.0, -3.5527136788004694e-14),8.881784197001252e-15
(0.99999999999994, 7.284999999999428), (0.0, -3.5527136788004694e-14),8.881784197001252e-15
(1.9999999999999405, 7.284999999999428), (0.0, -3.5527136788004694e-14),8.881784197001252e-15
(2.9999999999999405, 7.284999999999428), (0.0, -3.5527136788004694e-14),8.881784197001252e-15
(-3.0000000000000613, 8.28499999999942), (0.0, 3.5527136788004694e-14),8.881784197001252e-15
(-2.0000000000000613, 8.28499999999942), (0.0, 3.5527136788004694e-14),8.881784197001252e-15
(-1.0000000000000606, 8.28499999999942), (0.0, 3.5527136788004694e-14),8.881784197001252e-15
(-6.019107434696025e-14, 8.28499999999942), (0.0, 3.5527136788004694e-14),8.881784197001252e-15
(0.99999999999994, 8.28499999999942), (0.0, 3.5527136788004694e-14),8.881784197001252e-15
(1.9999999999999405, 8.28499999999942), (0.0, 3.5527136788004694e-14),8.881784197001252e-15
(2.9999999999999405, 8.28499999999942), (0.0, 3.5527136788004694e-14),8.881784197001252e-15
(-3.0, 9.28499999999942), (0, 0),0
(-2.0, 9.28499999999942), (0, 0),0
(-1.0, 9.28499999999942), (0, 0),0
(0.0, 9.28499999999942), (0, 0),0
(1.0, 9.28499999999942), (0, 0),0
(2.0, 9.28499999999942), (0, 0),0
(3.0, 9.28499999999942), (0, 0),0
(-3.0, 10.28499999999942), (0, 0),0
(-2.0, 10.28499999999942), (0, 0),0
(-1.0, 10.28499999999942), (0, 0),0
(0.0, 10.28499999999942), (0, 0),0
(1.0, 10.28499999999942), (0, 0),0
(2.0, 10.28499999999942), (0, 0),0
(3.0, 10.28499999999942), (0, 0),0
(-3.0, 11.28499999999942), (0, 0),0
(-2.0, 11.28499999999942), (0, 0),0
(-1.0, 11.28499999999942), (0, 0),0
(0.0, 11.28499999999942), (0, 0),0
(1.0, 11.28499999999942), (0, 0),0
(2.0, 11.28499999999942), (0, 0),0
(3.0, 11.28499999999942), (0, 0),0
(-3.0, 12.28499999999942), (0, 0),0
(-2.0, 12.28499999999942), (0, 0),0
(-1.0, 12.28499999999942), (0, 0),0
(0.0, 12.28499999999942), (0, 0),0
(1.0, 12.28499999999942), (0, 0),0
(2.0, 12.28499999999942), (0, 0),0
(3.0, 12.28499999999942), (0, 0),0
(-3.0, 13.284999999999775), (0, 0),0
(-2.0, 13.284999999999775), (0, 0),0
(-1.0, 13.284999999999775), (0, 0),0
(0.0, 13.284999999999775), (0, 0),0
(1.0, 13.284999999999775), (0, 0),0
(2.0, 13.284999999999775), (0, 0),0
(3.0, 13.284999999999775), (0, 0),0
(-3.0, 14.28500000000013), (0, 0),0
(-2.0, 14.28500000000013), (0, 0),0
(-1.0, 14.28500000000013), (0, 0),0
(0.0, 14.28500000000013), (0, 0),0
(1.0, 14.28500000000013), (0, 0),0
(2.0, 14.28500000000013), (0, 0),0
(3.0, 14.28500000000013), (0, 0),0
(-3.0, 15.285000000000485), (0, 0),0
(-2.0, 15.285000000000485), (0, 0),0
(-1.0, 15.285000000000485), (0, 0),0
(0.0, 15.285000000000485), (0, 0),0
(1.0, 15.285000000000485), (0, 0),0
(2.0, 15.285000000000485), (0, 0),0
(3.0, 15.285000000000485), (0, 0),0
