(0.026007620594461434, 0.33227654920040156), (-3.7791607565286673, 1.0599646404669032),7.615105959804255
(-0.09588367805813258, 0.5356084540639978), (3.2787141302009397, 4.073314264847081),7.23291280707726
(-0.9837303462563906, 5.10792047822662), (-0.01808329178347189, -0.0016202930531715632),0.0184273970825799
(-0.0024039167865066917, 5.129902598733255), (0.0011258289658882675, 0.0029090897151958887),0.035685772094094625
(0.9801603632380995, 5.111233450259479), (0.016957462817583622, -0.0012887966620243258),0.017258375011514726
(0.031537717192411274, 0.3850462941281389), (-3.7625754513915477, 1.8906107264567726),7.643268752908454
(0.2950840482514007, 0.5243904560656141), (-2.9518119084211714, 3.6316456238310693),6.885873545555473
(-0.24575308856908926, 2.2017378929818094), (0, 0),0
(-1.9451305182427305, 6.3514813187141925), (-0.024099977806641925, -0.0026283575055337737),0.024720013003768138
(-0.9702128350292023, 6.378062590183721), (-0.00552700484698496, -0.0006982668016527636),0.055293397889652485
(-0.0011679365264662311, 6.4052645529333745), (0.0015722068056671264, 0.0066242511820684274),0.05947560955850428
(0.9695108318292793, 6.376740564622486), (0.00405072097439654, -0.0008667239549169036),0.05352000658714229
(1.9445805987526312, 6.352054111062154), (0.02400405487356322, -0.0024309029199649865),0.024617781914522352
(-0.04376559264566493, 0.2688792308795547), (3.4648339861404462, 0.16978229170365622),7.401253044477892
(-2.9999999999998934, 7.6299999999991694), (1.1517369216226772e-27, -3.5527136788004694e-14),8.881784197001252e-15
(-1.9999999999998925, 7.6299999999991694), (1.1596255306748874e-27, -3.5527136788004694e-14),8.881784197001252e-15
(-0.9999999999998922, 7.6299999999991694), (1.1527229977542035e-27, -3.5527136788004694e-14),8.881784197001252e-15
(1.0791367799356527e-13, 7.6299999999991694), (1.1506542100302622e-27, -3.5527136788004694e-14),8.881784197001252e-15
(1.0000000000001084, 7.6299999999991694), (1.1527229977542035e-27, -3.5527136788004694e-14),8.881784197001252e-15
(2.0000000000001097, 7.6299999999991694), (1.1615976829379399e-27, -3.5527136788004694e-14),8.881784197001252e-15
(3.0000000000001097, 7.6299999999991694), (1.1556812261487823e-27, -3.5527136788004694e-14),8.881784197001252e-15
(-3.000000000000023, 8.62999999999916), (-1.1517369216226772e-27, 3.5527136788004694e-14),8.881784197001252e-15
(-2.000000000000023, 8.62999999999916), (-1.1596255306748874e-27, 3.5527136788004694e-14),8.881784197001252e-15
(-1.000000000000022, 8.62999999999916), (-1.1527229977542035e-27, 3.5527136788004694e-14),8.881784197001252e-15
(-2.1638468794549266e-14, 8.62999999999916), (-1.1506542100302622e-27, 3.5527136788004694e-14),8.881784197001252e-15
(0.9999999999999786, 8.62999999999916), (-1.1527229977542035e-27, 3.5527136788004694e-14),8.881784197001252e-15
(1.999999999999979, 8.62999999999916), (-1.1615976829379399e-27, 3.5527136788004694e-14),8.881784197001252e-15
(2.9999999999999796, 8.62999999999916), (-1.1556812261487823e-27, 3.5527136788004694e-14),8.881784197001252e-15
(-3.0, 9.62999999999916), (0, 0),0
(-2.0, 9.62999999999916), (0, 0),0
(-1.0, 9.62999999999916), (0, 0),0
(0.0, 9.62999999999916), (0, 0),0
(1.0, 9.62999999999916), (0, 0),0
(2.0, 9.62999999999916), (0, 0),0
(3.0, 9.62999999999916), (0, 0),0
(-3.0, 10.62999999999916), (0, 0),0
(-2.0, 10.62999999999916), (0, 0),0
(-1.0, 10.62999999999916), (0, 0),0
(0.0, 10.62999999999916), (0, 0),0
(1.0, 10.62999999999916), (0, 0),0
(2.0, 10.62999999999916), (0, 0),0
(3.0, 10.62999999999916), (0, 0),0
(-3.0, 11.629999999999516), (0, 0),0
(-2.0, 11.629999999999516), (0, 0),0
(-1.0, 11.629999999999516), (0, 0),0
(0.0, 11.629999999999516), (0, 0),0
(1.0, 11.629999999999516), (0, 0),0
(2.0, 11.629999999999516), (0, 0),0
(3.0, 11.629999999999516), (0, 0),0
(-3.0, 12.629999999999871), (0, 0),0
(-2.0, 12.629999999999871), (0, 0),0
(-1.0, 12.629999999999871), (0, 0),0
(0.0, 12.629999999999871), (0, 0),0
(1.0, 12.629999999999871), (0, 0),0
(2.0, 12.629999999999871), (0, 0),0
(3.0, 12.629999999999871), (0, 0),0
(-3.0, 13.630000000000226), (0, 0),0
(-2.0, 13.630000000000226), (0, 0),0
(-1.0, 13.630000000000226), (0, 0),0
(0.0, 13.630000000000226), (0, 0),0
(1.0, 13.630000000000226), (0, 0),0
(2.0, 13.630000000000226), (0, 0),0
(3.0, 13.630000000000226), (0, 0),0
