(-1.8683944378469934, 5.028521052715692), (0, 0),0
(-1.9622649133476107, 6.167146211194033), (-0.017384842190162147, -0.006262667874203633),0.01777101005868187
(-0.9839951283013219, 6.255248517330876), (0.00013135395343516487, 0.0044796257996550974),0.03533888592380985
(-0.0018907254022242739, 6.280622132334723), (0.0021307796799566025, 0.0032821395617980966),0.032931261189188765
(0.9824436669069058, 6.256228135575073), (-0.0031973309201030076, 0.004859647011614233),0.03410345670766346
(1.96003009664181, 6.171399956846421), (0.018320039476873388, -0.006358744498863794),0.018740071383602674
(1.8660087929262508, 5.030564784753426), (0, 0),0
(-3.0000000000001235, 7.559999999999315), (-1.33317492982351e-27, -3.5527136788004694e-14),8.881784197001252e-15
(-2.000000000000123, 7.559999999999315), (-1.3351470820865625e-27, -3.5527136788004694e-14),8.881784197001252e-15
(-1.0000000000001221, 7.559999999999315), (-1.3302167014289312e-27, -3.5527136788004694e-14),8.881784197001252e-15
(-1.215197942272539e-13, 7.559999999999315), (-1.3267210615426708e-27, -3.5527136788004694e-14),8.881784197001252e-15
(0.9999999999998788, 7.559999999999315), (-1.3272584730343524e-27, -3.5527136788004694e-14),8.881784197001252e-15
(1.9999999999998794, 7.559999999999315), (-1.3312027775604574e-27, -3.5527136788004694e-14),8.881784197001252e-15
(2.99999999999988, 7.559999999999315), (-1.3252863207712998e-27, -3.5527136788004694e-14),8.881784197001252e-15
(-2.9999999999999734, 8.559999999999306), (1.33317492982351e-27, 3.5527136788004694e-14),8.881784197001252e-15
(-1.9999999999999727, 8.559999999999306), (1.3351470820865625e-27, 3.5527136788004694e-14),8.881784197001252e-15
(-0.9999999999999724, 8.559999999999306), (1.3302167014289312e-27, 3.5527136788004694e-14),8.881784197001252e-15
(2.7855717732450142e-14, 8.559999999999306), (1.3267210615426708e-27, 3.5527136788004694e-14),8.881784197001252e-15
(1.0000000000000282, 8.559999999999306), (1.3272584730343524e-27, 3.5527136788004694e-14),8.881784197001252e-15
(2.0000000000000293, 8.559999999999306), (1.3312027775604574e-27, 3.5527136788004694e-14),8.881784197001252e-15
(3.0000000000000293, 8.559999999999306), (1.3252863207712998e-27, 3.5527136788004694e-14),8.881784197001252e-15
(-3.0, 9.559999999999306), (0, 0),0
(-2.0, 9.559999999999306), (0, 0),0
(-1.0, 9.559999999999306), (0, 0),0
(0.0, 9.559999999999306), (0, 0),0
(1.0, 9.559999999999306), (0, 0),0
(2.0, 9.559999999999306), (0, 0),0
(3.0, 9.559999999999306), (0, 0),0
(-3.0, 10.559999999999306), (0, 0),0
(-2.0, 10.559999999999306), (0, 0),0
(-1.0, 10.559999999999306), (0, 0),0
(0.0, 10.559999999999306), (0, 0),0
(1.0, 10.559999999999306), (0, 0),0
(2.0, 10.559999999999306), (0, 0),0
(3.0, 10.559999999999306), (0, 0),0
(-3.0, 11.559999999999306), (0, 0),0
(-2.0, 11.559999999999306), (0, 0),0
(-1.0, 11.559999999999306), (0, 0),0
(0.0, 11.559999999999306), (0, 0),0
(1.0, 11.559999999999306), (0, 0),0
(2.0, 11.559999999999306), (0, 0),0
(3.0, 11.559999999999306), (0, 0),0
(-3.0, 12.559999999999661), (0, 0),0
(-2.0, 12.559999999999661), (0, 0),0
(-1.0, 12.559999999999661), (0, 0),0
(0.0, 12.559999999999661), (0, 0),0
(1.0, 12.559999999999661), (0, 0),0
(2.0, 12.559999999999661), (0, 0),0
(3.0, 12.559999999999661), (0, 0),0
(-3.0, 13.560000000000016), (0, 0),0
(-2.0, 13.560000000000016), (0, 0),0
(-1.0, 13.560000000000016), (0, 0),0
(0.0, 13.560000000000016), (0, 0),0
(1.0, 13.560000000000016), (0, 0),0
(2.0, 13.560000000000016), (0, 0),0
(3.0, 13.560000000000016), (0, 0),0
(-3.0, 14.560000000000372), (0, 0),0
(-2.0, 14.560000000000372), (0, 0),0
(-1.0, 14.560000000000372), (0, 0),0
(0.0, 14.560000000000372), (0, 0),0
(1.0, 14.560000000000372), (0, 0),0
(2.0, 14.560000000000372), (0, 0),0
(3.0, 14.560000000000372), (0, 0),0
