(-3.0, 9.97499999999984), (0, 0),0
(-2.0, 9.97499999999984), (0, 0),0
(-1.0, 9.97499999999984), (0, 0),0
(0.0, 9.97499999999984), (0, 0),0
(1.0, 9.97499999999984), (0, 0),0
(2.0, 9.97499999999984), (0, 0),0
(3.0, 9.97499999999984), (0, 0),0
(-3.0, 10.97499999999984), (0, 0),0
(-2.0, 10.97499999999984), (0, 0),0
(-1.0, 10.97499999999984), (0, 0),0
(0.0, 10.97499999999984), (0, 0),0
(1.0, 10.97499999999984), (0, 0),0
(2.0, 10.97499999999984), (0, 0),0
(3.0, 10.97499999999984), (0, 0),0
(-3.0, 11.97499999999984), (0, 0),0
(-2.0, 11.97499999999984), (0, 0),0
(-1.0, 11.97499999999984), (0, 0),0
(0.0, 11.97499999999984), (0, 0),0
(1.0, 11.97499999999984), (0, 0),0
(2.0, 11.97499999999984), (0, 0),0
(3.0, 11.97499999999984), (0, 0),0
(-3.0, 12.97499999999984), (0, 0),0
(-2.0, 12.97499999999984), (0, 0),0
(-1.0, 12.97499999999984), (0, 0),0
(0.0, 12.97499999999984), (0, 0),0
(1.0, 12.97499999999984), (0, 0),0
(2.0, 12.97499999999984), (0, 0),0
(3.0, 12.97499999999984), (0, 0),0
(-3.0, 13.97499999999984), (0, 0),0
(-2.0, 13.97499999999984), (0, 0),0
(-1.0, 13.97499999999984), (0, 0),0
(0.0, 13.97499999999984), (0, 0),0
(1.0, 13.97499999999984), (0, 0),0
(2.0, 13.97499999999984), (0, 0),0
(3.0, 13.97499999999984), (0, 0),0
(-3.0, 14.97499999999984), (0, 0),0
(-2.0, 14.97499999999984), (0, 0),0
(-1.0, 14.97499999999984), (0, 0),0
(0.0, 14.97499999999984), (0, 0),0
(1.0, 14.97499999999984), (0, 0),0
(2.0, 14.97499999999984), (0, 0),0
(3.0, 14.97499999999984), (0, 0),0
(-3.0, 15.975000000000195), (0, 0),0
(-2.0, 15.975000000000195), (0, 0),0
(-1.0, 15.975000000000195), (0, 0),0
(0.0, 15.975000000000195), (0, 0),0
(1.0, 15.975000000000195), (0, 0),0
(2.0, 15.975000000000195), (0, 0),0
(3.0, 15.975000000000195), (0, 0),0
(-3.0, 16.975000000000204), (0, 0),0
(-2.0, 16.975000000000204), (0, 0),0
(-1.0, 16.975000000000204), (0, 0),0
(0.0, 16.975000000000204), (0, 0),0
(1.0, 16.975000000000204), (0, 0),0
(2.0, 16.975000000000204), (0, 0),0
(3.0, 16.975000000000204), (0, 0),0
(-3.0, 17.975000000000204), (0, 0),0
(-2.0, 17.975000000000204), (0, 0),0
(-1.0, 17.975000000000204), (0, 0),0
(0.0, 17.975000000000204), (0, 0),0
(1.0, 17.975000000000204), (0, 0),0
(2.0, 17.975000000000204), (0, 0),0
(3.0, 17.975000000000204), (0, 0),0
