(-1.8683944378469934, 5.068521052715691), (0, 0),0
(-1.9546553506089355, 6.21466526446236), (-0.020106824232958405, -0.007911422734803657),0.020629442173420443
(-0.9799889459659341, 6.310540648153017), (-0.0013455760656973653, 0.005647477244657729),0.042570727485116366
(-0.0022704580147998505, 6.336336145750178), (0.003163483926207411, 0.0041066330103297025),0.040583536115028074
(0.9787761208231677, 6.311624973000394), (-0.0031831113815788126, 0.006327873087708253),0.04069765924383362
(1.9523254346774963, 6.219010947851714), (0.02147202775402717, -0.008170560607892029),0.022055408440501467
(1.8660087929262508, 5.070564784753425), (0, 0),0
(-3.00000000000012, 7.599999999999321), (-1.270066057405829e-27, -3.5527136788004694e-14),8.881784197001252e-15
(-2.0000000000001195, 7.599999999999321), (-1.2720382096688815e-27, -3.5527136788004694e-14),8.881784197001252e-15
(-1.0000000000001186, 7.599999999999321), (-1.2671078290112502e-27, -3.5527136788004694e-14),8.881784197001252e-15
(-1.179670805484534e-13, 7.599999999999321), (-1.2636121891249899e-27, -3.5527136788004694e-14),8.881784197001252e-15
(0.9999999999998823, 7.599999999999321), (-1.2641496006166714e-27, -3.5527136788004694e-14),8.881784197001252e-15
(1.999999999999883, 7.599999999999321), (-1.2680939051427765e-27, -3.5527136788004694e-14),8.881784197001252e-15
(2.9999999999998836, 7.599999999999321), (-1.2621774483536189e-27, -3.5527136788004694e-14),8.881784197001252e-15
(-2.999999999999977, 8.599999999999312), (1.270066057405829e-27, 3.5527136788004694e-14),8.881784197001252e-15
(-1.9999999999999762, 8.599999999999312), (1.2720382096688815e-27, 3.5527136788004694e-14),8.881784197001252e-15
(-0.9999999999999759, 8.599999999999312), (1.2671078290112502e-27, 3.5527136788004694e-14),8.881784197001252e-15
(2.430300405364964e-14, 8.599999999999312), (1.2636121891249899e-27, 3.5527136788004694e-14),8.881784197001252e-15
(1.0000000000000246, 8.599999999999312), (1.2641496006166714e-27, 3.5527136788004694e-14),8.881784197001252e-15
(2.0000000000000258, 8.599999999999312), (1.2680939051427765e-27, 3.5527136788004694e-14),8.881784197001252e-15
(3.0000000000000258, 8.599999999999312), (1.2621774483536189e-27, 3.5527136788004694e-14),8.881784197001252e-15
(-3.0, 9.599999999999312), (0, 0),0
(-2.0, 9.599999999999312), (0, 0),0
(-1.0, 9.599999999999312), (0, 0),0
(0.0, 9.599999999999312), (0, 0),0
(1.0, 9.599999999999312), (0, 0),0
(2.0, 9.599999999999312), (0, 0),0
(3.0, 9.599999999999312), (0, 0),0
(-3.0, 10.599999999999312), (0, 0),0
(-2.0, 10.599999999999312), (0, 0),0
(-1.0, 10.599999999999312), (0, 0),0
(0.0, 10.599999999999312), (0, 0),0
(1.0, 10.599999999999312), (0, 0),0
(2.0, 10.599999999999312), (0, 0),0
(3.0, 10.599999999999312), (0, 0),0
(-3.0, 11.599999999999312), (0, 0),0
(-2.0, 11.599999999999312), (0, 0),0
(-1.0, 11.599999999999312), (0, 0),0
(0.0, 11.599999999999312), (0, 0),0
(1.0, 11.599999999999312), (0, 0),0
(2.0, 11.599999999999312), (0, 0),0
(3.0, 11.599999999999312), (0, 0),0
(-3.0, 12.599999999999667), (0, 0),0
(-2.0, 12.599999999999667), (0, 0),0
(-1.0, 12.599999999999667), (0, 0),0
(0.0, 12.599999999999667), (0, 0),0
(1.0, 12.599999999999667), (0, 0),0
(2.0, 12.599999999999667), (0, 0),0
(3.0, 12.599999999999667), (0, 0),0
(-3.0, 13.600000000000023), (0, 0),0
(-2.0, 13.600000000000023), (0, 0),0
(-1.0, 13.600000000000023), (0, 0),0
(0.0, 13.600000000000023), (0, 0),0
(1.0, 13.600000000000023), (0, 0),0
(2.0, 13.600000000000023), (0, 0),0
(3.0, 13.600000000000023), (0, 0),0
(-3.0, 14.600000000000378), (0, 0),0
(-2.0, 14.600000000000378), (0, 0),0
(-1.0, 14.600000000000378), (0, 0),0
(0.0, 14.600000000000378), (0, 0),0
(1.0, 14.600000000000378), (0, 0),0
(2.0, 14.600000000000378), (0, 0),0
(3.0, 14.600000000000378), (0, 0),0
