(-3.0, 10.799999999999969), (0, 0),0
(-2.0, 10.799999999999969), (0, 0),0
(-1.0, 10.799999999999969), (0, 0),0
(0.0, 10.799999999999969), (0, 0),0
(1.0, 10.799999999999969), (0, 0),0
(2.0, 10.799999999999969), (0, 0),0
(3.0, 10.799999999999969), (0, 0),0
(-3.0, 11.799999999999969), (0, 0),0
(-2.0, 11.799999999999969), (0, 0),0
(-1.0, 11.799999999999969), (0, 0),0
(0.0, 11.799999999999969), (0, 0),0
(1.0, 11.799999999999969), (0, 0),0
(2.0, 11.799999999999969), (0, 0),0
(3.0, 11.799999999999969), (0, 0),0
(-3.0, 12.799999999999969), (0, 0),0
(-2.0, 12.799999999999969), (0, 0),0
(-1.0, 12.799999999999969), (0, 0),0
(0.0, 12.799999999999969), (0, 0),0
(1.0, 12.799999999999969), (0, 0),0
(2.0, 12.799999999999969), (0, 0),0
(3.0, 12.799999999999969), (0, 0),0
(-3.0, 13.799999999999969), (0, 0),0
(-2.0, 13.799999999999969), (0, 0),0
(-1.0, 13.799999999999969), (0, 0),0
(0.0, 13.799999999999969), (0, 0),0
(1.0, 13.799999999999969), (0, 0),0
(2.0, 13.799999999999969), (0, 0),0
(3.0, 13.799999999999969), (0, 0),0
(-3.0, 14.799999999999969), (0, 0),0
(-2.0, 14.799999999999969), (0, 0),0
(-1.0, 14.799999999999969), (0, 0),0
(0.0, 14.799999999999969), (0, 0),0
(1.0, 14.799999999999969), (0, 0),0
(2.0, 14.799999999999969), (0, 0),0
(3.0, 14.799999999999969), (0, 0),0
(-3.0, 15.799999999999969), (0, 0),0
(-2.0, 15.799999999999969), (0, 0),0
(-1.0, 15.799999999999969), (0, 0),0
(0.0, 15.799999999999969), (0, 0),0
(1.0, 15.799999999999969), (0, 0),0
(2.0, 15.799999999999969), (0, 0),0
(3.0, 15.799999999999969), (0, 0),0
(-3.0, 16.80000000000004), (0, 0),0
(-2.0, 16.80000000000004), (0, 0),0
(-1.0, 16.80000000000004), (0, 0),0
(0.0, 16.80000000000004), (0, 0),0
(1.0, 16.80000000000004), (0, 0),0
(2.0, 16.80000000000004), (0, 0),0
(3.0, 16.80000000000004), (0, 0),0
(-3.0, 17.80000000000004), (0, 0),0
(-2.0, 17.80000000000004), (0, 0),0
(-1.0, 17.80000000000004), (0, 0),0
(0.0, 17.80000000000004), (0, 0),0
(1.0, 17.80000000000004), (0, 0),0
(2.0, 17.80000000000004), (0, 0),0
(3.0, 17.80000000000004), (0, 0),0
(-3.0, 18.80000000000004), (0, 0),0
(-2.0, 18.80000000000004), (0, 0),0
(-1.0, 18.80000000000004), (0, 0),0
(0.0, 18.80000000000004), (0, 0),0
(1.0, 18.80000000000004), (0, 0),0
(2.0, 18.80000000000004), (0, 0),0
(3.0, 18.80000000000004), (0, 0),0
