(-3.0, 9.774999999999809), (0, 0),0
(-2.0, 9.774999999999809), (0, 0),0
(-1.0, 9.774999999999809), (0, 0),0
(0.0, 9.774999999999809), (0, 0),0
(1.0, 9.774999999999809), (0, 0),0
(2.0, 9.774999999999809), (0, 0),0
(3.0, 9.774999999999809), (0, 0),0
(-3.0, 10.774999999999809), (0, 0),0
(-2.0, 10.774999999999809), (0, 0),0
(-1.0, 10.774999999999809), (0, 0),0
(0.0, 10.774999999999809), (0, 0),0
(1.0, 10.774999999999809), (0, 0),0
(2.0, 10.774999999999809), (0, 0),0
(3.0, 10.774999999999809), (0, 0),0
(-3.0, 11.774999999999809), (0, 0),0
(-2.0, 11.774999999999809), (0, 0),0
(-1.0, 11.774999999999809), (0, 0),0
(0.0, 11.774999999999809), (0, 0),0
(1.0, 11.774999999999809), (0, 0),0
(2.0, 11.774999999999809), (0, 0),0
(3.0, 11.774999999999809), (0, 0),0
(-3.0, 12.774999999999809), (0, 0),0
(-2.0, 12.774999999999809), (0, 0),0
(-1.0, 12.774999999999809), (0, 0),0
(0.0, 12.774999999999809), (0, 0),0
(1.0, 12.774999999999809), (0, 0),0
(2.0, 12.774999999999809), (0, 0),0
(3.0, 12.774999999999809), (0, 0),0
(-3.0, 13.774999999999809), (0, 0),0
(-2.0, 13.774999999999809), (0, 0),0
(-1.0, 13.774999999999809), (0, 0),0
(0.0, 13.774999999999809), (0, 0),0
(1.0, 13.774999999999809), (0, 0),0
(2.0, 13.774999999999809), (0, 0),0
(3.0, 13.774999999999809), (0, 0),0
(-3.0, 14.774999999999809), (0, 0),0
(-2.0, 14.774999999999809), (0, 0),0
(-1.0, 14.774999999999809), (0, 0),0
(0.0, 14.774999999999809), (0, 0),0
(1.0, 14.774999999999809), (0, 0),0
(2.0, 14.774999999999809), (0, 0),0
(3.0, 14.774999999999809), (0, 0),0
(-3.0, 15.775000000000164), (0, 0),0
(-2.0, 15.775000000000164), (0, 0),0
(-1.0, 15.775000000000164), (0, 0),0
(0.0, 15.775000000000164), (0, 0),0
(1.0, 15.775000000000164), (0, 0),0
(2.0, 15.775000000000164), (0, 0),0
(3.0, 15.775000000000164), (0, 0),0
(-3.0, 16.775000000000244), (0, 0),0
(-2.0, 16.775000000000244), (0, 0),0
(-1.0, 16.775000000000244), (0, 0),0
(0.0, 16.775000000000244), (0, 0),0
(1.0, 16.775000000000244), (0, 0),0
(2.0, 16.775000000000244), (0, 0),0
(3.0, 16.775000000000244), (0, 0),0
(-3.0, 17.775000000000244), (0, 0),0
(-2.0, 17.775000000000244), (0, 0),0
(-1.0, 17.775000000000244), (0, 0),0
(0.0, 17.775000000000244), (0, 0),0
(1.0, 17.775000000000244), (0, 0),0
(2.0, 17.775000000000244), (0, 0),0
(3.0, 17.775000000000244), (0, 0),0
