(-3.0, 9.414999999999752), (0, 0),0
(-2.0, 9.414999999999752), (0, 0),0
(-1.0, 9.414999999999752), (0, 0),0
(0.0, 9.414999999999752), (0, 0),0
(1.0, 9.414999999999752), (0, 0),0
(2.0, 9.414999999999752), (0, 0),0
(3.0, 9.414999999999752), (0, 0),0
(-3.0, 10.414999999999752), (0, 0),0
(-2.0, 10.414999999999752), (0, 0),0
(-1.0, 10.414999999999752), (0, 0),0
(0.0, 10.414999999999752), (0, 0),0
(1.0, 10.414999999999752), (0, 0),0
(2.0, 10.414999999999752), (0, 0),0
(3.0, 10.414999999999752), (0, 0),0
(-3.0, 11.414999999999752), (0, 0),0
(-2.0, 11.414999999999752), (0, 0),0
(-1.0, 11.414999999999752), (0, 0),0
(0.0, 11.414999999999752), (0, 0),0
(1.0, 11.414999999999752), (0, 0),0
(2.0, 11.414999999999752), (0, 0),0
(3.0, 11.414999999999752), (0, 0),0
(-3.0, 12.414999999999752), (0, 0),0
(-2.0, 12.414999999999752), (0, 0),0
(-1.0, 12.414999999999752), (0, 0),0
(0.0, 12.414999999999752), (0, 0),0
(1.0, 12.414999999999752), (0, 0),0
(2.0, 12.414999999999752), (0, 0),0
(3.0, 12.414999999999752), (0, 0),0
(-3.0, 13.414999999999752), (0, 0),0
(-2.0, 13.414999999999752), (0, 0),0
(-1.0, 13.414999999999752), (0, 0),0
(0.0, 13.414999999999752), (0, 0),0
(1.0, 13.414999999999752), (0, 0),0
(2.0, 13.414999999999752), (0, 0),0
(3.0, 13.414999999999752), (0, 0),0
(-3.0, 14.414999999999752), (0, 0),0
(-2.0, 14.414999999999752), (0, 0),0
(-1.0, 14.414999999999752), (0, 0),0
(0.0, 14.414999999999752), (0, 0),0
(1.0, 14.414999999999752), (0, 0),0
(2.0, 14.414999999999752), (0, 0),0
(3.0, 14.414999999999752), (0, 0),0
(-3.0, 15.415000000000108), (0, 0),0
(-2.0, 15.415000000000108), (0, 0),0
(-1.0, 15.415000000000108), (0, 0),0
(0.0, 15.415000000000108), (0, 0),0
(1.0, 15.415000000000108), (0, 0),0
(2.0, 15.415000000000108), (0, 0),0
(3.0, 15.415000000000108), (0, 0),0
(-3.0, 16.415000000000315), (0, 0),0
(-2.0, 16.415000000000315), (0, 0),0
(-1.0, 16.415000000000315), (0, 0),0
(0.0, 16.415000000000315), (0, 0),0
(1.0, 16.415000000000315), (0, 0),0
(2.0, 16.415000000000315), (0, 0),0
(3.0, 16.415000000000315), (0, 0),0
(-3.0, 17.415000000000315), (0, 0),0
(-2.0, 17.415000000000315), (0, 0),0
(-1.0, 17.415000000000315), (0, 0),0
(0.0, 17.415000000000315), (0, 0),0
(1.0, 17.415000000000315), (0, 0),0
(2.0, 17.415000000000315), (0, 0),0
(3.0, 17.415000000000315), (0, 0),0
