(-2.649412043875391, 6.326828487697959), (-0.0969402621277485, -0.2027281508533693),0.12501945973645767
(-1.874010659706082, 6.732221678647437), (0.017799473583145736, 0.17181002091259337),0.2121240215483715
(-0.9654384001326667, 6.820960228321614), (0.04747968782704168, 0.028098524257876425),0.11984547596473538
(0.0015810474545230547, 6.842489908813572), (-0.0028874190756337514, 0.005897211016927617),0.06858262873673471
(0.9655003296169131, 6.8210232646410205), (-0.044634923821996575, 0.027879982477914428),0.12299885013915934
(1.8740139368017146, 6.732225062363252), (-0.01775738092832717, 0.17177432661324718),0.2121778411474683
(2.6494120925256857, 6.326828385339134), (0.09694082454351859, -0.20273191442518973),0.12502070559222211
(-3.0000000000000973, 7.854999999999361), (-8.67746995743113e-28, -3.5527136788004694e-14),8.881784197001252e-15
(-2.000000000000097, 7.854999999999361), (-8.697191480061655e-28, -3.5527136788004694e-14),8.881784197001252e-15
(-1.000000000000096, 7.854999999999361), (-8.647887673485342e-28, -3.5527136788004694e-14),8.881784197001252e-15
(-9.531853084610021e-14, 7.854999999999361), (-8.612931274622737e-28, -3.5527136788004694e-14),8.881784197001252e-15
(0.999999999999905, 7.854999999999361), (-8.618305389539554e-28, -3.5527136788004694e-14),8.881784197001252e-15
(1.9999999999999056, 7.854999999999361), (-8.657748434800605e-28, -3.5527136788004694e-14),8.881784197001252e-15
(2.9999999999999063, 7.854999999999361), (-8.598583866909029e-28, -3.5527136788004694e-14),8.881784197001252e-15
(-2.9999999999999996, 8.854999999999352), (8.67746995743113e-28, 3.5527136788004694e-14),8.881784197001252e-15
(-1.999999999999999, 8.854999999999352), (8.697191480061655e-28, 3.5527136788004694e-14),8.881784197001252e-15
(-0.9999999999999986, 8.854999999999352), (8.647887673485342e-28, 3.5527136788004694e-14),8.881784197001252e-15
(1.6544543512964121e-15, 8.854999999999352), (8.612931274622737e-28, 3.5527136788004694e-14),8.881784197001252e-15
(1.000000000000002, 8.854999999999352), (8.618305389539554e-28, 3.5527136788004694e-14),8.881784197001252e-15
(2.000000000000003, 8.854999999999352), (8.657748434800605e-28, 3.5527136788004694e-14),8.881784197001252e-15
(3.000000000000003, 8.854999999999352), (8.598583866909029e-28, 3.5527136788004694e-14),8.881784197001252e-15
(-3.0, 9.854999999999352), (0, 0),0
(-2.0, 9.854999999999352), (0, 0),0
(-1.0, 9.854999999999352), (0, 0),0
(0.0, 9.854999999999352), (0, 0),0
(1.0, 9.854999999999352), (0, 0),0
(2.0, 9.854999999999352), (0, 0),0
(3.0, 9.854999999999352), (0, 0),0
(-3.0, 10.854999999999352), (0, 0),0
(-2.0, 10.854999999999352), (0, 0),0
(-1.0, 10.854999999999352), (0, 0),0
(0.0, 10.854999999999352), (0, 0),0
(1.0, 10.854999999999352), (0, 0),0
(2.0, 10.854999999999352), (0, 0),0
(3.0, 10.854999999999352), (0, 0),0
(-3.0, 11.854999999999352), (0, 0),0
(-2.0, 11.854999999999352), (0, 0),0
(-1.0, 11.854999999999352), (0, 0),0
(0.0, 11.854999999999352), (0, 0),0
(1.0, 11.854999999999352), (0, 0),0
(2.0, 11.854999999999352), (0, 0),0
(3.0, 11.854999999999352), (0, 0),0
(-3.0, 12.854999999999707), (0, 0),0
(-2.0, 12.854999999999707), (0, 0),0
(-1.0, 12.854999999999707), (0, 0),0
(0.0, 12.854999999999707), (0, 0),0
(1.0, 12.854999999999707), (0, 0),0
(2.0, 12.854999999999707), (0, 0),0
(3.0, 12.854999999999707), (0, 0),0
(-3.0, 13.855000000000063), (0, 0),0
(-2.0, 13.855000000000063), (0, 0),0
(-1.0, 13.855000000000063), (0, 0),0
(0.0, 13.855000000000063), (0, 0),0
(1.0, 13.855000000000063), (0, 0),0
(2.0, 13.855000000000063), (0, 0),0
(3.0, 13.855000000000063), (0, 0),0
(-3.0, 14.855000000000418), (0, 0),0
(-2.0, 14.855000000000418), (0, 0),0
(-1.0, 14.855000000000418), (0, 0),0
(0.0, 14.855000000000418), (0, 0),0
(1.0, 14.855000000000418), (0, 0),0
(2.0, 14.855000000000418), (0, 0),0
(3.0, 14.855000000000418), (0, 0),0
