(-3.0, 8.489999999999608), (0, 0),0
(-2.0, 8.489999999999608), (0, 0),0
(-1.0, 8.489999999999608), (0, 0),0
(0.0, 8.489999999999608), (0, 0),0
(1.0, 8.489999999999608), (0, 0),0
(2.0, 8.489999999999608), (0, 0),0
(3.0, 8.489999999999608), (0, 0),0
(-3.0, 9.489999999999608), (0, 0),0
(-2.0, 9.489999999999608), (0, 0),0
(-1.0, 9.489999999999608), (0, 0),0
(0.0, 9.489999999999608), (0, 0),0
(1.0, 9.489999999999608), (0, 0),0
(2.0, 9.489999999999608), (0, 0),0
(3.0, 9.489999999999608), (0, 0),0
(-3.0, 10.489999999999608), (0, 0),0
(-2.0, 10.489999999999608), (0, 0),0
(-1.0, 10.489999999999608), (0, 0),0
(0.0, 10.489999999999608), (0, 0),0
(1.0, 10.489999999999608), (0, 0),0
(2.0, 10.489999999999608), (0, 0),0
(3.0, 10.489999999999608), (0, 0),0
(-3.0, 11.489999999999608), (0, 0),0
(-2.0, 11.489999999999608), (0, 0),0
(-1.0, 11.489999999999608), (0, 0),0
(0.0, 11.489999999999608), (0, 0),0
(1.0, 11.489999999999608), (0, 0),0
(2.0, 11.489999999999608), (0, 0),0
(3.0, 11.489999999999608), (0, 0),0
(-3.0, 12.489999999999608), (0, 0),0
(-2.0, 12.489999999999608), (0, 0),0
(-1.0, 12.489999999999608), (0, 0),0
(0.0, 12.489999999999608), (0, 0),0
(1.0, 12.489999999999608), (0, 0),0
(2.0, 12.489999999999608), (0, 0),0
(3.0, 12.489999999999608), (0, 0),0
(-3.0, 13.489999999999608), (0, 0),0
(-2.0, 13.489999999999608), (0, 0),0
(-1.0, 13.489999999999608), (0, 0),0
(0.0, 13.489999999999608), (0, 0),0
(1.0, 13.489999999999608), (0, 0),0
(2.0, 13.489999999999608), (0, 0),0
(3.0, 13.489999999999608), (0, 0),0
(-3.0, 14.489999999999963), (0, 0),0
(-2.0, 14.489999999999963), (0, 0),0
(-1.0, 14.489999999999963), (0, 0),0
(0.0, 14.489999999999963), (0, 0),0
(1.0, 14.489999999999963), (0, 0),0
(2.0, 14.489999999999963), (0, 0),0
(3.0, 14.489999999999963), (0, 0),0
(-3.0, 15.490000000000318), (0, 0),0
(-2.0, 15.490000000000318), (0, 0),0
(-1.0, 15.490000000000318), (0, 0),0
(0.0, 15.490000000000318), (0, 0),0
(1.0, 15.490000000000318), (0, 0),0
(2.0, 15.490000000000318), (0, 0),0
(3.0, 15.490000000000318), (0, 0),0
(-3.0, 16.4900000000005), (0, 0),0
(-2.0, 16.4900000000005), (0, 0),0
(-1.0, 16.4900000000005), (0, 0),0
(0.0, 16.4900000000005), (0, 0),0
(1.0, 16.4900000000005), (0, 0),0
(2.0, 16.4900000000005), (0, 0),0
(3.0, 16.4900000000005), (0, 0),0
