(-3.0, 9.119999999999706), (0, 0),0
(-2.0, 9.119999999999706), (0, 0),0
(-1.0, 9.119999999999706), (0, 0),0
(0.0, 9.119999999999706), (0, 0),0
(1.0, 9.119999999999706), (0, 0),0
(2.0, 9.119999999999706), (0, 0),0
(3.0, 9.119999999999706), (0, 0),0
(-3.0, 10.119999999999706), (0, 0),0
(-2.0, 10.119999999999706), (0, 0),0
(-1.0, 10.119999999999706), (0, 0),0
(0.0, 10.119999999999706), (0, 0),0
(1.0, 10.119999999999706), (0, 0),0
(2.0, 10.119999999999706), (0, 0),0
(3.0, 10.119999999999706), (0, 0),0
(-3.0, 11.119999999999706), (0, 0),0
(-2.0, 11.119999999999706), (0, 0),0
(-1.0, 11.119999999999706), (0, 0),0
(0.0, 11.119999999999706), (0, 0),0
(1.0, 11.119999999999706), (0, 0),0
(2.0, 11.119999999999706), (0, 0),0
(3.0, 11.119999999999706), (0, 0),0
(-3.0, 12.119999999999706), (0, 0),0
(-2.0, 12.119999999999706), (0, 0),0
(-1.0, 12.119999999999706), (0, 0),0
(0.0, 12.119999999999706), (0, 0),0
(1.0, 12.119999999999706), (0, 0),0
(2.0, 12.119999999999706), (0, 0),0
(3.0, 12.119999999999706), (0, 0),0
(-3.0, 13.119999999999706), (0, 0),0
(-2.0, 13.119999999999706), (0, 0),0
(-1.0, 13.119999999999706), (0, 0),0
(0.0, 13.119999999999706), (0, 0),0
(1.0, 13.119999999999706), (0, 0),0
(2.0, 13.119999999999706), (0, 0),0
(3.0, 13.119999999999706), (0, 0),0
(-3.0, 14.119999999999706), (0, 0),0
(-2.0, 14.119999999999706), (0, 0),0
(-1.0, 14.119999999999706), (0, 0),0
(0.0, 14.119999999999706), (0, 0),0
(1.0, 14.119999999999706), (0, 0),0
(2.0, 14.119999999999706), (0, 0),0
(3.0, 14.119999999999706), (0, 0),0
(-3.0, 15.120000000000061), (0, 0),0
(-2.0, 15.120000000000061), (0, 0),0
(-1.0, 15.120000000000061), (0, 0),0
(0.0, 15.120000000000061), (0, 0),0
(1.0, 15.120000000000061), (0, 0),0
(2.0, 15.120000000000061), (0, 0),0
(3.0, 15.120000000000061), (0, 0),0
(-3.0, 16.120000000000374), (0, 0),0
(-2.0, 16.120000000000374), (0, 0),0
(-1.0, 16.120000000000374), (0, 0),0
(0.0, 16.120000000000374), (0, 0),0
(1.0, 16.120000000000374), (0, 0),0
(2.0, 16.120000000000374), (0, 0),0
(3.0, 16.120000000000374), (0, 0),0
(-3.0, 17.120000000000374), (0, 0),0
(-2.0, 17.120000000000374), (0, 0),0
(-1.0, 17.120000000000374), (0, 0),0
(0.0, 17.120000000000374), (0, 0),0
(1.0, 17.120000000000374), (0, 0),0
(2.0, 17.120000000000374), (0, 0),0
(3.0, 17.120000000000374), (0, 0),0
