(-1.2344818712408088, -2.9802202330988616), (-0.00018833042442386845, -0.009100187683119234),0.0029466144757444024
(0.5699053870279845, -2.250561761677388), (-0.00019795794832520115, 5.221648864041416e-05),0.0018359137170333995
(-1.0014872971801172, 4.295490103423341), (-4.26140534407957e-06, -6.913269224872624e-08),4.26145855203508e-06
(-0.0014997830355727687, 4.29954579770058), (-5.071013368793121e-07, 9.402631449146617e-08),9.02999203300503e-06
(0.9984945967855662, 4.298240699270314), (4.768506680958882e-06, -2.489362224273993e-08),4.76853348096995e-06
(-1.6630599943089568, -2.0786881315476937), (-0.0007636914007517902, 0.006425827884330342),0.0017819187673057124
(-0.41708225494800655, -2.406173342693909), (0.00014214726712799281, 0.0021636103018628948),0.001985247581232419
(-0.02549673762297955, -0.5223336939480243), (0, 0),0
(-1.9698401956868314, 5.47540992923009), (0.09549926011874367, -0.5524278248083959),0.27330604521546586
(-0.9981624273605748, 5.474704880846734), (0.02626988960795758, -0.0001993640721306233),0.02957384468534474
(0.0003005980568994822, 5.498567329257795), (-4.9813641326547755e-05, 0.00025950850033190046),0.002553793440458918
(0.9986366890353497, 5.471680619116449), (-0.02627376850278989, -0.0005239138081907865),0.02968098986283363
(1.9702517382838562, 5.475062477571847), (-0.09535089957658946, -0.5524976539728291),0.27337662453086553
(1.5624899637387217, -2.1376628451761124), (0.001007832506372867, 0.0004585330082855835),0.0010153618442396706
(-2.471991599955377, 6.03922995614672), (-0.19536456234794708, 0.25889579381603756),0.3616596974015712
(-1.8519352170882888, 6.668349998836205), (-0.0007629800725962171, 0.2598690335150675),0.19666791639310277
(-0.9379915168515296, 6.7738066360863), (0.012907323848000148, 0.025715082073462098),0.1443715450349985
(-0.002890255831319431, 6.804980453815956), (0.004961563902345638, 0.015378329068130303),0.12309716751971811
(0.9378714209734764, 6.773684465463451), (-0.01777759111037326, 0.02630877834489905),0.1385993961705997
(1.8519399440014892, 6.668343038712148), (0.0006649843364501251, 0.259978557902517),0.19656927945583058
(2.4719890893875602, 6.03923294468417), (0.1952765934381253, 0.25924367344110116),0.361685353400094
(-3.0000000000000915, 7.834999999999045), (-8.322482550081675e-28, -3.5527136788004694e-14),8.881784197001252e-15
(-2.0000000000000915, 7.834999999999045), (-8.38164711797325e-28, -3.5527136788004694e-14),8.881784197001252e-15
(-1.0000000000000902, 7.834999999999045), (-8.292900266135887e-28, -3.5527136788004694e-14),8.881784197001252e-15
(-8.97060203897127e-14, 7.834999999999045), (-8.27221238889647e-28, -3.5527136788004694e-14),8.881784197001252e-15
(0.9999999999999104, 7.834999999999045), (-8.292900266135887e-28, -3.5527136788004694e-14),8.881784197001252e-15
(1.9999999999999107, 7.834999999999045), (-8.361925595342725e-28, -3.5527136788004694e-14),8.881784197001252e-15
(2.9999999999999116, 7.834999999999045), (-8.283039504820624e-28, -3.5527136788004694e-14),8.881784197001252e-15
(-2.999999999999998, 8.834999999999036), (8.322482550081675e-28, 3.5527136788004694e-14),8.881784197001252e-15
(-1.9999999999999971, 8.834999999999036), (8.38164711797325e-28, 3.5527136788004694e-14),8.881784197001252e-15
(-0.9999999999999968, 8.834999999999036), (8.292900266135887e-28, 3.5527136788004694e-14),8.881784197001252e-15
(3.430811190696665e-15, 8.834999999999036), (8.27221238889647e-28, 3.5527136788004694e-14),8.881784197001252e-15
(1.0000000000000038, 8.834999999999036), (8.292900266135887e-28, 3.5527136788004694e-14),8.881784197001252e-15
(2.000000000000005, 8.834999999999036), (8.361925595342725e-28, 3.5527136788004694e-14),8.881784197001252e-15
(3.000000000000005, 8.834999999999036), (8.283039504820624e-28, 3.5527136788004694e-14),8.881784197001252e-15
(-3.0, 9.834999999999036), (0, 0),0
(-2.0, 9.834999999999036), (0, 0),0
(-1.0, 9.834999999999036), (0, 0),0
(0.0, 9.834999999999036), (0, 0),0
(1.0, 9.834999999999036), (0, 0),0
(2.0, 9.834999999999036), (0, 0),0
(3.0, 9.834999999999036), (0, 0),0
(-3.0, 10.834999999999392), (0, 0),0
(-2.0, 10.834999999999392), (0, 0),0
(-1.0, 10.834999999999392), (0, 0),0
(0.0, 10.834999999999392), (0, 0),0
(1.0, 10.834999999999392), (0, 0),0
(2.0, 10.834999999999392), (0, 0),0
(3.0, 10.834999999999392), (0, 0),0
(-3.0, 11.834999999999747), (0, 0),0
(-2.0, 11.834999999999747), (0, 0),0
(-1.0, 11.834999999999747), (0, 0),0
(0.0, 11.834999999999747), (0, 0),0
(1.0, 11.834999999999747), (0, 0),0
(2.0, 11.834999999999747), (0, 0),0
(3.0, 11.834999999999747), (0, 0),0
(-3.0, 12.835000000000102), (0, 0),0
(-2.0, 12.835000000000102), (0, 0),0
(-1.0, 12.835000000000102), (0, 0),0
(0.0, 12.835000000000102), (0, 0),0
(1.0, 12.835000000000102), (0, 0),0
(2.0, 12.835000000000102), (0, 0),0
(3.0, 12.835000000000102), (0, 0),0
