(-3.000000000000079, 7.084999999999397), (0.0, -3.5527136788004694e-14),8.881784197001252e-15
(-2.000000000000079, 7.084999999999397), (0.0, -3.5527136788004694e-14),8.881784197001252e-15
(-1.0000000000000784, 7.084999999999397), (0.0, -3.5527136788004694e-14),8.881784197001252e-15
(-7.795464274096276e-14, 7.084999999999397), (0.0, -3.5527136788004694e-14),8.881784197001252e-15
(0.9999999999999223, 7.084999999999397), (0.0, -3.5527136788004694e-14),8.881784197001252e-15
(1.9999999999999227, 7.084999999999397), (0.0, -3.5527136788004694e-14),8.881784197001252e-15
(2.9999999999999227, 7.084999999999397), (0.0, -3.5527136788004694e-14),8.881784197001252e-15
(-3.000000000000079, 8.084999999999388), (0.0, 3.5527136788004694e-14),8.881784197001252e-15
(-2.000000000000079, 8.084999999999388), (0.0, 3.5527136788004694e-14),8.881784197001252e-15
(-1.0000000000000784, 8.084999999999388), (0.0, 3.5527136788004694e-14),8.881784197001252e-15
(-7.795464274096276e-14, 8.084999999999388), (0.0, 3.5527136788004694e-14),8.881784197001252e-15
(0.9999999999999223, 8.084999999999388), (0.0, 3.5527136788004694e-14),8.881784197001252e-15
(1.9999999999999227, 8.084999999999388), (0.0, 3.5527136788004694e-14),8.881784197001252e-15
(2.9999999999999227, 8.084999999999388), (0.0, 3.5527136788004694e-14),8.881784197001252e-15
(-3.0, 9.084999999999388), (0, 0),0
(-2.0, 9.084999999999388), (0, 0),0
(-1.0, 9.084999999999388), (0, 0),0
(0.0, 9.084999999999388), (0, 0),0
(1.0, 9.084999999999388), (0, 0),0
(2.0, 9.084999999999388), (0, 0),0
(3.0, 9.084999999999388), (0, 0),0
(-3.0, 10.084999999999388), (0, 0),0
(-2.0, 10.084999999999388), (0, 0),0
(-1.0, 10.084999999999388), (0, 0),0
(0.0, 10.084999999999388), (0, 0),0
(1.0, 10.084999999999388), (0, 0),0
(2.0, 10.084999999999388), (0, 0),0
(3.0, 10.084999999999388), (0, 0),0
(-3.0, 11.084999999999388), (0, 0),0
(-2.0, 11.084999999999388), (0, 0),0
(-1.0, 11.084999999999388), (0, 0),0
(0.0, 11.084999999999388), (0, 0),0
(1.0, 11.084999999999388), (0, 0),0
(2.0, 11.084999999999388), (0, 0),0
(3.0, 11.084999999999388), (0, 0),0
(-3.0, 12.084999999999388), (0, 0),0
(-2.0, 12.084999999999388), (0, 0),0
(-1.0, 12.084999999999388), (0, 0),0
(0.0, 12.084999999999388), (0, 0),0
(1.0, 12.084999999999388), (0, 0),0
(2.0, 12.084999999999388), (0, 0),0
(3.0, 12.084999999999388), (0, 0),0
(-3.0, 13.084999999999743), (0, 0),0
(-2.0, 13.084999999999743), (0, 0),0
(-1.0, 13.084999999999743), (0, 0),0
(0.0, 13.084999999999743), (0, 0),0
(1.0, 13.084999999999743), (0, 0),0
(2.0, 13.084999999999743), (0, 0),0
(3.0, 13.084999999999743), (0, 0),0
(-3.0, 14.085000000000099), (0, 0),0
(-2.0, 14.085000000000099), (0, 0),0
(-1.0, 14.085000000000099), (0, 0),0
(0.0, 14.085000000000099), (0, 0),0
(1.0, 14.085000000000099), (0, 0),0
(2.0, 14.085000000000099), (0, 0),0
(3.0, 14.085000000000099), (0, 0),0
(-3.0, 15.085000000000454), (0, 0),0
(-2.0, 15.085000000000454), (0, 0),0
(-1.0, 15.085000000000454), (0, 0),0
(0.0, 15.085000000000454), (0, 0),0
(1.0, 15.085000000000454), (0, 0),0
(2.0, 15.085000000000454), (0, 0),0
(3.0, 15.085000000000454), (0, 0),0
