(-3.0, 8.05999999999954), (0, 0),0
(-2.0, 8.05999999999954), (0, 0),0
(-1.0, 8.05999999999954), (0, 0),0
(0.0, 8.05999999999954), (0, 0),0
(1.0, 8.05999999999954), (0, 0),0
(2.0, 8.05999999999954), (0, 0),0
(3.0, 8.05999999999954), (0, 0),0
(-3.0, 9.05999999999954), (0, 0),0
(-2.0, 9.05999999999954), (0, 0),0
(-1.0, 9.05999999999954), (0, 0),0
(0.0, 9.05999999999954), (0, 0),0
(1.0, 9.05999999999954), (0, 0),0
(2.0, 9.05999999999954), (0, 0),0
(3.0, 9.05999999999954), (0, 0),0
(-3.0, 10.05999999999954), (0, 0),0
(-2.0, 10.05999999999954), (0, 0),0
(-1.0, 10.05999999999954), (0, 0),0
(0.0, 10.05999999999954), (0, 0),0
(1.0, 10.05999999999954), (0, 0),0
(2.0, 10.05999999999954), (0, 0),0
(3.0, 10.05999999999954), (0, 0),0
(-3.0, 11.05999999999954), (0, 0),0
(-2.0, 11.05999999999954), (0, 0),0
(-1.0, 11.05999999999954), (0, 0),0
(0.0, 11.05999999999954), (0, 0),0
(1.0, 11.05999999999954), (0, 0),0
(2.0, 11.05999999999954), (0, 0),0
(3.0, 11.05999999999954), (0, 0),0
(-3.0, 12.05999999999954), (0, 0),0
(-2.0, 12.05999999999954), (0, 0),0
(-1.0, 12.05999999999954), (0, 0),0
(0.0, 12.05999999999954), (0, 0),0
(1.0, 12.05999999999954), (0, 0),0
(2.0, 12.05999999999954), (0, 0),0
(3.0, 12.05999999999954), (0, 0),0
(-3.0, 13.05999999999954), (0, 0),0
(-2.0, 13.05999999999954), (0, 0),0
(-1.0, 13.05999999999954), (0, 0),0
(0.0, 13.05999999999954), (0, 0),0
(1.0, 13.05999999999954), (0, 0),0
(2.0, 13.05999999999954), (0, 0),0
(3.0, 13.05999999999954), (0, 0),0
(-3.0, 14.059999999999896), (0, 0),0
(-2.0, 14.059999999999896), (0, 0),0
(-1.0, 14.059999999999896), (0, 0),0
(0.0, 14.059999999999896), (0, 0),0
(1.0, 14.059999999999896), (0, 0),0
(2.0, 14.059999999999896), (0, 0),0
(3.0, 14.059999999999896), (0, 0),0
(-3.0, 15.060000000000251), (0, 0),0
(-2.0, 15.060000000000251), (0, 0),0
(-1.0, 15.060000000000251), (0, 0),0
(0.0, 15.060000000000251), (0, 0),0
(1.0, 15.060000000000251), (0, 0),0
(2.0, 15.060000000000251), (0, 0),0
(3.0, 15.060000000000251), (0, 0),0
(-3.0, 16.060000000000585), (0, 0),0
(-2.0, 16.060000000000585), (0, 0),0
(-1.0, 16.060000000000585), (0, 0),0
(0.0, 16.060000000000585), (0, 0),0
(1.0, 16.060000000000585), (0, 0),0
(2.0, 16.060000000000585), (0, 0),0
(3.0, 16.060000000000585), (0, 0),0
