(-1.4278817359547742, 4.3348384778424), (0, 0),0
(-1.9891723444246614, 5.875601541540283), (-0.004691104023877991, -0.0011435958761913236),0.004722106282045391
(-0.9957376896997725, 5.936146339130903), (-0.001449195842871902, 0.0005333347139492551),0.010902498464736232
(-0.002224707797626036, 5.960831712817673), (0.0018554763932377497, 0.0009975484333408272),0.010484837682551706
(0.9932167430583888, 5.938338265571606), (-0.0007575383502055038, 0.0007904007664894712),0.00938116873532191
(1.986448319776343, 5.880343768778771), (0.0050423618237176475, -0.00117768803758823),0.005076723235461045
(1.4254960910340317, 4.336882209880134), (0, 0),0
(-3.000000000000147, 7.294999999999273), (-1.7512712095906462e-27, -3.5527136788004694e-14),8.881784197001252e-15
(-2.0000000000001465, 7.294999999999273), (-1.7532433618536987e-27, -3.5527136788004694e-14),8.881784197001252e-15
(-1.0000000000001457, 7.294999999999273), (-1.7483129811960674e-27, -3.5527136788004694e-14),8.881784197001252e-15
(-1.4505652234930723e-13, 7.294999999999273), (-1.744817341309807e-27, -3.5527136788004694e-14),8.881784197001252e-15
(0.9999999999998552, 7.294999999999273), (-1.7453547528014886e-27, -3.5527136788004694e-14),8.881784197001252e-15
(1.999999999999856, 7.294999999999273), (-1.7492990573275937e-27, -3.5527136788004694e-14),8.881784197001252e-15
(2.9999999999998566, 7.294999999999273), (-1.743382600538436e-27, -3.5527136788004694e-14),8.881784197001252e-15
(-2.99999999999995, 8.294999999999265), (1.7512712095906462e-27, 3.5527136788004694e-14),8.881784197001252e-15
(-1.9999999999999492, 8.294999999999265), (1.7532433618536987e-27, 3.5527136788004694e-14),8.881784197001252e-15
(-0.9999999999999488, 8.294999999999265), (1.7483129811960674e-27, 3.5527136788004694e-14),8.881784197001252e-15
(5.1392445854503464e-14, 8.294999999999265), (1.744817341309807e-27, 3.5527136788004694e-14),8.881784197001252e-15
(1.0000000000000517, 8.294999999999265), (1.7453547528014886e-27, 3.5527136788004694e-14),8.881784197001252e-15
(2.000000000000053, 8.294999999999265), (1.7492990573275937e-27, 3.5527136788004694e-14),8.881784197001252e-15
(3.000000000000053, 8.294999999999265), (1.743382600538436e-27, 3.5527136788004694e-14),8.881784197001252e-15
(-3.0, 9.294999999999265), (0, 0),0
(-2.0, 9.294999999999265), (0, 0),0
(-1.0, 9.294999999999265), (0, 0),0
(0.0, 9.294999999999265), (0, 0),0
(1.0, 9.294999999999265), (0, 0),0
(2.0, 9.294999999999265), (0, 0),0
(3.0, 9.294999999999265), (0, 0),0
(-3.0, 10.294999999999265), (0, 0),0
(-2.0, 10.294999999999265), (0, 0),0
(-1.0, 10.294999999999265), (0, 0),0
(0.0, 10.294999999999265), (0, 0),0
(1.0, 10.294999999999265), (0, 0),0
(2.0, 10.294999999999265), (0, 0),0
(3.0, 10.294999999999265), (0, 0),0
(-3.0, 11.294999999999265), (0, 0),0
(-2.0, 11.294999999999265), (0, 0),0
(-1.0, 11.294999999999265), (0, 0),0
(0.0, 11.294999999999265), (0, 0),0
(1.0, 11.294999999999265), (0, 0),0
(2.0, 11.294999999999265), (0, 0),0
(3.0, 11.294999999999265), (0, 0),0
(-3.0, 12.29499999999962), (0, 0),0
(-2.0, 12.29499999999962), (0, 0),0
(-1.0, 12.29499999999962), (0, 0),0
(0.0, 12.29499999999962), (0, 0),0
(1.0, 12.29499999999962), (0, 0),0
(2.0, 12.29499999999962), (0, 0),0
(3.0, 12.29499999999962), (0, 0),0
(-3.0, 13.294999999999975), (0, 0),0
(-2.0, 13.294999999999975), (0, 0),0
(-1.0, 13.294999999999975), (0, 0),0
(0.0, 13.294999999999975), (0, 0),0
(1.0, 13.294999999999975), (0, 0),0
(2.0, 13.294999999999975), (0, 0),0
(3.0, 13.294999999999975), (0, 0),0
(-3.0, 14.29500000000033), (0, 0),0
(-2.0, 14.29500000000033), (0, 0),0
(-1.0, 14.29500000000033), (0, 0),0
(0.0, 14.29500000000033), (0, 0),0
(1.0, 14.29500000000033), (0, 0),0
(2.0, 14.29500000000033), (0, 0),0
(3.0, 14.29500000000033), (0, 0),0
