(-3.0, 8.204999999999563), (0, 0),0
(-2.0, 8.204999999999563), (0, 0),0
(-1.0, 8.204999999999563), (0, 0),0
(0.0, 8.204999999999563), (0, 0),0
(1.0, 8.204999999999563), (0, 0),0
(2.0, 8.204999999999563), (0, 0),0
(3.0, 8.204999999999563), (0, 0),0
(-3.0, 9.204999999999563), (0, 0),0
(-2.0, 9.204999999999563), (0, 0),0
(-1.0, 9.204999999999563), (0, 0),0
(0.0, 9.204999999999563), (0, 0),0
(1.0, 9.204999999999563), (0, 0),0
(2.0, 9.204999999999563), (0, 0),0
(3.0, 9.204999999999563), (0, 0),0
(-3.0, 10.204999999999563), (0, 0),0
(-2.0, 10.204999999999563), (0, 0),0
(-1.0, 10.204999999999563), (0, 0),0
(0.0, 10.204999999999563), (0, 0),0
(1.0, 10.204999999999563), (0, 0),0
(2.0, 10.204999999999563), (0, 0),0
(3.0, 10.204999999999563), (0, 0),0
(-3.0, 11.204999999999563), (0, 0),0
(-2.0, 11.204999999999563), (0, 0),0
(-1.0, 11.204999999999563), (0, 0),0
(0.0, 11.204999999999563), (0, 0),0
(1.0, 11.204999999999563), (0, 0),0
(2.0, 11.204999999999563), (0, 0),0
(3.0, 11.204999999999563), (0, 0),0
(-3.0, 12.204999999999563), (0, 0),0
(-2.0, 12.204999999999563), (0, 0),0
(-1.0, 12.204999999999563), (0, 0),0
(0.0, 12.204999999999563), (0, 0),0
(1.0, 12.204999999999563), (0, 0),0
(2.0, 12.204999999999563), (0, 0),0
(3.0, 12.204999999999563), (0, 0),0
(-3.0, 13.204999999999563), (0, 0),0
(-2.0, 13.204999999999563), (0, 0),0
(-1.0, 13.204999999999563), (0, 0),0
(0.0, 13.204999999999563), (0, 0),0
(1.0, 13.204999999999563), (0, 0),0
(2.0, 13.204999999999563), (0, 0),0
(3.0, 13.204999999999563), (0, 0),0
(-3.0, 14.204999999999918), (0, 0),0
(-2.0, 14.204999999999918), (0, 0),0
(-1.0, 14.204999999999918), (0, 0),0
(0.0, 14.204999999999918), (0, 0),0
(1.0, 14.204999999999918), (0, 0),0
(2.0, 14.204999999999918), (0, 0),0
(3.0, 14.204999999999918), (0, 0),0
(-3.0, 15.205000000000274), (0, 0),0
(-2.0, 15.205000000000274), (0, 0),0
(-1.0, 15.205000000000274), (0, 0),0
(0.0, 15.205000000000274), (0, 0),0
(1.0, 15.205000000000274), (0, 0),0
(2.0, 15.205000000000274), (0, 0),0
(3.0, 15.205000000000274), (0, 0),0
(-3.0, 16.205000000000556), (0, 0),0
(-2.0, 16.205000000000556), (0, 0),0
(-1.0, 16.205000000000556), (0, 0),0
(0.0, 16.205000000000556), (0, 0),0
(1.0, 16.205000000000556), (0, 0),0
(2.0, 16.205000000000556), (0, 0),0
(3.0, 16.205000000000556), (0, 0),0
