(-1.2076253850086647, 3.9454971904057543), (0, 0),0
(-1.9955392808139165, 5.69433014043707), (-0.0023132520290807435, -0.0005014967733401989),0.002322038932963233
(-0.9993234136971996, 5.748323289111393), (0.00014769920976848323, 0.0002844900142956182),0.004492984209005457
(-0.0018073347750237336, 5.773313181928981), (-0.000200807690646323, 0.00042176975732586956),0.004543488378887517
(0.9955867724682568, 5.7517368617732245), (0.00037728525093156436, 0.00021105825288774975),0.004368316134777617
(1.9922307932070176, 5.699649118763886), (0.001989075259027019, -0.0004158212511690386),0.001995773031932324
(1.2052397400879222, 3.9475409224434883), (0, 0),0
(-3.0000000000001625, 7.119999999999246), (-2.0273725264180003e-27, -3.5527136788004694e-14),8.881784197001252e-15
(-2.000000000000162, 7.119999999999246), (-2.029344678681053e-27, -3.5527136788004694e-14),8.881784197001252e-15
(-1.0000000000001612, 7.119999999999246), (-2.0244142980234215e-27, -3.5527136788004694e-14),8.881784197001252e-15
(-1.6059964469405942e-13, 7.119999999999246), (-2.0209186581371612e-27, -3.5527136788004694e-14),8.881784197001252e-15
(0.9999999999998397, 7.119999999999246), (-2.0214560696288428e-27, -3.5527136788004694e-14),8.881784197001252e-15
(1.9999999999998403, 7.119999999999246), (-2.0254003741549478e-27, -3.5527136788004694e-14),8.881784197001252e-15
(2.999999999999841, 7.119999999999246), (-2.0194839173657902e-27, -3.5527136788004694e-14),8.881784197001252e-15
(-2.9999999999999343, 8.119999999999237), (2.0273725264180003e-27, 3.5527136788004694e-14),8.881784197001252e-15
(-1.9999999999999336, 8.119999999999237), (2.029344678681053e-27, 3.5527136788004694e-14),8.881784197001252e-15
(-0.9999999999999333, 8.119999999999237), (2.0244142980234215e-27, 3.5527136788004694e-14),8.881784197001252e-15
(6.693556819925566e-14, 8.119999999999237), (2.0209186581371612e-27, 3.5527136788004694e-14),8.881784197001252e-15
(1.0000000000000673, 8.119999999999237), (2.0214560696288428e-27, 3.5527136788004694e-14),8.881784197001252e-15
(2.0000000000000684, 8.119999999999237), (2.0254003741549478e-27, 3.5527136788004694e-14),8.881784197001252e-15
(3.0000000000000684, 8.119999999999237), (2.0194839173657902e-27, 3.5527136788004694e-14),8.881784197001252e-15
(-3.0, 9.119999999999237), (0, 0),0
(-2.0, 9.119999999999237), (0, 0),0
(-1.0, 9.119999999999237), (0, 0),0
(0.0, 9.119999999999237), (0, 0),0
(1.0, 9.119999999999237), (0, 0),0
(2.0, 9.119999999999237), (0, 0),0
(3.0, 9.119999999999237), (0, 0),0
(-3.0, 10.119999999999237), (0, 0),0
(-2.0, 10.119999999999237), (0, 0),0
(-1.0, 10.119999999999237), (0, 0),0
(0.0, 10.119999999999237), (0, 0),0
(1.0, 10.119999999999237), (0, 0),0
(2.0, 10.119999999999237), (0, 0),0
(3.0, 10.119999999999237), (0, 0),0
(-3.0, 11.119999999999237), (0, 0),0
(-2.0, 11.119999999999237), (0, 0),0
(-1.0, 11.119999999999237), (0, 0),0
(0.0, 11.119999999999237), (0, 0),0
(1.0, 11.119999999999237), (0, 0),0
(2.0, 11.119999999999237), (0, 0),0
(3.0, 11.119999999999237), (0, 0),0
(-3.0, 12.119999999999592), (0, 0),0
(-2.0, 12.119999999999592), (0, 0),0
(-1.0, 12.119999999999592), (0, 0),0
(0.0, 12.119999999999592), (0, 0),0
(1.0, 12.119999999999592), (0, 0),0
(2.0, 12.119999999999592), (0, 0),0
(3.0, 12.119999999999592), (0, 0),0
(-3.0, 13.119999999999948), (0, 0),0
(-2.0, 13.119999999999948), (0, 0),0
(-1.0, 13.119999999999948), (0, 0),0
(0.0, 13.119999999999948), (0, 0),0
(1.0, 13.119999999999948), (0, 0),0
(2.0, 13.119999999999948), (0, 0),0
(3.0, 13.119999999999948), (0, 0),0
(-3.0, 14.120000000000303), (0, 0),0
(-2.0, 14.120000000000303), (0, 0),0
(-1.0, 14.120000000000303), (0, 0),0
(0.0, 14.120000000000303), (0, 0),0
(1.0, 14.120000000000303), (0, 0),0
(2.0, 14.120000000000303), (0, 0),0
(3.0, 14.120000000000303), (0, 0),0
