(-3.0, 10.029999999999848), (0, 0),0
(-2.0, 10.029999999999848), (0, 0),0
(-1.0, 10.029999999999848), (0, 0),0
(0.0, 10.029999999999848), (0, 0),0
(1.0, 10.029999999999848), (0, 0),0
(2.0, 10.029999999999848), (0, 0),0
(3.0, 10.029999999999848), (0, 0),0
(-3.0, 11.029999999999848), (0, 0),0
(-2.0, 11.029999999999848), (0, 0),0
(-1.0, 11.029999999999848), (0, 0),0
(0.0, 11.029999999999848), (0, 0),0
(1.0, 11.029999999999848), (0, 0),0
(2.0, 11.029999999999848), (0, 0),0
(3.0, 11.029999999999848), (0, 0),0
(-3.0, 12.029999999999848), (0, 0),0
(-2.0, 12.029999999999848), (0, 0),0
(-1.0, 12.029999999999848), (0, 0),0
(0.0, 12.029999999999848), (0, 0),0
(1.0, 12.029999999999848), (0, 0),0
(2.0, 12.029999999999848), (0, 0),0
(3.0, 12.029999999999848), (0, 0),0
(-3.0, 13.029999999999848), (0, 0),0
(-2.0, 13.029999999999848), (0, 0),0
(-1.0, 13.029999999999848), (0, 0),0
(0.0, 13.029999999999848), (0, 0),0
(1.0, 13.029999999999848), (0, 0),0
(2.0, 13.029999999999848), (0, 0),0
(3.0, 13.029999999999848), (0, 0),0
(-3.0, 14.029999999999848), (0, 0),0
(-2.0, 14.029999999999848), (0, 0),0
(-1.0, 14.029999999999848), (0, 0),0
(0.0, 14.029999999999848), (0, 0),0
(1.0, 14.029999999999848), (0, 0),0
(2.0, 14.029999999999848), (0, 0),0
(3.0, 14.029999999999848), (0, 0),0
(-3.0, 15.029999999999848), (0, 0),0
(-2.0, 15.029999999999848), (0, 0),0
(-1.0, 15.029999999999848), (0, 0),0
(0.0, 15.029999999999848), (0, 0),0
(1.0, 15.029999999999848), (0, 0),0
(2.0, 15.029999999999848), (0, 0),0
(3.0, 15.029999999999848), (0, 0),0
(-3.0, 16.030000000000193), (0, 0),0
(-2.0, 16.030000000000193), (0, 0),0
(-1.0, 16.030000000000193), (0, 0),0
(0.0, 16.030000000000193), (0, 0),0
(1.0, 16.030000000000193), (0, 0),0
(2.0, 16.030000000000193), (0, 0),0
(3.0, 16.030000000000193), (0, 0),0
(-3.0, 17.030000000000193), (0, 0),0
(-2.0, 17.030000000000193), (0, 0),0
(-1.0, 17.030000000000193), (0, 0),0
(0.0, 17.030000000000193), (0, 0),0
(1.0, 17.030000000000193), (0, 0),0
(2.0, 17.030000000000193), (0, 0),0
(3.0, 17.030000000000193), (0, 0),0
(-3.0, 18.030000000000193), (0, 0),0
(-2.0, 18.030000000000193), (0, 0),0
(-1.0, 18.030000000000193), (0, 0),0
(0.0, 18.030000000000193), (0, 0),0
(1.0, 18.030000000000193), (0, 0),0
(2.0, 18.030000000000193), (0, 0),0
(3.0, 18.030000000000193), (0, 0),0
