(-3.0, 9.349999999999742), (0, 0),0
(-2.0, 9.349999999999742), (0, 0),0
(-1.0, 9.349999999999742), (0, 0),0
(0.0, 9.349999999999742), (0, 0),0
(1.0, 9.349999999999742), (0, 0),0
(2.0, 9.349999999999742), (0, 0),0
(3.0, 9.349999999999742), (0, 0),0
(-3.0, 10.349999999999742), (0, 0),0
(-2.0, 10.349999999999742), (0, 0),0
(-1.0, 10.349999999999742), (0, 0),0
(0.0, 10.349999999999742), (0, 0),0
(1.0, 10.349999999999742), (0, 0),0
(2.0, 10.349999999999742), (0, 0),0
(3.0, 10.349999999999742), (0, 0),0
(-3.0, 11.349999999999742), (0, 0),0
(-2.0, 11.349999999999742), (0, 0),0
(-1.0, 11.349999999999742), (0, 0),0
(0.0, 11.349999999999742), (0, 0),0
(1.0, 11.349999999999742), (0, 0),0
(2.0, 11.349999999999742), (0, 0),0
(3.0, 11.349999999999742), (0, 0),0
(-3.0, 12.349999999999742), (0, 0),0
(-2.0, 12.349999999999742), (0, 0),0
(-1.0, 12.349999999999742), (0, 0),0
(0.0, 12.349999999999742), (0, 0),0
(1.0, 12.349999999999742), (0, 0),0
(2.0, 12.349999999999742), (0, 0),0
(3.0, 12.349999999999742), (0, 0),0
(-3.0, 13.349999999999742), (0, 0),0
(-2.0, 13.349999999999742), (0, 0),0
(-1.0, 13.349999999999742), (0, 0),0
(0.0, 13.349999999999742), (0, 0),0
(1.0, 13.349999999999742), (0, 0),0
(2.0, 13.349999999999742), (0, 0),0
(3.0, 13.349999999999742), (0, 0),0
(-3.0, 14.349999999999742), (0, 0),0
(-2.0, 14.349999999999742), (0, 0),0
(-1.0, 14.349999999999742), (0, 0),0
(0.0, 14.349999999999742), (0, 0),0
(1.0, 14.349999999999742), (0, 0),0
(2.0, 14.349999999999742), (0, 0),0
(3.0, 14.349999999999742), (0, 0),0
(-3.0, 15.350000000000097), (0, 0),0
(-2.0, 15.350000000000097), (0, 0),0
(-1.0, 15.350000000000097), (0, 0),0
(0.0, 15.350000000000097), (0, 0),0
(1.0, 15.350000000000097), (0, 0),0
(2.0, 15.350000000000097), (0, 0),0
(3.0, 15.350000000000097), (0, 0),0
(-3.0, 16.35000000000033), (0, 0),0
(-2.0, 16.35000000000033), (0, 0),0
(-1.0, 16.35000000000033), (0, 0),0
(0.0, 16.35000000000033), (0, 0),0
(1.0, 16.35000000000033), (0, 0),0
(2.0, 16.35000000000033), (0, 0),0
(3.0, 16.35000000000033), (0, 0),0
(-3.0, 17.35000000000033), (0, 0),0
(-2.0, 17.35000000000033), (0, 0),0
(-1.0, 17.35000000000033), (0, 0),0
(0.0, 17.35000000000033), (0, 0),0
(1.0, 17.35000000000033), (0, 0),0
(2.0, 17.35000000000033), (0, 0),0
(3.0, 17.35000000000033), (0, 0),0
