(-3.0000000000000226, 7.719999999999496), (0.0, -3.5527136788004694e-14),8.881784197001252e-15
(-2.0000000000000226, 7.719999999999496), (0.0, -3.5527136788004694e-14),8.881784197001252e-15
(-1.000000000000022, 7.719999999999496), (0.0, -3.5527136788004694e-14),8.881784197001252e-15
(-2.15553130900048e-14, 7.719999999999496), (0.0, -3.5527136788004694e-14),8.881784197001252e-15
(0.9999999999999787, 7.719999999999496), (0.0, -3.5527136788004694e-14),8.881784197001252e-15
(1.9999999999999791, 7.719999999999496), (0.0, -3.5527136788004694e-14),8.881784197001252e-15
(2.999999999999979, 7.719999999999496), (0.0, -3.5527136788004694e-14),8.881784197001252e-15
(-3.0000000000000226, 8.719999999999487), (0.0, 3.5527136788004694e-14),8.881784197001252e-15
(-2.0000000000000226, 8.719999999999487), (0.0, 3.5527136788004694e-14),8.881784197001252e-15
(-1.000000000000022, 8.719999999999487), (0.0, 3.5527136788004694e-14),8.881784197001252e-15
(-2.15553130900048e-14, 8.719999999999487), (0.0, 3.5527136788004694e-14),8.881784197001252e-15
(0.9999999999999787, 8.719999999999487), (0.0, 3.5527136788004694e-14),8.881784197001252e-15
(1.9999999999999791, 8.719999999999487), (0.0, 3.5527136788004694e-14),8.881784197001252e-15
(2.999999999999979, 8.719999999999487), (0.0, 3.5527136788004694e-14),8.881784197001252e-15
(-3.0, 9.719999999999487), (0, 0),0
(-2.0, 9.719999999999487), (0, 0),0
(-1.0, 9.719999999999487), (0, 0),0
(0.0, 9.719999999999487), (0, 0),0
(1.0, 9.719999999999487), (0, 0),0
(2.0, 9.719999999999487), (0, 0),0
(3.0, 9.719999999999487), (0, 0),0
(-3.0, 10.719999999999487), (0, 0),0
(-2.0, 10.719999999999487), (0, 0),0
(-1.0, 10.719999999999487), (0, 0),0
(0.0, 10.719999999999487), (0, 0),0
(1.0, 10.719999999999487), (0, 0),0
(2.0, 10.719999999999487), (0, 0),0
(3.0, 10.719999999999487), (0, 0),0
(-3.0, 11.719999999999487), (0, 0),0
(-2.0, 11.719999999999487), (0, 0),0
(-1.0, 11.719999999999487), (0, 0),0
(0.0, 11.719999999999487), (0, 0),0
(1.0, 11.719999999999487), (0, 0),0
(2.0, 11.719999999999487), (0, 0),0
(3.0, 11.719999999999487), (0, 0),0
(-3.0, 12.719999999999487), (0, 0),0
(-2.0, 12.719999999999487), (0, 0),0
(-1.0, 12.719999999999487), (0, 0),0
(0.0, 12.719999999999487), (0, 0),0
(1.0, 12.719999999999487), (0, 0),0
(2.0, 12.719999999999487), (0, 0),0
(3.0, 12.719999999999487), (0, 0),0
(-3.0, 13.719999999999843), (0, 0),0
(-2.0, 13.719999999999843), (0, 0),0
(-1.0, 13.719999999999843), (0, 0),0
(0.0, 13.719999999999843), (0, 0),0
(1.0, 13.719999999999843), (0, 0),0
(2.0, 13.719999999999843), (0, 0),0
(3.0, 13.719999999999843), (0, 0),0
(-3.0, 14.720000000000198), (0, 0),0
(-2.0, 14.720000000000198), (0, 0),0
(-1.0, 14.720000000000198), (0, 0),0
(0.0, 14.720000000000198), (0, 0),0
(1.0, 14.720000000000198), (0, 0),0
(2.0, 14.720000000000198), (0, 0),0
(3.0, 14.720000000000198), (0, 0),0
(-3.0, 15.720000000000553), (0, 0),0
(-2.0, 15.720000000000553), (0, 0),0
(-1.0, 15.720000000000553), (0, 0),0
(0.0, 15.720000000000553), (0, 0),0
(1.0, 15.720000000000553), (0, 0),0
(2.0, 15.720000000000553), (0, 0),0
(3.0, 15.720000000000553), (0, 0),0
