(-3.0, 9.999999999999844), (0, 0),0
(-2.0, 9.999999999999844), (0, 0),0
(-1.0, 9.999999999999844), (0, 0),0
(0.0, 9.999999999999844), (0, 0),0
(1.0, 9.999999999999844), (0, 0),0
(2.0, 9.999999999999844), (0, 0),0
(3.0, 9.999999999999844), (0, 0),0
(-3.0, 10.999999999999844), (0, 0),0
(-2.0, 10.999999999999844), (0, 0),0
(-1.0, 10.999999999999844), (0, 0),0
(0.0, 10.999999999999844), (0, 0),0
(1.0, 10.999999999999844), (0, 0),0
(2.0, 10.999999999999844), (0, 0),0
(3.0, 10.999999999999844), (0, 0),0
(-3.0, 11.999999999999844), (0, 0),0
(-2.0, 11.999999999999844), (0, 0),0
(-1.0, 11.999999999999844), (0, 0),0
(0.0, 11.999999999999844), (0, 0),0
(1.0, 11.999999999999844), (0, 0),0
(2.0, 11.999999999999844), (0, 0),0
(3.0, 11.999999999999844), (0, 0),0
(-3.0, 12.999999999999844), (0, 0),0
(-2.0, 12.999999999999844), (0, 0),0
(-1.0, 12.999999999999844), (0, 0),0
(0.0, 12.999999999999844), (0, 0),0
(1.0, 12.999999999999844), (0, 0),0
(2.0, 12.999999999999844), (0, 0),0
(3.0, 12.999999999999844), (0, 0),0
(-3.0, 13.999999999999844), (0, 0),0
(-2.0, 13.999999999999844), (0, 0),0
(-1.0, 13.999999999999844), (0, 0),0
(0.0, 13.999999999999844), (0, 0),0
(1.0, 13.999999999999844), (0, 0),0
(2.0, 13.999999999999844), (0, 0),0
(3.0, 13.999999999999844), (0, 0),0
(-3.0, 14.999999999999844), (0, 0),0
(-2.0, 14.999999999999844), (0, 0),0
(-1.0, 14.999999999999844), (0, 0),0
(0.0, 14.999999999999844), (0, 0),0
(1.0, 14.999999999999844), (0, 0),0
(2.0, 14.999999999999844), (0, 0),0
(3.0, 14.999999999999844), (0, 0),0
(-3.0, 16.0000000000002), (0, 0),0
(-2.0, 16.0000000000002), (0, 0),0
(-1.0, 16.0000000000002), (0, 0),0
(0.0, 16.0000000000002), (0, 0),0
(1.0, 16.0000000000002), (0, 0),0
(2.0, 16.0000000000002), (0, 0),0
(3.0, 16.0000000000002), (0, 0),0
(-3.0, 17.0000000000002), (0, 0),0
(-2.0, 17.0000000000002), (0, 0),0
(-1.0, 17.0000000000002), (0, 0),0
(0.0, 17.0000000000002), (0, 0),0
(1.0, 17.0000000000002), (0, 0),0
(2.0, 17.0000000000002), (0, 0),0
(3.0, 17.0000000000002), (0, 0),0
(-3.0, 18.0000000000002), (0, 0),0
(-2.0, 18.0000000000002), (0, 0),0
(-1.0, 18.0000000000002), (0, 0),0
(0.0, 18.0000000000002), (0, 0),0
(1.0, 18.0000000000002), (0, 0),0
(2.0, 18.0000000000002), (0, 0),0
(3.0, 18.0000000000002), (0, 0),0
