(-1.6481380869008837, 4.7441797652790445), (0, 0),0
(-1.972782423100336, 6.086762610000981), (-0.011210962698236232, -0.003526562040669593),0.011374965622317101
(-0.987200306153899, 6.164269702280685), (-0.0030926972384567337, 0.0020699509292322104),0.02589406447008502
(-0.002038617631341331, 6.189350651289812), (0.002451085838167102, 0.0026112811161474064),0.02651918983370749
(0.9856684016248835, 6.165295208583942), (-0.00022020880912821013, 0.002490060640490008),0.024257453351626657
(1.9706097411621954, 6.090957628106534), (0.012072782907654074, -0.0036447306452000315),0.012257362365687086
(1.8660087929262508, 4.960564784753427), (-3.75, 2.1650635094610964),4.330127018922194
(-3.0000000000001297, 7.489999999999304), (-1.4436154565544516e-27, -3.5527136788004694e-14),8.881784197001252e-15
(-2.0000000000001292, 7.489999999999304), (-1.4455876088175041e-27, -3.5527136788004694e-14),8.881784197001252e-15
(-1.0000000000001283, 7.489999999999304), (-1.4406572281598728e-27, -3.5527136788004694e-14),8.881784197001252e-15
(-1.2773704316515479e-13, 7.489999999999304), (-1.4371615882736125e-27, -3.5527136788004694e-14),8.881784197001252e-15
(0.9999999999998725, 7.489999999999304), (-1.437698999765294e-27, -3.5527136788004694e-14),8.881784197001252e-15
(1.9999999999998732, 7.489999999999304), (-1.441643304291399e-27, -3.5527136788004694e-14),8.881784197001252e-15
(2.999999999999874, 7.489999999999304), (-1.4357268475022415e-27, -3.5527136788004694e-14),8.881784197001252e-15
(-2.999999999999967, 8.489999999999295), (1.4436154565544516e-27, 3.5527136788004694e-14),8.881784197001252e-15
(-1.9999999999999665, 8.489999999999295), (1.4455876088175041e-27, 3.5527136788004694e-14),8.881784197001252e-15
(-0.9999999999999661, 8.489999999999295), (1.4406572281598728e-27, 3.5527136788004694e-14),8.881784197001252e-15
(3.407296667035102e-14, 8.489999999999295), (1.4371615882736125e-27, 3.5527136788004694e-14),8.881784197001252e-15
(1.0000000000000344, 8.489999999999295), (1.437698999765294e-27, 3.5527136788004694e-14),8.881784197001252e-15
(2.0000000000000355, 8.489999999999295), (1.441643304291399e-27, 3.5527136788004694e-14),8.881784197001252e-15
(3.0000000000000355, 8.489999999999295), (1.4357268475022415e-27, 3.5527136788004694e-14),8.881784197001252e-15
(-3.0, 9.489999999999295), (0, 0),0
(-2.0, 9.489999999999295), (0, 0),0
(-1.0, 9.489999999999295), (0, 0),0
(0.0, 9.489999999999295), (0, 0),0
(1.0, 9.489999999999295), (0, 0),0
(2.0, 9.489999999999295), (0, 0),0
(3.0, 9.489999999999295), (0, 0),0
(-3.0, 10.489999999999295), (0, 0),0
(-2.0, 10.489999999999295), (0, 0),0
(-1.0, 10.489999999999295), (0, 0),0
(0.0, 10.489999999999295), (0, 0),0
(1.0, 10.489999999999295), (0, 0),0
(2.0, 10.489999999999295), (0, 0),0
(3.0, 10.489999999999295), (0, 0),0
(-3.0, 11.489999999999295), (0, 0),0
(-2.0, 11.489999999999295), (0, 0),0
(-1.0, 11.489999999999295), (0, 0),0
(0.0, 11.489999999999295), (0, 0),0
(1.0, 11.489999999999295), (0, 0),0
(2.0, 11.489999999999295), (0, 0),0
(3.0, 11.489999999999295), (0, 0),0
(-3.0, 12.48999999999965), (0, 0),0
(-2.0, 12.48999999999965), (0, 0),0
(-1.0, 12.48999999999965), (0, 0),0
(0.0, 12.48999999999965), (0, 0),0
(1.0, 12.48999999999965), (0, 0),0
(2.0, 12.48999999999965), (0, 0),0
(3.0, 12.48999999999965), (0, 0),0
(-3.0, 13.490000000000006), (0, 0),0
(-2.0, 13.490000000000006), (0, 0),0
(-1.0, 13.490000000000006), (0, 0),0
(0.0, 13.490000000000006), (0, 0),0
(1.0, 13.490000000000006), (0, 0),0
(2.0, 13.490000000000006), (0, 0),0
(3.0, 13.490000000000006), (0, 0),0
(-3.0, 14.49000000000036), (0, 0),0
(-2.0, 14.49000000000036), (0, 0),0
(-1.0, 14.49000000000036), (0, 0),0
(0.0, 14.49000000000036), (0, 0),0
(1.0, 14.49000000000036), (0, 0),0
(2.0, 14.49000000000036), (0, 0),0
(3.0, 14.49000000000036), (0, 0),0
