(-2.074602987744055, 5.412435163632196), (-0.003886642933173383, -0.08718761507580196),0.022653908861781202
(-1.9030368815640115, 6.374604822826131), (-0.037583921800841, 0.06752381824146775),0.06632170342880583
(-0.9533538223391583, 6.487180904520346), (-0.005657445916037861, 0.014153355240228543),0.09327700978556497
(-0.00336881567371929, 6.514950148449276), (0.005935263812303769, 0.01007429494596241),0.09267217918560944
(0.9532013560694331, 6.488454913731185), (-0.000846231469056137, 0.015126071448717757),0.08735054573639467
(1.9024285802102106, 6.377306799440758), (0.03845851328198822, 0.0612028593876872),0.06526535524625465
(2.073107562360252, 5.41327712921353), (0.0035804650248163913, -0.08089278418826171),0.020977773476929085
(-3.00000000000011, 7.709999999999338), (-1.0965166582572064e-27, -3.5527136788004694e-14),8.881784197001252e-15
(-2.0000000000001097, 7.709999999999338), (-1.098488810520259e-27, -3.5527136788004694e-14),8.881784197001252e-15
(-1.0000000000001088, 7.709999999999338), (-1.0935584298626276e-27, -3.5527136788004694e-14),8.881784197001252e-15
(-1.0819711793175203e-13, 7.709999999999338), (-1.0900627899763673e-27, -3.5527136788004694e-14),8.881784197001252e-15
(0.9999999999998921, 7.709999999999338), (-1.0906002014680488e-27, -3.5527136788004694e-14),8.881784197001252e-15
(1.9999999999998928, 7.709999999999338), (-1.0945445059941539e-27, -3.5527136788004694e-14),8.881784197001252e-15
(2.9999999999998934, 7.709999999999338), (-1.0886280492049963e-27, -3.5527136788004694e-14),8.881784197001252e-15
(-2.9999999999999867, 8.70999999999933), (1.0965166582572064e-27, 3.5527136788004694e-14),8.881784197001252e-15
(-1.999999999999986, 8.70999999999933), (1.098488810520259e-27, 3.5527136788004694e-14),8.881784197001252e-15
(-0.9999999999999857, 8.70999999999933), (1.0935584298626276e-27, 3.5527136788004694e-14),8.881784197001252e-15
(1.4533041436948264e-14, 8.70999999999933), (1.0900627899763673e-27, 3.5527136788004694e-14),8.881784197001252e-15
(1.0000000000000149, 8.70999999999933), (1.0906002014680488e-27, 3.5527136788004694e-14),8.881784197001252e-15
(2.000000000000016, 8.70999999999933), (1.0945445059941539e-27, 3.5527136788004694e-14),8.881784197001252e-15
(3.000000000000016, 8.70999999999933), (1.0886280492049963e-27, 3.5527136788004694e-14),8.881784197001252e-15
(-3.0, 9.70999999999933), (0, 0),0
(-2.0, 9.70999999999933), (0, 0),0
(-1.0, 9.70999999999933), (0, 0),0
(0.0, 9.70999999999933), (0, 0),0
(1.0, 9.70999999999933), (0, 0),0
(2.0, 9.70999999999933), (0, 0),0
(3.0, 9.70999999999933), (0, 0),0
(-3.0, 10.70999999999933), (0, 0),0
(-2.0, 10.70999999999933), (0, 0),0
(-1.0, 10.70999999999933), (0, 0),0
(0.0, 10.70999999999933), (0, 0),0
(1.0, 10.70999999999933), (0, 0),0
(2.0, 10.70999999999933), (0, 0),0
(3.0, 10.70999999999933), (0, 0),0
(-3.0, 11.70999999999933), (0, 0),0
(-2.0, 11.70999999999933), (0, 0),0
(-1.0, 11.70999999999933), (0, 0),0
(0.0, 11.70999999999933), (0, 0),0
(1.0, 11.70999999999933), (0, 0),0
(2.0, 11.70999999999933), (0, 0),0
(3.0, 11.70999999999933), (0, 0),0
(-3.0, 12.709999999999685), (0, 0),0
(-2.0, 12.709999999999685), (0, 0),0
(-1.0, 12.709999999999685), (0, 0),0
(0.0, 12.709999999999685), (0, 0),0
(1.0, 12.709999999999685), (0, 0),0
(2.0, 12.709999999999685), (0, 0),0
(3.0, 12.709999999999685), (0, 0),0
(-3.0, 13.71000000000004), (0, 0),0
(-2.0, 13.71000000000004), (0, 0),0
(-1.0, 13.71000000000004), (0, 0),0
(0.0, 13.71000000000004), (0, 0),0
(1.0, 13.71000000000004), (0, 0),0
(2.0, 13.71000000000004), (0, 0),0
(3.0, 13.71000000000004), (0, 0),0
(-3.0, 14.710000000000395), (0, 0),0
(-2.0, 14.710000000000395), (0, 0),0
(-1.0, 14.710000000000395), (0, 0),0
(0.0, 14.710000000000395), (0, 0),0
(1.0, 14.710000000000395), (0, 0),0
(2.0, 14.710000000000395), (0, 0),0
(3.0, 14.710000000000395), (0, 0),0
