(-1.8683944378469934, 5.038521052715692), (0, 0),0
(-1.9606064293964822, 6.1787844685869695), (-0.015381420855763512, -0.005650607704609406),0.01569240624882129
(-0.9804240015474158, 6.268805839672647), (-0.00547006931746068, 0.0034649324470624513),0.03700529389804452
(-0.0020727562160896456, 6.294443792791903), (0.002418726679252331, 0.004035559505678611),0.04010457952604829
(0.978826867659936, 6.269833392351948), (0.0020532348864832316, 0.003949673318523794),0.035514932997528614
(1.9582738832991826, 6.183134325992802), (0.01637952860748863, -0.00579955756665545),0.016723241120703558
(1.8660087929262508, 5.040564784753426), (0, 0),0
(-3.0000000000001226, 7.569999999999316), (-1.3173977117190897e-27, -3.5527136788004694e-14),8.881784197001252e-15
(-2.000000000000122, 7.569999999999316), (-1.3193698639821422e-27, -3.5527136788004694e-14),8.881784197001252e-15
(-1.0000000000001212, 7.569999999999316), (-1.314439483324511e-27, -3.5527136788004694e-14),8.881784197001252e-15
(-1.2063161580755378e-13, 7.569999999999316), (-1.3109438434382506e-27, -3.5527136788004694e-14),8.881784197001252e-15
(0.9999999999998797, 7.569999999999316), (-1.3114812549299321e-27, -3.5527136788004694e-14),8.881784197001252e-15
(1.9999999999998803, 7.569999999999316), (-1.3154255594560372e-27, -3.5527136788004694e-14),8.881784197001252e-15
(2.999999999999881, 7.569999999999316), (-1.3095091026668796e-27, -3.5527136788004694e-14),8.881784197001252e-15
(-2.9999999999999742, 8.569999999999308), (1.3173977117190897e-27, 3.5527136788004694e-14),8.881784197001252e-15
(-1.9999999999999736, 8.569999999999308), (1.3193698639821422e-27, 3.5527136788004694e-14),8.881784197001252e-15
(-0.9999999999999732, 8.569999999999308), (1.314439483324511e-27, 3.5527136788004694e-14),8.881784197001252e-15
(2.6967539312750017e-14, 8.569999999999308), (1.3109438434382506e-27, 3.5527136788004694e-14),8.881784197001252e-15
(1.0000000000000273, 8.569999999999308), (1.3114812549299321e-27, 3.5527136788004694e-14),8.881784197001252e-15
(2.0000000000000284, 8.569999999999308), (1.3154255594560372e-27, 3.5527136788004694e-14),8.881784197001252e-15
(3.0000000000000284, 8.569999999999308), (1.3095091026668796e-27, 3.5527136788004694e-14),8.881784197001252e-15
(-3.0, 9.569999999999308), (0, 0),0
(-2.0, 9.569999999999308), (0, 0),0
(-1.0, 9.569999999999308), (0, 0),0
(0.0, 9.569999999999308), (0, 0),0
(1.0, 9.569999999999308), (0, 0),0
(2.0, 9.569999999999308), (0, 0),0
(3.0, 9.569999999999308), (0, 0),0
(-3.0, 10.569999999999308), (0, 0),0
(-2.0, 10.569999999999308), (0, 0),0
(-1.0, 10.569999999999308), (0, 0),0
(0.0, 10.569999999999308), (0, 0),0
(1.0, 10.569999999999308), (0, 0),0
(2.0, 10.569999999999308), (0, 0),0
(3.0, 10.569999999999308), (0, 0),0
(-3.0, 11.569999999999308), (0, 0),0
(-2.0, 11.569999999999308), (0, 0),0
(-1.0, 11.569999999999308), (0, 0),0
(0.0, 11.569999999999308), (0, 0),0
(1.0, 11.569999999999308), (0, 0),0
(2.0, 11.569999999999308), (0, 0),0
(3.0, 11.569999999999308), (0, 0),0
(-3.0, 12.569999999999663), (0, 0),0
(-2.0, 12.569999999999663), (0, 0),0
(-1.0, 12.569999999999663), (0, 0),0
(0.0, 12.569999999999663), (0, 0),0
(1.0, 12.569999999999663), (0, 0),0
(2.0, 12.569999999999663), (0, 0),0
(3.0, 12.569999999999663), (0, 0),0
(-3.0, 13.570000000000018), (0, 0),0
(-2.0, 13.570000000000018), (0, 0),0
(-1.0, 13.570000000000018), (0, 0),0
(0.0, 13.570000000000018), (0, 0),0
(1.0, 13.570000000000018), (0, 0),0
(2.0, 13.570000000000018), (0, 0),0
(3.0, 13.570000000000018), (0, 0),0
(-3.0, 14.570000000000373), (0, 0),0
(-2.0, 14.570000000000373), (0, 0),0
(-1.0, 14.570000000000373), (0, 0),0
(0.0, 14.570000000000373), (0, 0),0
(1.0, 14.570000000000373), (0, 0),0
(2.0, 14.570000000000373), (0, 0),0
(3.0, 14.570000000000373), (0, 0),0
