(-3.0000000000000924, 6.934999999999373), (0.0, -3.5527136788004694e-14),8.881784197001252e-15
(-2.0000000000000924, 6.934999999999373), (0.0, -3.5527136788004694e-14),8.881784197001252e-15
(-1.0000000000000917, 6.934999999999373), (0.0, -3.5527136788004694e-14),8.881784197001252e-15
(-9.127731903646463e-14, 6.934999999999373), (0.0, -3.5527136788004694e-14),8.881784197001252e-15
(0.999999999999909, 6.934999999999373), (0.0, -3.5527136788004694e-14),8.881784197001252e-15
(1.9999999999999094, 6.934999999999373), (0.0, -3.5527136788004694e-14),8.881784197001252e-15
(2.9999999999999094, 6.934999999999373), (0.0, -3.5527136788004694e-14),8.881784197001252e-15
(-3.0000000000000924, 7.934999999999365), (0.0, 3.5527136788004694e-14),8.881784197001252e-15
(-2.0000000000000924, 7.934999999999365), (0.0, 3.5527136788004694e-14),8.881784197001252e-15
(-1.0000000000000917, 7.934999999999365), (0.0, 3.5527136788004694e-14),8.881784197001252e-15
(-9.127731903646463e-14, 7.934999999999365), (0.0, 3.5527136788004694e-14),8.881784197001252e-15
(0.999999999999909, 7.934999999999365), (0.0, 3.5527136788004694e-14),8.881784197001252e-15
(1.9999999999999094, 7.934999999999365), (0.0, 3.5527136788004694e-14),8.881784197001252e-15
(2.9999999999999094, 7.934999999999365), (0.0, 3.5527136788004694e-14),8.881784197001252e-15
(-3.0, 8.934999999999365), (0, 0),0
(-2.0, 8.934999999999365), (0, 0),0
(-1.0, 8.934999999999365), (0, 0),0
(0.0, 8.934999999999365), (0, 0),0
(1.0, 8.934999999999365), (0, 0),0
(2.0, 8.934999999999365), (0, 0),0
(3.0, 8.934999999999365), (0, 0),0
(-3.0, 9.934999999999365), (0, 0),0
(-2.0, 9.934999999999365), (0, 0),0
(-1.0, 9.934999999999365), (0, 0),0
(0.0, 9.934999999999365), (0, 0),0
(1.0, 9.934999999999365), (0, 0),0
(2.0, 9.934999999999365), (0, 0),0
(3.0, 9.934999999999365), (0, 0),0
(-3.0, 10.934999999999365), (0, 0),0
(-2.0, 10.934999999999365), (0, 0),0
(-1.0, 10.934999999999365), (0, 0),0
(0.0, 10.934999999999365), (0, 0),0
(1.0, 10.934999999999365), (0, 0),0
(2.0, 10.934999999999365), (0, 0),0
(3.0, 10.934999999999365), (0, 0),0
(-3.0, 11.934999999999365), (0, 0),0
(-2.0, 11.934999999999365), (0, 0),0
(-1.0, 11.934999999999365), (0, 0),0
(0.0, 11.934999999999365), (0, 0),0
(1.0, 11.934999999999365), (0, 0),0
(2.0, 11.934999999999365), (0, 0),0
(3.0, 11.934999999999365), (0, 0),0
(-3.0, 12.93499999999972), (0, 0),0
(-2.0, 12.93499999999972), (0, 0),0
(-1.0, 12.93499999999972), (0, 0),0
(0.0, 12.93499999999972), (0, 0),0
(1.0, 12.93499999999972), (0, 0),0
(2.0, 12.93499999999972), (0, 0),0
(3.0, 12.93499999999972), (0, 0),0
(-3.0, 13.935000000000075), (0, 0),0
(-2.0, 13.935000000000075), (0, 0),0
(-1.0, 13.935000000000075), (0, 0),0
(0.0, 13.935000000000075), (0, 0),0
(1.0, 13.935000000000075), (0, 0),0
(2.0, 13.935000000000075), (0, 0),0
(3.0, 13.935000000000075), (0, 0),0
(-3.0, 14.93500000000043), (0, 0),0
(-2.0, 14.93500000000043), (0, 0),0
(-1.0, 14.93500000000043), (0, 0),0
(0.0, 14.93500000000043), (0, 0),0
(1.0, 14.93500000000043), (0, 0),0
(2.0, 14.93500000000043), (0, 0),0
(3.0, 14.93500000000043), (0, 0),0
