(-3.0, 10.509999999999923), (0, 0),0
(-2.0, 10.509999999999923), (0, 0),0
(-1.0, 10.509999999999923), (0, 0),0
(0.0, 10.509999999999923), (0, 0),0
(1.0, 10.509999999999923), (0, 0),0
(2.0, 10.509999999999923), (0, 0),0
(3.0, 10.509999999999923), (0, 0),0
(-3.0, 11.509999999999923), (0, 0),0
(-2.0, 11.509999999999923), (0, 0),0
(-1.0, 11.509999999999923), (0, 0),0
(0.0, 11.509999999999923), (0, 0),0
(1.0, 11.509999999999923), (0, 0),0
(2.0, 11.509999999999923), (0, 0),0
(3.0, 11.509999999999923), (0, 0),0
(-3.0, 12.509999999999923), (0, 0),0
(-2.0, 12.509999999999923), (0, 0),0
(-1.0, 12.509999999999923), (0, 0),0
(0.0, 12.509999999999923), (0, 0),0
(1.0, 12.509999999999923), (0, 0),0
(2.0, 12.509999999999923), (0, 0),0
(3.0, 12.509999999999923), (0, 0),0
(-3.0, 13.509999999999923), (0, 0),0
(-2.0, 13.509999999999923), (0, 0),0
(-1.0, 13.509999999999923), (0, 0),0
(0.0, 13.509999999999923), (0, 0),0
(1.0, 13.509999999999923), (0, 0),0
(2.0, 13.509999999999923), (0, 0),0
(3.0, 13.509999999999923), (0, 0),0
(-3.0, 14.509999999999923), (0, 0),0
(-2.0, 14.509999999999923), (0, 0),0
(-1.0, 14.509999999999923), (0, 0),0
(0.0, 14.509999999999923), (0, 0),0
(1.0, 14.509999999999923), (0, 0),0
(2.0, 14.509999999999923), (0, 0),0
(3.0, 14.509999999999923), (0, 0),0
(-3.0, 15.509999999999923), (0, 0),0
(-2.0, 15.509999999999923), (0, 0),0
(-1.0, 15.509999999999923), (0, 0),0
(0.0, 15.509999999999923), (0, 0),0
(1.0, 15.509999999999923), (0, 0),0
(2.0, 15.509999999999923), (0, 0),0
(3.0, 15.509999999999923), (0, 0),0
(-3.0, 16.510000000000097), (0, 0),0
(-2.0, 16.510000000000097), (0, 0),0
(-1.0, 16.510000000000097), (0, 0),0
(0.0, 16.510000000000097), (0, 0),0
(1.0, 16.510000000000097), (0, 0),0
(2.0, 16.510000000000097), (0, 0),0
(3.0, 16.510000000000097), (0, 0),0
(-3.0, 17.510000000000097), (0, 0),0
(-2.0, 17.510000000000097), (0, 0),0
(-1.0, 17.510000000000097), (0, 0),0
(0.0, 17.510000000000097), (0, 0),0
(1.0, 17.510000000000097), (0, 0),0
(2.0, 17.510000000000097), (0, 0),0
(3.0, 17.510000000000097), (0, 0),0
(-3.0, 18.510000000000097), (0, 0),0
(-2.0, 18.510000000000097), (0, 0),0
(-1.0, 18.510000000000097), (0, 0),0
(0.0, 18.510000000000097), (0, 0),0
(1.0, 18.510000000000097), (0, 0),0
(2.0, 18.510000000000097), (0, 0),0
(3.0, 18.510000000000097), (0, 0),0
