(-3.0000000000000013, 7.959999999999533), (0.0, -3.1974423109204256e-14),7.993605777301127e-15
(-2.0000000000000013, 7.959999999999533), (0.0, -3.1974423109204256e-14),7.993605777301127e-15
(-1.0000000000000007, 7.959999999999533), (0.0, -3.1974423109204256e-14),7.993605777301127e-15
(-2.834399381868025e-16, 7.959999999999533), (0.0, -3.1974423109204256e-14),7.993605777301127e-15
(1.0, 7.959999999999533), (-4.440892098500624e-16, -3.1974423109204256e-14),8.43769498715119e-15
(1.9999999999999996, 7.959999999999533), (4.440892098500624e-16, -3.1974423109204256e-14),8.43769498715119e-15
(2.9999999999999996, 7.959999999999533), (0.0, -3.1974423109204256e-14),7.993605777301127e-15
(-3.0000000000000013, 8.959999999999525), (0.0, 3.1974423109204256e-14),7.993605777301127e-15
(-2.0000000000000013, 8.959999999999525), (0.0, 3.1974423109204256e-14),7.993605777301127e-15
(-1.0000000000000007, 8.959999999999525), (0.0, 3.1974423109204256e-14),7.993605777301127e-15
(-2.834399381868025e-16, 8.959999999999525), (0.0, 3.1974423109204256e-14),7.993605777301127e-15
(1.0, 8.959999999999525), (-4.440892098500624e-16, 3.1974423109204256e-14),8.43769498715119e-15
(1.9999999999999996, 8.959999999999525), (4.440892098500624e-16, 3.1974423109204256e-14),8.43769498715119e-15
(2.9999999999999996, 8.959999999999525), (0.0, 3.1974423109204256e-14),7.993605777301127e-15
(-3.0, 9.959999999999525), (0, 0),0
(-2.0, 9.959999999999525), (0, 0),0
(-1.0, 9.959999999999525), (0, 0),0
(0.0, 9.959999999999525), (0, 0),0
(1.0, 9.959999999999525), (0, 0),0
(2.0, 9.959999999999525), (0, 0),0
(3.0, 9.959999999999525), (0, 0),0
(-3.0, 10.959999999999525), (0, 0),0
(-2.0, 10.959999999999525), (0, 0),0
(-1.0, 10.959999999999525), (0, 0),0
(0.0, 10.959999999999525), (0, 0),0
(1.0, 10.959999999999525), (0, 0),0
(2.0, 10.959999999999525), (0, 0),0
(3.0, 10.959999999999525), (0, 0),0
(-3.0, 11.959999999999525), (0, 0),0
(-2.0, 11.959999999999525), (0, 0),0
(-1.0, 11.959999999999525), (0, 0),0
(0.0, 11.959999999999525), (0, 0),0
(1.0, 11.959999999999525), (0, 0),0
(2.0, 11.959999999999525), (0, 0),0
(3.0, 11.959999999999525), (0, 0),0
(-3.0, 12.959999999999525), (0, 0),0
(-2.0, 12.959999999999525), (0, 0),0
(-1.0, 12.959999999999525), (0, 0),0
(0.0, 12.959999999999525), (0, 0),0
(1.0, 12.959999999999525), (0, 0),0
(2.0, 12.959999999999525), (0, 0),0
(3.0, 12.959999999999525), (0, 0),0
(-3.0, 13.95999999999988), (0, 0),0
(-2.0, 13.95999999999988), (0, 0),0
(-1.0, 13.95999999999988), (0, 0),0
(0.0, 13.95999999999988), (0, 0),0
(1.0, 13.95999999999988), (0, 0),0
(2.0, 13.95999999999988), (0, 0),0
(3.0, 13.95999999999988), (0, 0),0
(-3.0, 14.960000000000235), (0, 0),0
(-2.0, 14.960000000000235), (0, 0),0
(-1.0, 14.960000000000235), (0, 0),0
(0.0, 14.960000000000235), (0, 0),0
(1.0, 14.960000000000235), (0, 0),0
(2.0, 14.960000000000235), (0, 0),0
(3.0, 14.960000000000235), (0, 0),0
(-3.0, 15.96000000000059), (0, 0),0
(-2.0, 15.96000000000059), (0, 0),0
(-1.0, 15.96000000000059), (0, 0),0
(0.0, 15.96000000000059), (0, 0),0
(1.0, 15.96000000000059), (0, 0),0
(2.0, 15.96000000000059), (0, 0),0
(3.0, 15.96000000000059), (0, 0),0
