(-3.0, 10.704999999999954), (0, 0),0
(-2.0, 10.704999999999954), (0, 0),0
(-1.0, 10.704999999999954), (0, 0),0
(0.0, 10.704999999999954), (0, 0),0
(1.0, 10.704999999999954), (0, 0),0
(2.0, 10.704999999999954), (0, 0),0
(3.0, 10.704999999999954), (0, 0),0
(-3.0, 11.704999999999954), (0, 0),0
(-2.0, 11.704999999999954), (0, 0),0
(-1.0, 11.704999999999954), (0, 0),0
(0.0, 11.704999999999954), (0, 0),0
(1.0, 11.704999999999954), (0, 0),0
(2.0, 11.704999999999954), (0, 0),0
(3.0, 11.704999999999954), (0, 0),0
(-3.0, 12.704999999999954), (0, 0),0
(-2.0, 12.704999999999954), (0, 0),0
(-1.0, 12.704999999999954), (0, 0),0
(0.0, 12.704999999999954), (0, 0),0
(1.0, 12.704999999999954), (0, 0),0
(2.0, 12.704999999999954), (0, 0),0
(3.0, 12.704999999999954), (0, 0),0
(-3.0, 13.704999999999954), (0, 0),0
(-2.0, 13.704999999999954), (0, 0),0
(-1.0, 13.704999999999954), (0, 0),0
(0.0, 13.704999999999954), (0, 0),0
(1.0, 13.704999999999954), (0, 0),0
(2.0, 13.704999999999954), (0, 0),0
(3.0, 13.704999999999954), (0, 0),0
(-3.0, 14.704999999999954), (0, 0),0
(-2.0, 14.704999999999954), (0, 0),0
(-1.0, 14.704999999999954), (0, 0),0
(0.0, 14.704999999999954), (0, 0),0
(1.0, 14.704999999999954), (0, 0),0
(2.0, 14.704999999999954), (0, 0),0
(3.0, 14.704999999999954), (0, 0),0
(-3.0, 15.704999999999954), (0, 0),0
(-2.0, 15.704999999999954), (0, 0),0
(-1.0, 15.704999999999954), (0, 0),0
(0.0, 15.704999999999954), (0, 0),0
(1.0, 15.704999999999954), (0, 0),0
(2.0, 15.704999999999954), (0, 0),0
(3.0, 15.704999999999954), (0, 0),0
(-3.0, 16.70500000000006), (0, 0),0
(-2.0, 16.70500000000006), (0, 0),0
(-1.0, 16.70500000000006), (0, 0),0
(0.0, 16.70500000000006), (0, 0),0
(1.0, 16.70500000000006), (0, 0),0
(2.0, 16.70500000000006), (0, 0),0
(3.0, 16.70500000000006), (0, 0),0
(-3.0, 17.70500000000006), (0, 0),0
(-2.0, 17.70500000000006), (0, 0),0
(-1.0, 17.70500000000006), (0, 0),0
(0.0, 17.70500000000006), (0, 0),0
(1.0, 17.70500000000006), (0, 0),0
(2.0, 17.70500000000006), (0, 0),0
(3.0, 17.70500000000006), (0, 0),0
(-3.0, 18.70500000000006), (0, 0),0
(-2.0, 18.70500000000006), (0, 0),0
(-1.0, 18.70500000000006), (0, 0),0
(0.0, 18.70500000000006), (0, 0),0
(1.0, 18.70500000000006), (0, 0),0
(2.0, 18.70500000000006), (0, 0),0
(3.0, 18.70500000000006), (0, 0),0
