(-1.2354373615485192, -3.15292931545976), (5.071120544608061e-06, -0.0019240810335683007),0.0006072479967346167
(0.570025979230143, -2.4222519663686293), (5.413620393434341e-05, 6.516085631208421e-05),0.0004181839270452903
(-0.16721192078798475, 2.971525260661098), (-0.048692419058493586, 1.0196107193985464),1.5707755701384485
(-0.10175468789288547, 3.551560202951895), (0.027248753044165807, 0.9658354440248405),0.4162833019207247
(0.831394368943498, 3.081513280825736), (-3.52040220622217, 3.7152239763097983),5.136558043449508
(-1.664695993559227, -2.2501931529103056), (-0.00017269279069300896, 0.0014527002188859817),0.0004023047594502449
(-0.4175442104033797, -2.577915447073061), (-6.64608598169135e-05, 0.0003237939321741617),0.0004419719896935348
(-0.02549673762297955, -0.6923336939480245), (0, 0),0
(-0.6289498577761689, 2.696676754557302), (3.373574751667861, 2.3997032107577634),5.238452040145445
(-0.9680879962108858, 5.137847530340516), (-0.0284729683937003, -0.0031240442789271976),0.029344794900547644
(0.00220225424743059, 5.164462508307775), (-0.003517336407034454, 0.00725325291775066),0.06244754309821221
(0.9685964825970788, 5.133277721064681), (0.03199030480073475, -0.0041292086388234625),0.03310274819766457
(0.605334838341654, 2.665548468890116), (-3.5691476027495193, 1.7153143559884634),5.823563567240054
(1.5633529785411788, -2.3085013843584328), (0.000179946326030971, 8.242602619607306e-05),0.0001811551746361273
(-0.26365663175398935, 2.2797373296447767), (-0.09950512008627863, -1.8708903722260155),1.0685000019632591
(-1.9351852303499157, 6.40003892439194), (-0.029948923670451082, -0.004298755231950726),0.0309245258629256
(-0.9667330767679634, 6.434790914212295), (-0.0038115368109758498, 6.684293208279995e-05),0.06592671270520045
(-0.0022087562288875175, 6.4650169706508365), (0.00370759092676241, 0.007850458174259368),0.06603148618964816
(0.9663232501893805, 6.435862703953724), (-0.00017176022736575813, 0.0007683365039408952),0.06224845593680661
(1.9344669505307395, 6.400732972263461), (0.03022462978203028, -0.0043868823783323385),0.031219156589433306
(0.43633129593048714, 2.479404537175206), (-3.6630761565955647, 0.7154567035909892),5.851906630711715
(-3.0000000000001066, 7.664999999999019), (-1.1004609627833115e-27, -3.5527136788004694e-14),8.881784197001252e-15
(-2.0000000000001066, 7.664999999999019), (-1.106377419572469e-27, -3.5527136788004694e-14),8.881784197001252e-15
(-1.0000000000001052, 7.664999999999019), (-1.0975027343887327e-27, -3.5527136788004694e-14),8.881784197001252e-15
(-1.0480505352461483e-13, 7.664999999999019), (-1.0954339466647913e-27, -3.5527136788004694e-14),8.881784197001252e-15
(0.9999999999998953, 7.664999999999019), (-1.0975027343887327e-27, -3.5527136788004694e-14),8.881784197001252e-15
(1.9999999999998956, 7.664999999999019), (-1.1044052673094165e-27, -3.5527136788004694e-14),8.881784197001252e-15
(2.9999999999998965, 7.664999999999019), (-1.0965166582572064e-27, -3.5527136788004694e-14),8.881784197001252e-15
(-2.9999999999999827, 8.66499999999901), (1.1004609627833115e-27, 3.5527136788004694e-14),8.881784197001252e-15
(-1.999999999999982, 8.66499999999901), (1.106377419572469e-27, 3.5527136788004694e-14),8.881784197001252e-15
(-0.9999999999999817, 8.66499999999901), (1.0975027343887327e-27, 3.5527136788004694e-14),8.881784197001252e-15
(1.8529844325598827e-14, 8.66499999999901), (1.0954339466647913e-27, 3.5527136788004694e-14),8.881784197001252e-15
(1.0000000000000189, 8.66499999999901), (1.0975027343887327e-27, 3.5527136788004694e-14),8.881784197001252e-15
(2.00000000000002, 8.66499999999901), (1.1044052673094165e-27, 3.5527136788004694e-14),8.881784197001252e-15
(3.00000000000002, 8.66499999999901), (1.0965166582572064e-27, 3.5527136788004694e-14),8.881784197001252e-15
(-3.0, 9.66499999999901), (0, 0),0
(-2.0, 9.66499999999901), (0, 0),0
(-1.0, 9.66499999999901), (0, 0),0
(0.0, 9.66499999999901), (0, 0),0
(1.0, 9.66499999999901), (0, 0),0
(2.0, 9.66499999999901), (0, 0),0
(3.0, 9.66499999999901), (0, 0),0
(-3.0, 10.664999999999365), (0, 0),0
(-2.0, 10.664999999999365), (0, 0),0
(-1.0, 10.664999999999365), (0, 0),0
(0.0, 10.664999999999365), (0, 0),0
(1.0, 10.664999999999365), (0, 0),0
(2.0, 10.664999999999365), (0, 0),0
(3.0, 10.664999999999365), (0, 0),0
(-3.0, 11.66499999999972), (0, 0),0
(-2.0, 11.66499999999972), (0, 0),0
(-1.0, 11.66499999999972), (0, 0),0
(0.0, 11.66499999999972), (0, 0),0
(1.0, 11.66499999999972), (0, 0),0
(2.0, 11.66499999999972), (0, 0),0
(3.0, 11.66499999999972), (0, 0),0
(-3.0, 12.665000000000076), (0, 0),0
(-2.0, 12.665000000000076), (0, 0),0
(-1.0, 12.665000000000076), (0, 0),0
(0.0, 12.665000000000076), (0, 0),0
(1.0, 12.665000000000076), (0, 0),0
(2.0, 12.665000000000076), (0, 0),0
(3.0, 12.665000000000076), (0, 0),0
