(-1.20281361503522, -2.6627416413914013), (-0.008420837810402291, -0.09317331442449032),0.03300365177180131
(0.567205536845307, -1.9394847981785266), (0.001666989313570186, 0.004718956866602513),0.033085529518055656
(-1.0014082567680913, 4.575567619496761), (-7.886859076421704e-05, -1.304415469920554e-06),7.887548628671137e-05
(-0.001495679652170545, 4.5797020328973295), (-1.0245019068424568e-05, 1.7972747972410064e-06),0.00016799712396842192
(0.9984142429067301, 4.5783194861327585), (8.91136098326416e-05, -4.928593273204523e-07),8.912163768171055e-05
(-1.644815740555758, -1.7818916404775589), (-0.006397290658499381, 0.050995713884850614),0.01447343867626294
(-0.4031396775309871, -2.093703385838433), (-0.0021397246076671726, 0.03139704074518092),0.036006316265139504
(-0.02549673762297955, -0.2423336939480241), (0, 0),0
(-1.9950922213557092, 5.787483325898112), (-0.0021089985535167953, 0.00021999641794570154),0.0021141853530082244
(-0.9975455537865904, 5.761469001085877), (0.00032024371818568714, -0.0003870545751356384),0.003906640584970367
(0.00039001717493180113, 5.7847691865258035), (-0.0003120831956880776, 0.00038824665839148117),0.0038984561272965568
(0.9979385156933007, 5.758512253101468), (2.5262275442673298e-05, -0.00045977575475518787),0.00418676309487287
(1.9954459464015801, 5.787178101318839), (0.0020755757555765125, 0.00023858725355364356),0.002080762199538455
(1.5467971900973556, -1.8424023879646427), (0.015290863762998657, 0.006061602927856278),0.015609426348454525
(-2.9999999999998477, 7.114999999999089), (1.9642636540003194e-27, -3.5527136788004694e-14),8.881784197001252e-15
(-1.9999999999998468, 7.114999999999089), (1.9721522630525295e-27, -3.5527136788004694e-14),8.881784197001252e-15
(-0.9999999999998465, 7.114999999999089), (1.9652497301318457e-27, -3.5527136788004694e-14),8.881784197001252e-15
(1.5365486660812172e-13, 7.114999999999089), (1.9631809424079047e-27, -3.5527136788004694e-14),8.881784197001252e-15
(1.000000000000154, 7.114999999999089), (1.9652497301318457e-27, -3.5527136788004694e-14),8.881784197001252e-15
(2.0000000000001554, 7.114999999999089), (1.974124415315582e-27, -3.5527136788004694e-14),8.881784197001252e-15
(3.0000000000001554, 7.114999999999089), (1.9682079585264245e-27, -3.5527136788004694e-14),8.881784197001252e-15
(-3.000000000000069, 8.11499999999908), (-1.9642636540003194e-27, 3.5527136788004694e-14),8.881784197001252e-15
(-2.000000000000069, 8.11499999999908), (-1.9721522630525295e-27, 3.5527136788004694e-14),8.881784197001252e-15
(-1.0000000000000677, 8.11499999999908), (-1.9652497301318457e-27, 3.5527136788004694e-14),8.881784197001252e-15
(-6.737965740910572e-14, 8.11499999999908), (-1.9631809424079047e-27, 3.5527136788004694e-14),8.881784197001252e-15
(0.9999999999999328, 8.11499999999908), (-1.9652497301318457e-27, 3.5527136788004694e-14),8.881784197001252e-15
(1.9999999999999332, 8.11499999999908), (-1.974124415315582e-27, 3.5527136788004694e-14),8.881784197001252e-15
(2.999999999999934, 8.11499999999908), (-1.9682079585264245e-27, 3.5527136788004694e-14),8.881784197001252e-15
(-3.0, 9.11499999999908), (0, 0),0
(-2.0, 9.11499999999908), (0, 0),0
(-1.0, 9.11499999999908), (0, 0),0
(0.0, 9.11499999999908), (0, 0),0
(1.0, 9.11499999999908), (0, 0),0
(2.0, 9.11499999999908), (0, 0),0
(3.0, 9.11499999999908), (0, 0),0
(-3.0, 10.11499999999908), (0, 0),0
(-2.0, 10.11499999999908), (0, 0),0
(-1.0, 10.11499999999908), (0, 0),0
(0.0, 10.11499999999908), (0, 0),0
(1.0, 10.11499999999908), (0, 0),0
(2.0, 10.11499999999908), (0, 0),0
(3.0, 10.11499999999908), (0, 0),0
(-3.0, 11.114999999999435), (0, 0),0
(-2.0, 11.114999999999435), (0, 0),0
(-1.0, 11.114999999999435), (0, 0),0
(0.0, 11.114999999999435), (0, 0),0
(1.0, 11.114999999999435), (0, 0),0
(2.0, 11.114999999999435), (0, 0),0
(3.0, 11.114999999999435), (0, 0),0
(-3.0, 12.11499999999979), (0, 0),0
(-2.0, 12.11499999999979), (0, 0),0
(-1.0, 12.11499999999979), (0, 0),0
(0.0, 12.11499999999979), (0, 0),0
(1.0, 12.11499999999979), (0, 0),0
(2.0, 12.11499999999979), (0, 0),0
(3.0, 12.11499999999979), (0, 0),0
(-3.0, 13.115000000000146), (0, 0),0
(-2.0, 13.115000000000146), (0, 0),0
(-1.0, 13.115000000000146), (0, 0),0
(0.0, 13.115000000000146), (0, 0),0
(1.0, 13.115000000000146), (0, 0),0
(2.0, 13.115000000000146), (0, 0),0
(3.0, 13.115000000000146), (0, 0),0
