(-3.000000000000062, 7.274999999999427), (0.0, -3.5527136788004694e-14),8.881784197001252e-15
(-2.000000000000062, 7.274999999999427), (0.0, -3.5527136788004694e-14),8.881784197001252e-15
(-1.0000000000000615, 7.274999999999427), (0.0, -3.5527136788004694e-14),8.881784197001252e-15
(-6.107925276666038e-14, 7.274999999999427), (0.0, -3.5527136788004694e-14),8.881784197001252e-15
(0.9999999999999392, 7.274999999999427), (0.0, -3.5527136788004694e-14),8.881784197001252e-15
(1.9999999999999396, 7.274999999999427), (0.0, -3.5527136788004694e-14),8.881784197001252e-15
(2.9999999999999396, 7.274999999999427), (0.0, -3.5527136788004694e-14),8.881784197001252e-15
(-3.000000000000062, 8.274999999999418), (0.0, 3.5527136788004694e-14),8.881784197001252e-15
(-2.000000000000062, 8.274999999999418), (0.0, 3.5527136788004694e-14),8.881784197001252e-15
(-1.0000000000000615, 8.274999999999418), (0.0, 3.5527136788004694e-14),8.881784197001252e-15
(-6.107925276666038e-14, 8.274999999999418), (0.0, 3.5527136788004694e-14),8.881784197001252e-15
(0.9999999999999392, 8.274999999999418), (0.0, 3.5527136788004694e-14),8.881784197001252e-15
(1.9999999999999396, 8.274999999999418), (0.0, 3.5527136788004694e-14),8.881784197001252e-15
(2.9999999999999396, 8.274999999999418), (0.0, 3.5527136788004694e-14),8.881784197001252e-15
(-3.0, 9.274999999999418), (0, 0),0
(-2.0, 9.274999999999418), (0, 0),0
(-1.0, 9.274999999999418), (0, 0),0
(0.0, 9.274999999999418), (0, 0),0
(1.0, 9.274999999999418), (0, 0),0
(2.0, 9.274999999999418), (0, 0),0
(3.0, 9.274999999999418), (0, 0),0
(-3.0, 10.274999999999418), (0, 0),0
(-2.0, 10.274999999999418), (0, 0),0
(-1.0, 10.274999999999418), (0, 0),0
(0.0, 10.274999999999418), (0, 0),0
(1.0, 10.274999999999418), (0, 0),0
(2.0, 10.274999999999418), (0, 0),0
(3.0, 10.274999999999418), (0, 0),0
(-3.0, 11.274999999999418), (0, 0),0
(-2.0, 11.274999999999418), (0, 0),0
(-1.0, 11.274999999999418), (0, 0),0
(0.0, 11.274999999999418), (0, 0),0
(1.0, 11.274999999999418), (0, 0),0
(2.0, 11.274999999999418), (0, 0),0
(3.0, 11.274999999999418), (0, 0),0
(-3.0, 12.274999999999418), (0, 0),0
(-2.0, 12.274999999999418), (0, 0),0
(-1.0, 12.274999999999418), (0, 0),0
(0.0, 12.274999999999418), (0, 0),0
(1.0, 12.274999999999418), (0, 0),0
(2.0, 12.274999999999418), (0, 0),0
(3.0, 12.274999999999418), (0, 0),0
(-3.0, 13.274999999999773), (0, 0),0
(-2.0, 13.274999999999773), (0, 0),0
(-1.0, 13.274999999999773), (0, 0),0
(0.0, 13.274999999999773), (0, 0),0
(1.0, 13.274999999999773), (0, 0),0
(2.0, 13.274999999999773), (0, 0),0
(3.0, 13.274999999999773), (0, 0),0
(-3.0, 14.275000000000128), (0, 0),0
(-2.0, 14.275000000000128), (0, 0),0
(-1.0, 14.275000000000128), (0, 0),0
(0.0, 14.275000000000128), (0, 0),0
(1.0, 14.275000000000128), (0, 0),0
(2.0, 14.275000000000128), (0, 0),0
(3.0, 14.275000000000128), (0, 0),0
(-3.0, 15.275000000000484), (0, 0),0
(-2.0, 15.275000000000484), (0, 0),0
(-1.0, 15.275000000000484), (0, 0),0
(0.0, 15.275000000000484), (0, 0),0
(1.0, 15.275000000000484), (0, 0),0
(2.0, 15.275000000000484), (0, 0),0
(3.0, 15.275000000000484), (0, 0),0
