(-0.987369034062555, 3.5011559029691104), (0, 0),0
(-1.9987891133554148, 5.4611304996359475), (-0.0007369147260289084, -0.00014965319768664242),0.0007384091029331019
(-1.0008128924478685, 5.511797940317607), (-1.7691262709126172e-05, 7.387151148238293e-05),0.0014938235306001246
(-0.0018830850459697688, 5.536877447482403), (-8.627837391503822e-05, 0.0001470316334173116),0.0015971960267284757
(0.9970510370477175, 5.51571698635671), (0.0002066999180092916, 5.328938358595179e-05),0.0014771335270061803
(1.995213499063497, 5.4667129126609435), (0.0006341844446437812, -0.00012453933079900392),0.0006353519279447273
(0.9849833891418126, 3.5031996350068444), (0, 0),0
(-2.8251567336432855, 6.630212988380067), (-0.08643042962162426, -0.08265132862643275),0.09858504370891907
(-1.948447383320151, 6.839806973220374), (0.0446594927495498, 0.07504608194383772),0.1423112071027256
(-0.9931626377577039, 6.883289216414801), (0.034724844413993594, 0.007441496790535576),0.05082273611772714
(-0.00027596806566989056, 6.889057842286396), (0.0005307360242464742, 0.00031545620906222823),0.01365505321042737
(0.9931487203570387, 6.883275012051753), (-0.03524350956907, 0.007448744924134409),0.05027137036489837
(1.948447400427762, 6.839806991164313), (-0.04467156474384486, 0.07505088973477723),0.14229793584451744
(2.8251567420904626, 6.630212979806054), (0.08643043074674925, -0.08265134097591441),0.09858504596612583
(-2.9999999999999165, 7.8899999999992065), (4.449175505446507e-28, -2.1316282072802892e-14),5.329070518200751e-15
(-1.999999999999915, 7.889999999999206), (3.776671583745594e-28, -1.7763568394002426e-14),4.440892098500626e-15
(-0.9999999999999144, 7.889999999999205), (3.0489473986792106e-28, -1.4210854715201953e-14),3.552713678800501e-15
(8.606448886894218e-14, 7.889999999999204), (2.2969193951991004e-28, -1.0658141036401474e-14),2.6645352591003757e-15
(1.0000000000000862, 7.889999999999205), (3.068668921309736e-28, -1.4210854715201953e-14),3.552713678800501e-15
(2.0000000000000866, 7.889999999999206), (3.8456969129524326e-28, -1.7763568394002426e-14),4.440892098500626e-15
(3.0000000000000866, 7.8899999999992065), (4.614836295542919e-28, -2.1316282072802892e-14),5.329070518200751e-15
(-3.0, 8.889999999999201), (-4.449175505446507e-28, 2.1316282072802892e-14),5.329070518200751e-15
(-2.0, 8.889999999999201), (-2.2204460492540893e-16, 1.7763568394002426e-14),4.6629367034256575e-15
(-1.0000000000000002, 8.889999999999201), (2.2204460492472636e-16, 1.4210854715201953e-14),3.774758283725532e-15
(-1.3888890038060732e-16, 8.889999999999201), (-1.1102230246274534e-16, 1.0658141036401474e-14),2.7755575615628914e-15
(0.9999999999999998, 8.889999999999201), (1.1102230246220877e-16, 1.4210854715201953e-14),3.6637359812630166e-15
(2.0, 8.889999999999201), (-3.8456969129524326e-28, 1.7763568394002426e-14),4.440892098500626e-15
(3.0, 8.889999999999201), (-4.614836295542919e-28, 2.1316282072802892e-14),5.329070518200751e-15
(-3.0, 9.889999999999201), (0, 0),0
(-2.0, 9.889999999999201), (0, 0),0
(-1.0, 9.889999999999201), (0, 0),0
(0.0, 9.889999999999201), (0, 0),0
(1.0, 9.889999999999201), (0, 0),0
(2.0, 9.889999999999201), (0, 0),0
(3.0, 9.889999999999201), (0, 0),0
(-3.0, 10.889999999999201), (0, 0),0
(-2.0, 10.889999999999201), (0, 0),0
(-1.0, 10.889999999999201), (0, 0),0
(0.0, 10.889999999999201), (0, 0),0
(1.0, 10.889999999999201), (0, 0),0
(2.0, 10.889999999999201), (0, 0),0
(3.0, 10.889999999999201), (0, 0),0
(-3.0, 11.889999999999556), (0, 0),0
(-2.0, 11.889999999999556), (0, 0),0
(-1.0, 11.889999999999556), (0, 0),0
(0.0, 11.889999999999556), (0, 0),0
(1.0, 11.889999999999556), (0, 0),0
(2.0, 11.889999999999556), (0, 0),0
(3.0, 11.889999999999556), (0, 0),0
(-3.0, 12.889999999999912), (0, 0),0
(-2.0, 12.889999999999912), (0, 0),0
(-1.0, 12.889999999999912), (0, 0),0
(0.0, 12.889999999999912), (0, 0),0
(1.0, 12.889999999999912), (0, 0),0
(2.0, 12.889999999999912), (0, 0),0
(3.0, 12.889999999999912), (0, 0),0
(-3.0, 13.890000000000267), (0, 0),0
(-2.0, 13.890000000000267), (0, 0),0
(-1.0, 13.890000000000267), (0, 0),0
(0.0, 13.890000000000267), (0, 0),0
(1.0, 13.890000000000267), (0, 0),0
(2.0, 13.890000000000267), (0, 0),0
(3.0, 13.890000000000267), (0, 0),0
