(-3.0, 10.989999999999998), (0, 0),0
(-2.0, 10.989999999999998), (0, 0),0
(-1.0, 10.989999999999998), (0, 0),0
(0.0, 10.989999999999998), (0, 0),0
(1.0, 10.989999999999998), (0, 0),0
(2.0, 10.989999999999998), (0, 0),0
(3.0, 10.989999999999998), (0, 0),0
(-3.0, 11.989999999999998), (0, 0),0
(-2.0, 11.989999999999998), (0, 0),0
(-1.0, 11.989999999999998), (0, 0),0
(0.0, 11.989999999999998), (0, 0),0
(1.0, 11.989999999999998), (0, 0),0
(2.0, 11.989999999999998), (0, 0),0
(3.0, 11.989999999999998), (0, 0),0
(-3.0, 12.989999999999998), (0, 0),0
(-2.0, 12.989999999999998), (0, 0),0
(-1.0, 12.989999999999998), (0, 0),0
(0.0, 12.989999999999998), (0, 0),0
(1.0, 12.989999999999998), (0, 0),0
(2.0, 12.989999999999998), (0, 0),0
(3.0, 12.989999999999998), (0, 0),0
(-3.0, 13.989999999999998), (0, 0),0
(-2.0, 13.989999999999998), (0, 0),0
(-1.0, 13.989999999999998), (0, 0),0
(0.0, 13.989999999999998), (0, 0),0
(1.0, 13.989999999999998), (0, 0),0
(2.0, 13.989999999999998), (0, 0),0
(3.0, 13.989999999999998), (0, 0),0
(-3.0, 14.989999999999998), (0, 0),0
(-2.0, 14.989999999999998), (0, 0),0
(-1.0, 14.989999999999998), (0, 0),0
(0.0, 14.989999999999998), (0, 0),0
(1.0, 14.989999999999998), (0, 0),0
(2.0, 14.989999999999998), (0, 0),0
(3.0, 14.989999999999998), (0, 0),0
(-3.0, 15.989999999999998), (0, 0),0
(-2.0, 15.989999999999998), (0, 0),0
(-1.0, 15.989999999999998), (0, 0),0
(0.0, 15.989999999999998), (0, 0),0
(1.0, 15.989999999999998), (0, 0),0
(2.0, 15.989999999999998), (0, 0),0
(3.0, 15.989999999999998), (0, 0),0
(-3.0, 16.990000000000002), (0, 0),0
(-2.0, 16.990000000000002), (0, 0),0
(-1.0, 16.990000000000002), (0, 0),0
(0.0, 16.990000000000002), (0, 0),0
(1.0, 16.990000000000002), (0, 0),0
(2.0, 16.990000000000002), (0, 0),0
(3.0, 16.990000000000002), (0, 0),0
(-3.0, 17.990000000000002), (0, 0),0
(-2.0, 17.990000000000002), (0, 0),0
(-1.0, 17.990000000000002), (0, 0),0
(0.0, 17.990000000000002), (0, 0),0
(1.0, 17.990000000000002), (0, 0),0
(2.0, 17.990000000000002), (0, 0),0
(3.0, 17.990000000000002), (0, 0),0
(-3.0, 18.990000000000002), (0, 0),0
(-2.0, 18.990000000000002), (0, 0),0
(-1.0, 18.990000000000002), (0, 0),0
(0.0, 18.990000000000002), (0, 0),0
(1.0, 18.990000000000002), (0, 0),0
(2.0, 18.990000000000002), (0, 0),0
(3.0, 18.990000000000002), (0, 0),0
