(-3.0, 8.31499999999958), (0, 0),0
(-2.0, 8.31499999999958), (0, 0),0
(-1.0, 8.31499999999958), (0, 0),0
(0.0, 8.31499999999958), (0, 0),0
(1.0, 8.31499999999958), (0, 0),0
(2.0, 8.31499999999958), (0, 0),0
(3.0, 8.31499999999958), (0, 0),0
(-3.0, 9.31499999999958), (0, 0),0
(-2.0, 9.31499999999958), (0, 0),0
(-1.0, 9.31499999999958), (0, 0),0
(0.0, 9.31499999999958), (0, 0),0
(1.0, 9.31499999999958), (0, 0),0
(2.0, 9.31499999999958), (0, 0),0
(3.0, 9.31499999999958), (0, 0),0
(-3.0, 10.31499999999958), (0, 0),0
(-2.0, 10.31499999999958), (0, 0),0
(-1.0, 10.31499999999958), (0, 0),0
(0.0, 10.31499999999958), (0, 0),0
(1.0, 10.31499999999958), (0, 0),0
(2.0, 10.31499999999958), (0, 0),0
(3.0, 10.31499999999958), (0, 0),0
(-3.0, 11.31499999999958), (0, 0),0
(-2.0, 11.31499999999958), (0, 0),0
(-1.0, 11.31499999999958), (0, 0),0
(0.0, 11.31499999999958), (0, 0),0
(1.0, 11.31499999999958), (0, 0),0
(2.0, 11.31499999999958), (0, 0),0
(3.0, 11.31499999999958), (0, 0),0
(-3.0, 12.31499999999958), (0, 0),0
(-2.0, 12.31499999999958), (0, 0),0
(-1.0, 12.31499999999958), (0, 0),0
(0.0, 12.31499999999958), (0, 0),0
(1.0, 12.31499999999958), (0, 0),0
(2.0, 12.31499999999958), (0, 0),0
(3.0, 12.31499999999958), (0, 0),0
(-3.0, 13.31499999999958), (0, 0),0
(-2.0, 13.31499999999958), (0, 0),0
(-1.0, 13.31499999999958), (0, 0),0
(0.0, 13.31499999999958), (0, 0),0
(1.0, 13.31499999999958), (0, 0),0
(2.0, 13.31499999999958), (0, 0),0
(3.0, 13.31499999999958), (0, 0),0
(-3.0, 14.314999999999936), (0, 0),0
(-2.0, 14.314999999999936), (0, 0),0
(-1.0, 14.314999999999936), (0, 0),0
(0.0, 14.314999999999936), (0, 0),0
(1.0, 14.314999999999936), (0, 0),0
(2.0, 14.314999999999936), (0, 0),0
(3.0, 14.314999999999936), (0, 0),0
(-3.0, 15.31500000000029), (0, 0),0
(-2.0, 15.31500000000029), (0, 0),0
(-1.0, 15.31500000000029), (0, 0),0
(0.0, 15.31500000000029), (0, 0),0
(1.0, 15.31500000000029), (0, 0),0
(2.0, 15.31500000000029), (0, 0),0
(3.0, 15.31500000000029), (0, 0),0
(-3.0, 16.315000000000534), (0, 0),0
(-2.0, 16.315000000000534), (0, 0),0
(-1.0, 16.315000000000534), (0, 0),0
(0.0, 16.315000000000534), (0, 0),0
(1.0, 16.315000000000534), (0, 0),0
(2.0, 16.315000000000534), (0, 0),0
(3.0, 16.315000000000534), (0, 0),0
