(-3.0, 10.599999999999937), (0, 0),0
(-2.0, 10.599999999999937), (0, 0),0
(-1.0, 10.599999999999937), (0, 0),0
(0.0, 10.599999999999937), (0, 0),0
(1.0, 10.599999999999937), (0, 0),0
(2.0, 10.599999999999937), (0, 0),0
(3.0, 10.599999999999937), (0, 0),0
(-3.0, 11.599999999999937), (0, 0),0
(-2.0, 11.599999999999937), (0, 0),0
(-1.0, 11.599999999999937), (0, 0),0
(0.0, 11.599999999999937), (0, 0),0
(1.0, 11.599999999999937), (0, 0),0
(2.0, 11.599999999999937), (0, 0),0
(3.0, 11.599999999999937), (0, 0),0
(-3.0, 12.599999999999937), (0, 0),0
(-2.0, 12.599999999999937), (0, 0),0
(-1.0, 12.599999999999937), (0, 0),0
(0.0, 12.599999999999937), (0, 0),0
(1.0, 12.599999999999937), (0, 0),0
(2.0, 12.599999999999937), (0, 0),0
(3.0, 12.599999999999937), (0, 0),0
(-3.0, 13.599999999999937), (0, 0),0
(-2.0, 13.599999999999937), (0, 0),0
(-1.0, 13.599999999999937), (0, 0),0
(0.0, 13.599999999999937), (0, 0),0
(1.0, 13.599999999999937), (0, 0),0
(2.0, 13.599999999999937), (0, 0),0
(3.0, 13.599999999999937), (0, 0),0
(-3.0, 14.599999999999937), (0, 0),0
(-2.0, 14.599999999999937), (0, 0),0
(-1.0, 14.599999999999937), (0, 0),0
(0.0, 14.599999999999937), (0, 0),0
(1.0, 14.599999999999937), (0, 0),0
(2.0, 14.599999999999937), (0, 0),0
(3.0, 14.599999999999937), (0, 0),0
(-3.0, 15.599999999999937), (0, 0),0
(-2.0, 15.599999999999937), (0, 0),0
(-1.0, 15.599999999999937), (0, 0),0
(0.0, 15.599999999999937), (0, 0),0
(1.0, 15.599999999999937), (0, 0),0
(2.0, 15.599999999999937), (0, 0),0
(3.0, 15.599999999999937), (0, 0),0
(-3.0, 16.60000000000008), (0, 0),0
(-2.0, 16.60000000000008), (0, 0),0
(-1.0, 16.60000000000008), (0, 0),0
(0.0, 16.60000000000008), (0, 0),0
(1.0, 16.60000000000008), (0, 0),0
(2.0, 16.60000000000008), (0, 0),0
(3.0, 16.60000000000008), (0, 0),0
(-3.0, 17.60000000000008), (0, 0),0
(-2.0, 17.60000000000008), (0, 0),0
(-1.0, 17.60000000000008), (0, 0),0
(0.0, 17.60000000000008), (0, 0),0
(1.0, 17.60000000000008), (0, 0),0
(2.0, 17.60000000000008), (0, 0),0
(3.0, 17.60000000000008), (0, 0),0
(-3.0, 18.60000000000008), (0, 0),0
(-2.0, 18.60000000000008), (0, 0),0
(-1.0, 18.60000000000008), (0, 0),0
(0.0, 18.60000000000008), (0, 0),0
(1.0, 18.60000000000008), (0, 0),0
(2.0, 18.60000000000008), (0, 0),0
(3.0, 18.60000000000008), (0, 0),0
