(-3.0, 9.004999999999688), (0, 0),0
(-2.0, 9.004999999999688), (0, 0),0
(-1.0, 9.004999999999688), (0, 0),0
(0.0, 9.004999999999688), (0, 0),0
(1.0, 9.004999999999688), (0, 0),0
(2.0, 9.004999999999688), (0, 0),0
(3.0, 9.004999999999688), (0, 0),0
(-3.0, 10.004999999999688), (0, 0),0
(-2.0, 10.004999999999688), (0, 0),0
(-1.0, 10.004999999999688), (0, 0),0
(0.0, 10.004999999999688), (0, 0),0
(1.0, 10.004999999999688), (0, 0),0
(2.0, 10.004999999999688), (0, 0),0
(3.0, 10.004999999999688), (0, 0),0
(-3.0, 11.004999999999688), (0, 0),0
(-2.0, 11.004999999999688), (0, 0),0
(-1.0, 11.004999999999688), (0, 0),0
(0.0, 11.004999999999688), (0, 0),0
(1.0, 11.004999999999688), (0, 0),0
(2.0, 11.004999999999688), (0, 0),0
(3.0, 11.004999999999688), (0, 0),0
(-3.0, 12.004999999999688), (0, 0),0
(-2.0, 12.004999999999688), (0, 0),0
(-1.0, 12.004999999999688), (0, 0),0
(0.0, 12.004999999999688), (0, 0),0
(1.0, 12.004999999999688), (0, 0),0
(2.0, 12.004999999999688), (0, 0),0
(3.0, 12.004999999999688), (0, 0),0
(-3.0, 13.004999999999688), (0, 0),0
(-2.0, 13.004999999999688), (0, 0),0
(-1.0, 13.004999999999688), (0, 0),0
(0.0, 13.004999999999688), (0, 0),0
(1.0, 13.004999999999688), (0, 0),0
(2.0, 13.004999999999688), (0, 0),0
(3.0, 13.004999999999688), (0, 0),0
(-3.0, 14.004999999999688), (0, 0),0
(-2.0, 14.004999999999688), (0, 0),0
(-1.0, 14.004999999999688), (0, 0),0
(0.0, 14.004999999999688), (0, 0),0
(1.0, 14.004999999999688), (0, 0),0
(2.0, 14.004999999999688), (0, 0),0
(3.0, 14.004999999999688), (0, 0),0
(-3.0, 15.005000000000043), (0, 0),0
(-2.0, 15.005000000000043), (0, 0),0
(-1.0, 15.005000000000043), (0, 0),0
(0.0, 15.005000000000043), (0, 0),0
(1.0, 15.005000000000043), (0, 0),0
(2.0, 15.005000000000043), (0, 0),0
(3.0, 15.005000000000043), (0, 0),0
(-3.0, 16.005000000000397), (0, 0),0
(-2.0, 16.005000000000397), (0, 0),0
(-1.0, 16.005000000000397), (0, 0),0
(0.0, 16.005000000000397), (0, 0),0
(1.0, 16.005000000000397), (0, 0),0
(2.0, 16.005000000000397), (0, 0),0
(3.0, 16.005000000000397), (0, 0),0
(-3.0, 17.005000000000397), (0, 0),0
(-2.0, 17.005000000000397), (0, 0),0
(-1.0, 17.005000000000397), (0, 0),0
(0.0, 17.005000000000397), (0, 0),0
(1.0, 17.005000000000397), (0, 0),0
(2.0, 17.005000000000397), (0, 0),0
(3.0, 17.005000000000397), (0, 0),0
