(-3.000000000000027, 7.669999999999488), (0.0, -3.5527136788004694e-14),8.881784197001252e-15
(-2.000000000000027, 7.669999999999488), (0.0, -3.5527136788004694e-14),8.881784197001252e-15
(-1.0000000000000264, 7.669999999999488), (0.0, -3.5527136788004694e-14),8.881784197001252e-15
(-2.5996205188505427e-14, 7.669999999999488), (0.0, -3.5527136788004694e-14),8.881784197001252e-15
(0.9999999999999742, 7.669999999999488), (0.0, -3.5527136788004694e-14),8.881784197001252e-15
(1.9999999999999747, 7.669999999999488), (0.0, -3.5527136788004694e-14),8.881784197001252e-15
(2.9999999999999747, 7.669999999999488), (0.0, -3.5527136788004694e-14),8.881784197001252e-15
(-3.000000000000027, 8.66999999999948), (0.0, 3.5527136788004694e-14),8.881784197001252e-15
(-2.000000000000027, 8.66999999999948), (0.0, 3.5527136788004694e-14),8.881784197001252e-15
(-1.0000000000000264, 8.66999999999948), (0.0, 3.5527136788004694e-14),8.881784197001252e-15
(-2.5996205188505427e-14, 8.66999999999948), (0.0, 3.5527136788004694e-14),8.881784197001252e-15
(0.9999999999999742, 8.66999999999948), (0.0, 3.5527136788004694e-14),8.881784197001252e-15
(1.9999999999999747, 8.66999999999948), (0.0, 3.5527136788004694e-14),8.881784197001252e-15
(2.9999999999999747, 8.66999999999948), (0.0, 3.5527136788004694e-14),8.881784197001252e-15
(-3.0, 9.66999999999948), (0, 0),0
(-2.0, 9.66999999999948), (0, 0),0
(-1.0, 9.66999999999948), (0, 0),0
(0.0, 9.66999999999948), (0, 0),0
(1.0, 9.66999999999948), (0, 0),0
(2.0, 9.66999999999948), (0, 0),0
(3.0, 9.66999999999948), (0, 0),0
(-3.0, 10.66999999999948), (0, 0),0
(-2.0, 10.66999999999948), (0, 0),0
(-1.0, 10.66999999999948), (0, 0),0
(0.0, 10.66999999999948), (0, 0),0
(1.0, 10.66999999999948), (0, 0),0
(2.0, 10.66999999999948), (0, 0),0
(3.0, 10.66999999999948), (0, 0),0
(-3.0, 11.66999999999948), (0, 0),0
(-2.0, 11.66999999999948), (0, 0),0
(-1.0, 11.66999999999948), (0, 0),0
(0.0, 11.66999999999948), (0, 0),0
(1.0, 11.66999999999948), (0, 0),0
(2.0, 11.66999999999948), (0, 0),0
(3.0, 11.66999999999948), (0, 0),0
(-3.0, 12.66999999999948), (0, 0),0
(-2.0, 12.66999999999948), (0, 0),0
(-1.0, 12.66999999999948), (0, 0),0
(0.0, 12.66999999999948), (0, 0),0
(1.0, 12.66999999999948), (0, 0),0
(2.0, 12.66999999999948), (0, 0),0
(3.0, 12.66999999999948), (0, 0),0
(-3.0, 13.669999999999835), (0, 0),0
(-2.0, 13.669999999999835), (0, 0),0
(-1.0, 13.669999999999835), (0, 0),0
(0.0, 13.669999999999835), (0, 0),0
(1.0, 13.669999999999835), (0, 0),0
(2.0, 13.669999999999835), (0, 0),0
(3.0, 13.669999999999835), (0, 0),0
(-3.0, 14.67000000000019), (0, 0),0
(-2.0, 14.67000000000019), (0, 0),0
(-1.0, 14.67000000000019), (0, 0),0
(0.0, 14.67000000000019), (0, 0),0
(1.0, 14.67000000000019), (0, 0),0
(2.0, 14.67000000000019), (0, 0),0
(3.0, 14.67000000000019), (0, 0),0
(-3.0, 15.670000000000545), (0, 0),0
(-2.0, 15.670000000000545), (0, 0),0
(-1.0, 15.670000000000545), (0, 0),0
(0.0, 15.670000000000545), (0, 0),0
(1.0, 15.670000000000545), (0, 0),0
(2.0, 15.670000000000545), (0, 0),0
(3.0, 15.670000000000545), (0, 0),0
