(-3.0000000000000404, 7.519999999999465), (0.0, -3.5527136788004694e-14),8.881784197001252e-15
(-2.0000000000000404, 7.519999999999465), (0.0, -3.5527136788004694e-14),8.881784197001252e-15
(-1.0000000000000397, 7.519999999999465), (0.0, -3.5527136788004694e-14),8.881784197001252e-15
(-3.931888148400731e-14, 7.519999999999465), (0.0, -3.5527136788004694e-14),8.881784197001252e-15
(0.9999999999999609, 7.519999999999465), (0.0, -3.5527136788004694e-14),8.881784197001252e-15
(1.9999999999999614, 7.519999999999465), (0.0, -3.5527136788004694e-14),8.881784197001252e-15
(2.9999999999999614, 7.519999999999465), (0.0, -3.5527136788004694e-14),8.881784197001252e-15
(-3.0000000000000404, 8.519999999999456), (0.0, 3.5527136788004694e-14),8.881784197001252e-15
(-2.0000000000000404, 8.519999999999456), (0.0, 3.5527136788004694e-14),8.881784197001252e-15
(-1.0000000000000397, 8.519999999999456), (0.0, 3.5527136788004694e-14),8.881784197001252e-15
(-3.931888148400731e-14, 8.519999999999456), (0.0, 3.5527136788004694e-14),8.881784197001252e-15
(0.9999999999999609, 8.519999999999456), (0.0, 3.5527136788004694e-14),8.881784197001252e-15
(1.9999999999999614, 8.519999999999456), (0.0, 3.5527136788004694e-14),8.881784197001252e-15
(2.9999999999999614, 8.519999999999456), (0.0, 3.5527136788004694e-14),8.881784197001252e-15
(-3.0, 9.519999999999456), (0, 0),0
(-2.0, 9.519999999999456), (0, 0),0
(-1.0, 9.519999999999456), (0, 0),0
(0.0, 9.519999999999456), (0, 0),0
(1.0, 9.519999999999456), (0, 0),0
(2.0, 9.519999999999456), (0, 0),0
(3.0, 9.519999999999456), (0, 0),0
(-3.0, 10.519999999999456), (0, 0),0
(-2.0, 10.519999999999456), (0, 0),0
(-1.0, 10.519999999999456), (0, 0),0
(0.0, 10.519999999999456), (0, 0),0
(1.0, 10.519999999999456), (0, 0),0
(2.0, 10.519999999999456), (0, 0),0
(3.0, 10.519999999999456), (0, 0),0
(-3.0, 11.519999999999456), (0, 0),0
(-2.0, 11.519999999999456), (0, 0),0
(-1.0, 11.519999999999456), (0, 0),0
(0.0, 11.519999999999456), (0, 0),0
(1.0, 11.519999999999456), (0, 0),0
(2.0, 11.519999999999456), (0, 0),0
(3.0, 11.519999999999456), (0, 0),0
(-3.0, 12.519999999999456), (0, 0),0
(-2.0, 12.519999999999456), (0, 0),0
(-1.0, 12.519999999999456), (0, 0),0
(0.0, 12.519999999999456), (0, 0),0
(1.0, 12.519999999999456), (0, 0),0
(2.0, 12.519999999999456), (0, 0),0
(3.0, 12.519999999999456), (0, 0),0
(-3.0, 13.519999999999811), (0, 0),0
(-2.0, 13.519999999999811), (0, 0),0
(-1.0, 13.519999999999811), (0, 0),0
(0.0, 13.519999999999811), (0, 0),0
(1.0, 13.519999999999811), (0, 0),0
(2.0, 13.519999999999811), (0, 0),0
(3.0, 13.519999999999811), (0, 0),0
(-3.0, 14.520000000000167), (0, 0),0
(-2.0, 14.520000000000167), (0, 0),0
(-1.0, 14.520000000000167), (0, 0),0
(0.0, 14.520000000000167), (0, 0),0
(1.0, 14.520000000000167), (0, 0),0
(2.0, 14.520000000000167), (0, 0),0
(3.0, 14.520000000000167), (0, 0),0
(-3.0, 15.520000000000522), (0, 0),0
(-2.0, 15.520000000000522), (0, 0),0
(-1.0, 15.520000000000522), (0, 0),0
(0.0, 15.520000000000522), (0, 0),0
(1.0, 15.520000000000522), (0, 0),0
(2.0, 15.520000000000522), (0, 0),0
(3.0, 15.520000000000522), (0, 0),0
