(-3.0, 8.914999999999674), (0, 0),0
(-2.0, 8.914999999999674), (0, 0),0
(-1.0, 8.914999999999674), (0, 0),0
(0.0, 8.914999999999674), (0, 0),0
(1.0, 8.914999999999674), (0, 0),0
(2.0, 8.914999999999674), (0, 0),0
(3.0, 8.914999999999674), (0, 0),0
(-3.0, 9.914999999999674), (0, 0),0
(-2.0, 9.914999999999674), (0, 0),0
(-1.0, 9.914999999999674), (0, 0),0
(0.0, 9.914999999999674), (0, 0),0
(1.0, 9.914999999999674), (0, 0),0
(2.0, 9.914999999999674), (0, 0),0
(3.0, 9.914999999999674), (0, 0),0
(-3.0, 10.914999999999674), (0, 0),0
(-2.0, 10.914999999999674), (0, 0),0
(-1.0, 10.914999999999674), (0, 0),0
(0.0, 10.914999999999674), (0, 0),0
(1.0, 10.914999999999674), (0, 0),0
(2.0, 10.914999999999674), (0, 0),0
(3.0, 10.914999999999674), (0, 0),0
(-3.0, 11.914999999999674), (0, 0),0
(-2.0, 11.914999999999674), (0, 0),0
(-1.0, 11.914999999999674), (0, 0),0
(0.0, 11.914999999999674), (0, 0),0
(1.0, 11.914999999999674), (0, 0),0
(2.0, 11.914999999999674), (0, 0),0
(3.0, 11.914999999999674), (0, 0),0
(-3.0, 12.914999999999674), (0, 0),0
(-2.0, 12.914999999999674), (0, 0),0
(-1.0, 12.914999999999674), (0, 0),0
(0.0, 12.914999999999674), (0, 0),0
(1.0, 12.914999999999674), (0, 0),0
(2.0, 12.914999999999674), (0, 0),0
(3.0, 12.914999999999674), (0, 0),0
(-3.0, 13.914999999999674), (0, 0),0
(-2.0, 13.914999999999674), (0, 0),0
(-1.0, 13.914999999999674), (0, 0),0
(0.0, 13.914999999999674), (0, 0),0
(1.0, 13.914999999999674), (0, 0),0
(2.0, 13.914999999999674), (0, 0),0
(3.0, 13.914999999999674), (0, 0),0
(-3.0, 14.91500000000003), (0, 0),0
(-2.0, 14.91500000000003), (0, 0),0
(-1.0, 14.91500000000003), (0, 0),0
(0.0, 14.91500000000003), (0, 0),0
(1.0, 14.91500000000003), (0, 0),0
(2.0, 14.91500000000003), (0, 0),0
(3.0, 14.91500000000003), (0, 0),0
(-3.0, 15.915000000000385), (0, 0),0
(-2.0, 15.915000000000385), (0, 0),0
(-1.0, 15.915000000000385), (0, 0),0
(0.0, 15.915000000000385), (0, 0),0
(1.0, 15.915000000000385), (0, 0),0
(2.0, 15.915000000000385), (0, 0),0
(3.0, 15.915000000000385), (0, 0),0
(-3.0, 16.915000000000415), (0, 0),0
(-2.0, 16.915000000000415), (0, 0),0
(-1.0, 16.915000000000415), (0, 0),0
(0.0, 16.915000000000415), (0, 0),0
(1.0, 16.915000000000415), (0, 0),0
(2.0, 16.915000000000415), (0, 0),0
(3.0, 16.915000000000415), (0, 0),0
