(-1.8683944378469934, 5.0885210527156906), (0, 0),0
(-1.9503813368994434, 6.238890683629154), (-0.019619176297398858, -0.008081200557158403),0.020128061863671887
(-0.9756637296961136, 6.339262997316044), (-0.005952036760093735, 0.005344607517851959),0.046398564667165965
(-0.0022825481950300703, 6.3653054474717985), (0.002891311201848934, 0.005041190757095855),0.04949720110578648
(0.9741757310002193, 6.340499966212739), (0.0016652125043909102, 0.0060692387192341915),0.04481129921497751
(1.9477721128032564, 6.243511417861789), (0.02101468935125275, -0.008373836437023602),0.021584600912685104
(1.8660087929262508, 5.0905647847534246), (0, 0),0
(-3.000000000000118, 7.619999999999324), (-1.2385116211969885e-27, -3.5527136788004694e-14),8.881784197001252e-15
(-2.0000000000001177, 7.619999999999324), (-1.240483773460041e-27, -3.5527136788004694e-14),8.881784197001252e-15
(-1.0000000000001168, 7.619999999999324), (-1.2355533928024097e-27, -3.5527136788004694e-14),8.881784197001252e-15
(-1.1619072370905316e-13, 7.619999999999324), (-1.2320577529161494e-27, -3.5527136788004694e-14),8.881784197001252e-15
(0.9999999999998841, 7.619999999999324), (-1.232595164407831e-27, -3.5527136788004694e-14),8.881784197001252e-15
(1.9999999999998848, 7.619999999999324), (-1.236539468933936e-27, -3.5527136788004694e-14),8.881784197001252e-15
(2.9999999999998854, 7.619999999999324), (-1.2306230121447784e-27, -3.5527136788004694e-14),8.881784197001252e-15
(-2.9999999999999787, 8.619999999999315), (1.2385116211969885e-27, 3.5527136788004694e-14),8.881784197001252e-15
(-1.999999999999978, 8.619999999999315), (1.240483773460041e-27, 3.5527136788004694e-14),8.881784197001252e-15
(-0.9999999999999777, 8.619999999999315), (1.2355533928024097e-27, 3.5527136788004694e-14),8.881784197001252e-15
(2.252664721424939e-14, 8.619999999999315), (1.2320577529161494e-27, 3.5527136788004694e-14),8.881784197001252e-15
(1.0000000000000229, 8.619999999999315), (1.232595164407831e-27, 3.5527136788004694e-14),8.881784197001252e-15
(2.000000000000024, 8.619999999999315), (1.236539468933936e-27, 3.5527136788004694e-14),8.881784197001252e-15
(3.000000000000024, 8.619999999999315), (1.2306230121447784e-27, 3.5527136788004694e-14),8.881784197001252e-15
(-3.0, 9.619999999999315), (0, 0),0
(-2.0, 9.619999999999315), (0, 0),0
(-1.0, 9.619999999999315), (0, 0),0
(0.0, 9.619999999999315), (0, 0),0
(1.0, 9.619999999999315), (0, 0),0
(2.0, 9.619999999999315), (0, 0),0
(3.0, 9.619999999999315), (0, 0),0
(-3.0, 10.619999999999315), (0, 0),0
(-2.0, 10.619999999999315), (0, 0),0
(-1.0, 10.619999999999315), (0, 0),0
(0.0, 10.619999999999315), (0, 0),0
(1.0, 10.619999999999315), (0, 0),0
(2.0, 10.619999999999315), (0, 0),0
(3.0, 10.619999999999315), (0, 0),0
(-3.0, 11.619999999999315), (0, 0),0
(-2.0, 11.619999999999315), (0, 0),0
(-1.0, 11.619999999999315), (0, 0),0
(0.0, 11.619999999999315), (0, 0),0
(1.0, 11.619999999999315), (0, 0),0
(2.0, 11.619999999999315), (0, 0),0
(3.0, 11.619999999999315), (0, 0),0
(-3.0, 12.61999999999967), (0, 0),0
(-2.0, 12.61999999999967), (0, 0),0
(-1.0, 12.61999999999967), (0, 0),0
(0.0, 12.61999999999967), (0, 0),0
(1.0, 12.61999999999967), (0, 0),0
(2.0, 12.61999999999967), (0, 0),0
(3.0, 12.61999999999967), (0, 0),0
(-3.0, 13.620000000000026), (0, 0),0
(-2.0, 13.620000000000026), (0, 0),0
(-1.0, 13.620000000000026), (0, 0),0
(0.0, 13.620000000000026), (0, 0),0
(1.0, 13.620000000000026), (0, 0),0
(2.0, 13.620000000000026), (0, 0),0
(3.0, 13.620000000000026), (0, 0),0
(-3.0, 14.620000000000381), (0, 0),0
(-2.0, 14.620000000000381), (0, 0),0
(-1.0, 14.620000000000381), (0, 0),0
(0.0, 14.620000000000381), (0, 0),0
(1.0, 14.620000000000381), (0, 0),0
(2.0, 14.620000000000381), (0, 0),0
(3.0, 14.620000000000381), (0, 0),0
