(-3.0, 8.969999999999683), (0, 0),0
(-2.0, 8.969999999999683), (0, 0),0
(-1.0, 8.969999999999683), (0, 0),0
(0.0, 8.969999999999683), (0, 0),0
(1.0, 8.969999999999683), (0, 0),0
(2.0, 8.969999999999683), (0, 0),0
(3.0, 8.969999999999683), (0, 0),0
(-3.0, 9.969999999999683), (0, 0),0
(-2.0, 9.969999999999683), (0, 0),0
(-1.0, 9.969999999999683), (0, 0),0
(0.0, 9.969999999999683), (0, 0),0
(1.0, 9.969999999999683), (0, 0),0
(2.0, 9.969999999999683), (0, 0),0
(3.0, 9.969999999999683), (0, 0),0
(-3.0, 10.969999999999683), (0, 0),0
(-2.0, 10.969999999999683), (0, 0),0
(-1.0, 10.969999999999683), (0, 0),0
(0.0, 10.969999999999683), (0, 0),0
(1.0, 10.969999999999683), (0, 0),0
(2.0, 10.969999999999683), (0, 0),0
(3.0, 10.969999999999683), (0, 0),0
(-3.0, 11.969999999999683), (0, 0),0
(-2.0, 11.969999999999683), (0, 0),0
(-1.0, 11.969999999999683), (0, 0),0
(0.0, 11.969999999999683), (0, 0),0
(1.0, 11.969999999999683), (0, 0),0
(2.0, 11.969999999999683), (0, 0),0
(3.0, 11.969999999999683), (0, 0),0
(-3.0, 12.969999999999683), (0, 0),0
(-2.0, 12.969999999999683), (0, 0),0
(-1.0, 12.969999999999683), (0, 0),0
(0.0, 12.969999999999683), (0, 0),0
(1.0, 12.969999999999683), (0, 0),0
(2.0, 12.969999999999683), (0, 0),0
(3.0, 12.969999999999683), (0, 0),0
(-3.0, 13.969999999999683), (0, 0),0
(-2.0, 13.969999999999683), (0, 0),0
(-1.0, 13.969999999999683), (0, 0),0
(0.0, 13.969999999999683), (0, 0),0
(1.0, 13.969999999999683), (0, 0),0
(2.0, 13.969999999999683), (0, 0),0
(3.0, 13.969999999999683), (0, 0),0
(-3.0, 14.970000000000038), (0, 0),0
(-2.0, 14.970000000000038), (0, 0),0
(-1.0, 14.970000000000038), (0, 0),0
(0.0, 14.970000000000038), (0, 0),0
(1.0, 14.970000000000038), (0, 0),0
(2.0, 14.970000000000038), (0, 0),0
(3.0, 14.970000000000038), (0, 0),0
(-3.0, 15.970000000000393), (0, 0),0
(-2.0, 15.970000000000393), (0, 0),0
(-1.0, 15.970000000000393), (0, 0),0
(0.0, 15.970000000000393), (0, 0),0
(1.0, 15.970000000000393), (0, 0),0
(2.0, 15.970000000000393), (0, 0),0
(3.0, 15.970000000000393), (0, 0),0
(-3.0, 16.970000000000404), (0, 0),0
(-2.0, 16.970000000000404), (0, 0),0
(-1.0, 16.970000000000404), (0, 0),0
(0.0, 16.970000000000404), (0, 0),0
(1.0, 16.970000000000404), (0, 0),0
(2.0, 16.970000000000404), (0, 0),0
(3.0, 16.970000000000404), (0, 0),0
