(-1.2354375397410402, -3.162993993952228), (-3.2491547452241577e-06, -0.001741649143385144),0.0005522657821018795
(0.5700662310464508, -2.4322920633378486), (-4.457080531025101e-06, 3.1390361170926224e-05),0.00039625230888773455
(-0.3367037340721829, 2.795493395905342), (-0.15067900777912896, 0.7841658072907469),0.9769715057320832
(-0.06176803200891382, 3.503582157710488), (0.06442938494866984, 0.6880894424649917),0.24286215405760514
(0.6178059650524689, 2.7733234506314806), (-3.540510382661054, 3.6501251845396268),5.02898130681289
(-1.664734851940295, -2.2602288980662277), (-0.00015436000364061562, 0.0012984085343903124),0.00035956433747474925
(-0.41754456187153155, -2.587958594175536), (-3.6402774563220035e-05, 0.00032092050168186005),0.0003891471845282046
(-0.02549673762297955, -0.7023336939480245), (0, 0),0
(-0.4677542189425195, 2.3238066740553354), (3.2404093652913497, 2.09916493208072),5.557803317897513
(-0.9711646620782106, 5.124823161314127), (-0.025793458153899614, -0.0024979916466032225),0.026503449914424992
(0.0020466835082010213, 5.1483860526987275), (-0.0032087856733762354, 0.00587027972142995),0.056412495900383997
(0.9717280247616513, 5.120198192106234), (0.02900224382727585, -0.0033722880748267266),0.029909045985959004
(0.41820705590248936, 2.2583788759062493), (-3.371087073596102, 2.2714172748685355),6.157634198967534
(1.5633719791339196, -2.318519845283151), (0.00019846901348008491, 9.092974614204531e-05),0.00019980656898666016
(0.002835661326039185, 1.8982075773593938), (-0.17316055402940944, -1.8932424881684604),1.558351403756296
(-1.9384284522850361, 6.386848654539183), (-0.02723159719497464, -0.003542257840571807),0.028031772841728975
(-0.9669737623256186, 6.418440108463377), (-0.0063080054836103065, -0.0006292487210807674),0.06279614684790369
(-0.002204407565260488, 6.448438538471866), (0.0035674941869024077, 0.007747193529976102),0.06570727320737713
(0.966421974106107, 6.4195491400910525), (0.002307058629658385, 3.860949047797052e-05),0.059434470689751606
(1.9374126361390096, 6.3878354062570475), (0.027665049862024154, -0.003614296458801499),0.028491571488549194
(0.24776807712341203, 2.067933107249703), (-3.5694017321743257, 1.0605338847682246),6.286858094525901
(-3.0000000000001075, 7.654999999999017), (-1.1162381808877317e-27, -3.5527136788004694e-14),8.881784197001252e-15
(-2.0000000000001075, 7.654999999999017), (-1.1221546376768893e-27, -3.5527136788004694e-14),8.881784197001252e-15
(-1.0000000000001061, 7.654999999999017), (-1.113279952493153e-27, -3.5527136788004694e-14),8.881784197001252e-15
(-1.0569323194431495e-13, 7.654999999999017), (-1.1112111647692116e-27, -3.5527136788004694e-14),8.881784197001252e-15
(0.9999999999998944, 7.654999999999017), (-1.113279952493153e-27, -3.5527136788004694e-14),8.881784197001252e-15
(1.9999999999998948, 7.654999999999017), (-1.1201824854138368e-27, -3.5527136788004694e-14),8.881784197001252e-15
(2.9999999999998956, 7.654999999999017), (-1.1122938763616266e-27, -3.5527136788004694e-14),8.881784197001252e-15
(-2.999999999999982, 8.654999999999008), (1.1162381808877317e-27, 3.5527136788004694e-14),8.881784197001252e-15
(-1.9999999999999811, 8.654999999999008), (1.1221546376768893e-27, 3.5527136788004694e-14),8.881784197001252e-15
(-0.9999999999999808, 8.654999999999008), (1.113279952493153e-27, 3.5527136788004694e-14),8.881784197001252e-15
(1.9418022745298952e-14, 8.654999999999008), (1.1112111647692116e-27, 3.5527136788004694e-14),8.881784197001252e-15
(1.0000000000000198, 8.654999999999008), (1.113279952493153e-27, 3.5527136788004694e-14),8.881784197001252e-15
(2.000000000000021, 8.654999999999008), (1.1201824854138368e-27, 3.5527136788004694e-14),8.881784197001252e-15
(3.000000000000021, 8.654999999999008), (1.1122938763616266e-27, 3.5527136788004694e-14),8.881784197001252e-15
(-3.0, 9.654999999999008), (0, 0),0
(-2.0, 9.654999999999008), (0, 0),0
(-1.0, 9.654999999999008), (0, 0),0
(0.0, 9.654999999999008), (0, 0),0
(1.0, 9.654999999999008), (0, 0),0
(2.0, 9.654999999999008), (0, 0),0
(3.0, 9.654999999999008), (0, 0),0
(-3.0, 10.654999999999363), (0, 0),0
(-2.0, 10.654999999999363), (0, 0),0
(-1.0, 10.654999999999363), (0, 0),0
(0.0, 10.654999999999363), (0, 0),0
(1.0, 10.654999999999363), (0, 0),0
(2.0, 10.654999999999363), (0, 0),0
(3.0, 10.654999999999363), (0, 0),0
(-3.0, 11.654999999999719), (0, 0),0
(-2.0, 11.654999999999719), (0, 0),0
(-1.0, 11.654999999999719), (0, 0),0
(0.0, 11.654999999999719), (0, 0),0
(1.0, 11.654999999999719), (0, 0),0
(2.0, 11.654999999999719), (0, 0),0
(3.0, 11.654999999999719), (0, 0),0
(-3.0, 12.655000000000074), (0, 0),0
(-2.0, 12.655000000000074), (0, 0),0
(-1.0, 12.655000000000074), (0, 0),0
(0.0, 12.655000000000074), (0, 0),0
(1.0, 12.655000000000074), (0, 0),0
(2.0, 12.655000000000074), (0, 0),0
(3.0, 12.655000000000074), (0, 0),0
