(-3.0, 10.694999999999952), (0, 0),0
(-2.0, 10.694999999999952), (0, 0),0
(-1.0, 10.694999999999952), (0, 0),0
(0.0, 10.694999999999952), (0, 0),0
(1.0, 10.694999999999952), (0, 0),0
(2.0, 10.694999999999952), (0, 0),0
(3.0, 10.694999999999952), (0, 0),0
(-3.0, 11.694999999999952), (0, 0),0
(-2.0, 11.694999999999952), (0, 0),0
(-1.0, 11.694999999999952), (0, 0),0
(0.0, 11.694999999999952), (0, 0),0
(1.0, 11.694999999999952), (0, 0),0
(2.0, 11.694999999999952), (0, 0),0
(3.0, 11.694999999999952), (0, 0),0
(-3.0, 12.694999999999952), (0, 0),0
(-2.0, 12.694999999999952), (0, 0),0
(-1.0, 12.694999999999952), (0, 0),0
(0.0, 12.694999999999952), (0, 0),0
(1.0, 12.694999999999952), (0, 0),0
(2.0, 12.694999999999952), (0, 0),0
(3.0, 12.694999999999952), (0, 0),0
(-3.0, 13.694999999999952), (0, 0),0
(-2.0, 13.694999999999952), (0, 0),0
(-1.0, 13.694999999999952), (0, 0),0
(0.0, 13.694999999999952), (0, 0),0
(1.0, 13.694999999999952), (0, 0),0
(2.0, 13.694999999999952), (0, 0),0
(3.0, 13.694999999999952), (0, 0),0
(-3.0, 14.694999999999952), (0, 0),0
(-2.0, 14.694999999999952), (0, 0),0
(-1.0, 14.694999999999952), (0, 0),0
(0.0, 14.694999999999952), (0, 0),0
(1.0, 14.694999999999952), (0, 0),0
(2.0, 14.694999999999952), (0, 0),0
(3.0, 14.694999999999952), (0, 0),0
(-3.0, 15.694999999999952), (0, 0),0
(-2.0, 15.694999999999952), (0, 0),0
(-1.0, 15.694999999999952), (0, 0),0
(0.0, 15.694999999999952), (0, 0),0
(1.0, 15.694999999999952), (0, 0),0
(2.0, 15.694999999999952), (0, 0),0
(3.0, 15.694999999999952), (0, 0),0
(-3.0, 16.69500000000006), (0, 0),0
(-2.0, 16.69500000000006), (0, 0),0
(-1.0, 16.69500000000006), (0, 0),0
(0.0, 16.69500000000006), (0, 0),0
(1.0, 16.69500000000006), (0, 0),0
(2.0, 16.69500000000006), (0, 0),0
(3.0, 16.69500000000006), (0, 0),0
(-3.0, 17.69500000000006), (0, 0),0
(-2.0, 17.69500000000006), (0, 0),0
(-1.0, 17.69500000000006), (0, 0),0
(0.0, 17.69500000000006), (0, 0),0
(1.0, 17.69500000000006), (0, 0),0
(2.0, 17.69500000000006), (0, 0),0
(3.0, 17.69500000000006), (0, 0),0
(-3.0, 18.69500000000006), (0, 0),0
(-2.0, 18.69500000000006), (0, 0),0
(-1.0, 18.69500000000006), (0, 0),0
(0.0, 18.69500000000006), (0, 0),0
(1.0, 18.69500000000006), (0, 0),0
(2.0, 18.69500000000006), (0, 0),0
(3.0, 18.69500000000006), (0, 0),0
