(-3.0, 8.88999999999967), (0, 0),0
(-2.0, 8.88999999999967), (0, 0),0
(-1.0, 8.88999999999967), (0, 0),0
(0.0, 8.88999999999967), (0, 0),0
(1.0, 8.88999999999967), (0, 0),0
(2.0, 8.88999999999967), (0, 0),0
(3.0, 8.88999999999967), (0, 0),0
(-3.0, 9.88999999999967), (0, 0),0
(-2.0, 9.88999999999967), (0, 0),0
(-1.0, 9.88999999999967), (0, 0),0
(0.0, 9.88999999999967), (0, 0),0
(1.0, 9.88999999999967), (0, 0),0
(2.0, 9.88999999999967), (0, 0),0
(3.0, 9.88999999999967), (0, 0),0
(-3.0, 10.88999999999967), (0, 0),0
(-2.0, 10.88999999999967), (0, 0),0
(-1.0, 10.88999999999967), (0, 0),0
(0.0, 10.88999999999967), (0, 0),0
(1.0, 10.88999999999967), (0, 0),0
(2.0, 10.88999999999967), (0, 0),0
(3.0, 10.88999999999967), (0, 0),0
(-3.0, 11.88999999999967), (0, 0),0
(-2.0, 11.88999999999967), (0, 0),0
(-1.0, 11.88999999999967), (0, 0),0
(0.0, 11.88999999999967), (0, 0),0
(1.0, 11.88999999999967), (0, 0),0
(2.0, 11.88999999999967), (0, 0),0
(3.0, 11.88999999999967), (0, 0),0
(-3.0, 12.88999999999967), (0, 0),0
(-2.0, 12.88999999999967), (0, 0),0
(-1.0, 12.88999999999967), (0, 0),0
(0.0, 12.88999999999967), (0, 0),0
(1.0, 12.88999999999967), (0, 0),0
(2.0, 12.88999999999967), (0, 0),0
(3.0, 12.88999999999967), (0, 0),0
(-3.0, 13.88999999999967), (0, 0),0
(-2.0, 13.88999999999967), (0, 0),0
(-1.0, 13.88999999999967), (0, 0),0
(0.0, 13.88999999999967), (0, 0),0
(1.0, 13.88999999999967), (0, 0),0
(2.0, 13.88999999999967), (0, 0),0
(3.0, 13.88999999999967), (0, 0),0
(-3.0, 14.890000000000025), (0, 0),0
(-2.0, 14.890000000000025), (0, 0),0
(-1.0, 14.890000000000025), (0, 0),0
(0.0, 14.890000000000025), (0, 0),0
(1.0, 14.890000000000025), (0, 0),0
(2.0, 14.890000000000025), (0, 0),0
(3.0, 14.890000000000025), (0, 0),0
(-3.0, 15.89000000000038), (0, 0),0
(-2.0, 15.89000000000038), (0, 0),0
(-1.0, 15.89000000000038), (0, 0),0
(0.0, 15.89000000000038), (0, 0),0
(1.0, 15.89000000000038), (0, 0),0
(2.0, 15.89000000000038), (0, 0),0
(3.0, 15.89000000000038), (0, 0),0
(-3.0, 16.89000000000042), (0, 0),0
(-2.0, 16.89000000000042), (0, 0),0
(-1.0, 16.89000000000042), (0, 0),0
(0.0, 16.89000000000042), (0, 0),0
(1.0, 16.89000000000042), (0, 0),0
(2.0, 16.89000000000042), (0, 0),0
(3.0, 16.89000000000042), (0, 0),0
