(-1.2075832041631003, -2.682755480730083), (-0.007263775940280341, -0.08235311355676554),0.029033950677222253
(0.5688966077309701, -1.9592035956776823), (-0.0008307390267767601, 0.002768963717862993),0.0286789704346202
(-1.0014201513155576, 4.560555954302721), (-7.503202573266875e-05, -1.237274663430118e-06),7.503829405686169e-05
(-0.0015036863195408757, 4.564678098465849), (6.42960434399095e-06, 1.613486866466489e-06),0.00014364548686518486
(0.9984267667503187, 4.563307206480487), (6.86024213886778e-05, -3.762122030363712e-07),6.860719280832317e-05
(-1.646923914174701, -1.7988339444289552), (-0.005673919566423228, 0.04566205303277651),0.012914622836279865
(-0.40496316725049475, -2.113701657797167), (-0.000658556857742687, 0.02806314633609936),0.0300805291491133
(-0.02549673762297955, -0.2573336939480241), (0, 0),0
(-1.995389840186016, 5.772192139053439), (-0.0016250065569589894, 0.00017131689272694258),0.001628221976535893
(-0.997364644373185, 5.745887848975709), (-0.000537760150561656, -0.00037337473340670965),0.0037962789930056084
(0.00019524039512045996, 5.769187263975502), (0.00046857442223614473, 0.0003805019635714223),0.0038657185978547837
(0.998151666965287, 5.7429093348451765), (-0.0002736285304628513, -0.00040696495297455604),0.003670202448314508
(1.9957587881858296, 5.771872084605417), (0.001967820815747352, 0.0002285208300829008),0.0019725408669294398
(1.5491396912629902, -1.8596818811486515), (0.014426991391223016, 0.005858950470026676),0.014717769126449287
(-2.9999999999998463, 7.099999999999087), (1.9879294811569497e-27, -3.5527136788004694e-14),8.881784197001252e-15
(-1.9999999999998455, 7.099999999999087), (1.99581809020916e-27, -3.5527136788004694e-14),8.881784197001252e-15
(-0.9999999999998451, 7.099999999999087), (1.988915557288476e-27, -3.5527136788004694e-14),8.881784197001252e-15
(1.549871342376719e-13, 7.099999999999087), (1.986846769564535e-27, -3.5527136788004694e-14),8.881784197001252e-15
(1.0000000000001554, 7.099999999999087), (1.988915557288476e-27, -3.5527136788004694e-14),8.881784197001252e-15
(2.0000000000001568, 7.099999999999087), (1.9977902424722124e-27, -3.5527136788004694e-14),8.881784197001252e-15
(3.0000000000001568, 7.099999999999087), (1.9918737856830548e-27, -3.5527136788004694e-14),8.881784197001252e-15
(-3.00000000000007, 8.099999999999078), (-1.9879294811569497e-27, 3.5527136788004694e-14),8.881784197001252e-15
(-2.00000000000007, 8.099999999999078), (-1.99581809020916e-27, 3.5527136788004694e-14),8.881784197001252e-15
(-1.000000000000069, 8.099999999999078), (-1.988915557288476e-27, 3.5527136788004694e-14),8.881784197001252e-15
(-6.87119250386559e-14, 8.099999999999078), (-1.986846769564535e-27, 3.5527136788004694e-14),8.881784197001252e-15
(0.9999999999999315, 8.099999999999078), (-1.988915557288476e-27, 3.5527136788004694e-14),8.881784197001252e-15
(1.9999999999999318, 8.099999999999078), (-1.9977902424722124e-27, 3.5527136788004694e-14),8.881784197001252e-15
(2.9999999999999325, 8.099999999999078), (-1.9918737856830548e-27, 3.5527136788004694e-14),8.881784197001252e-15
(-3.0, 9.099999999999078), (0, 0),0
(-2.0, 9.099999999999078), (0, 0),0
(-1.0, 9.099999999999078), (0, 0),0
(0.0, 9.099999999999078), (0, 0),0
(1.0, 9.099999999999078), (0, 0),0
(2.0, 9.099999999999078), (0, 0),0
(3.0, 9.099999999999078), (0, 0),0
(-3.0, 10.099999999999078), (0, 0),0
(-2.0, 10.099999999999078), (0, 0),0
(-1.0, 10.099999999999078), (0, 0),0
(0.0, 10.099999999999078), (0, 0),0
(1.0, 10.099999999999078), (0, 0),0
(2.0, 10.099999999999078), (0, 0),0
(3.0, 10.099999999999078), (0, 0),0
(-3.0, 11.099999999999433), (0, 0),0
(-2.0, 11.099999999999433), (0, 0),0
(-1.0, 11.099999999999433), (0, 0),0
(0.0, 11.099999999999433), (0, 0),0
(1.0, 11.099999999999433), (0, 0),0
(2.0, 11.099999999999433), (0, 0),0
(3.0, 11.099999999999433), (0, 0),0
(-3.0, 12.099999999999788), (0, 0),0
(-2.0, 12.099999999999788), (0, 0),0
(-1.0, 12.099999999999788), (0, 0),0
(0.0, 12.099999999999788), (0, 0),0
(1.0, 12.099999999999788), (0, 0),0
(2.0, 12.099999999999788), (0, 0),0
(3.0, 12.099999999999788), (0, 0),0
(-3.0, 13.100000000000144), (0, 0),0
(-2.0, 13.100000000000144), (0, 0),0
(-1.0, 13.100000000000144), (0, 0),0
(0.0, 13.100000000000144), (0, 0),0
(1.0, 13.100000000000144), (0, 0),0
(2.0, 13.100000000000144), (0, 0),0
(3.0, 13.100000000000144), (0, 0),0
