(-3.0, 9.949999999999836), (0, 0),0
(-2.0, 9.949999999999836), (0, 0),0
(-1.0, 9.949999999999836), (0, 0),0
(0.0, 9.949999999999836), (0, 0),0
(1.0, 9.949999999999836), (0, 0),0
(2.0, 9.949999999999836), (0, 0),0
(3.0, 9.949999999999836), (0, 0),0
(-3.0, 10.949999999999836), (0, 0),0
(-2.0, 10.949999999999836), (0, 0),0
(-1.0, 10.949999999999836), (0, 0),0
(0.0, 10.949999999999836), (0, 0),0
(1.0, 10.949999999999836), (0, 0),0
(2.0, 10.949999999999836), (0, 0),0
(3.0, 10.949999999999836), (0, 0),0
(-3.0, 11.949999999999836), (0, 0),0
(-2.0, 11.949999999999836), (0, 0),0
(-1.0, 11.949999999999836), (0, 0),0
(0.0, 11.949999999999836), (0, 0),0
(1.0, 11.949999999999836), (0, 0),0
(2.0, 11.949999999999836), (0, 0),0
(3.0, 11.949999999999836), (0, 0),0
(-3.0, 12.949999999999836), (0, 0),0
(-2.0, 12.949999999999836), (0, 0),0
(-1.0, 12.949999999999836), (0, 0),0
(0.0, 12.949999999999836), (0, 0),0
(1.0, 12.949999999999836), (0, 0),0
(2.0, 12.949999999999836), (0, 0),0
(3.0, 12.949999999999836), (0, 0),0
(-3.0, 13.949999999999836), (0, 0),0
(-2.0, 13.949999999999836), (0, 0),0
(-1.0, 13.949999999999836), (0, 0),0
(0.0, 13.949999999999836), (0, 0),0
(1.0, 13.949999999999836), (0, 0),0
(2.0, 13.949999999999836), (0, 0),0
(3.0, 13.949999999999836), (0, 0),0
(-3.0, 14.949999999999836), (0, 0),0
(-2.0, 14.949999999999836), (0, 0),0
(-1.0, 14.949999999999836), (0, 0),0
(0.0, 14.949999999999836), (0, 0),0
(1.0, 14.949999999999836), (0, 0),0
(2.0, 14.949999999999836), (0, 0),0
(3.0, 14.949999999999836), (0, 0),0
(-3.0, 15.950000000000191), (0, 0),0
(-2.0, 15.950000000000191), (0, 0),0
(-1.0, 15.950000000000191), (0, 0),0
(0.0, 15.950000000000191), (0, 0),0
(1.0, 15.950000000000191), (0, 0),0
(2.0, 15.950000000000191), (0, 0),0
(3.0, 15.950000000000191), (0, 0),0
(-3.0, 16.95000000000021), (0, 0),0
(-2.0, 16.95000000000021), (0, 0),0
(-1.0, 16.95000000000021), (0, 0),0
(0.0, 16.95000000000021), (0, 0),0
(1.0, 16.95000000000021), (0, 0),0
(2.0, 16.95000000000021), (0, 0),0
(3.0, 16.95000000000021), (0, 0),0
(-3.0, 17.95000000000021), (0, 0),0
(-2.0, 17.95000000000021), (0, 0),0
(-1.0, 17.95000000000021), (0, 0),0
(0.0, 17.95000000000021), (0, 0),0
(1.0, 17.95000000000021), (0, 0),0
(2.0, 17.95000000000021), (0, 0),0
(3.0, 17.95000000000021), (0, 0),0
