(-3.0, 9.58999999999978), (0, 0),0
(-2.0, 9.58999999999978), (0, 0),0
(-1.0, 9.58999999999978), (0, 0),0
(0.0, 9.58999999999978), (0, 0),0
(1.0, 9.58999999999978), (0, 0),0
(2.0, 9.58999999999978), (0, 0),0
(3.0, 9.58999999999978), (0, 0),0
(-3.0, 10.58999999999978), (0, 0),0
(-2.0, 10.58999999999978), (0, 0),0
(-1.0, 10.58999999999978), (0, 0),0
(0.0, 10.58999999999978), (0, 0),0
(1.0, 10.58999999999978), (0, 0),0
(2.0, 10.58999999999978), (0, 0),0
(3.0, 10.58999999999978), (0, 0),0
(-3.0, 11.58999999999978), (0, 0),0
(-2.0, 11.58999999999978), (0, 0),0
(-1.0, 11.58999999999978), (0, 0),0
(0.0, 11.58999999999978), (0, 0),0
(1.0, 11.58999999999978), (0, 0),0
(2.0, 11.58999999999978), (0, 0),0
(3.0, 11.58999999999978), (0, 0),0
(-3.0, 12.58999999999978), (0, 0),0
(-2.0, 12.58999999999978), (0, 0),0
(-1.0, 12.58999999999978), (0, 0),0
(0.0, 12.58999999999978), (0, 0),0
(1.0, 12.58999999999978), (0, 0),0
(2.0, 12.58999999999978), (0, 0),0
(3.0, 12.58999999999978), (0, 0),0
(-3.0, 13.58999999999978), (0, 0),0
(-2.0, 13.58999999999978), (0, 0),0
(-1.0, 13.58999999999978), (0, 0),0
(0.0, 13.58999999999978), (0, 0),0
(1.0, 13.58999999999978), (0, 0),0
(2.0, 13.58999999999978), (0, 0),0
(3.0, 13.58999999999978), (0, 0),0
(-3.0, 14.58999999999978), (0, 0),0
(-2.0, 14.58999999999978), (0, 0),0
(-1.0, 14.58999999999978), (0, 0),0
(0.0, 14.58999999999978), (0, 0),0
(1.0, 14.58999999999978), (0, 0),0
(2.0, 14.58999999999978), (0, 0),0
(3.0, 14.58999999999978), (0, 0),0
(-3.0, 15.590000000000135), (0, 0),0
(-2.0, 15.590000000000135), (0, 0),0
(-1.0, 15.590000000000135), (0, 0),0
(0.0, 15.590000000000135), (0, 0),0
(1.0, 15.590000000000135), (0, 0),0
(2.0, 15.590000000000135), (0, 0),0
(3.0, 15.590000000000135), (0, 0),0
(-3.0, 16.59000000000028), (0, 0),0
(-2.0, 16.59000000000028), (0, 0),0
(-1.0, 16.59000000000028), (0, 0),0
(0.0, 16.59000000000028), (0, 0),0
(1.0, 16.59000000000028), (0, 0),0
(2.0, 16.59000000000028), (0, 0),0
(3.0, 16.59000000000028), (0, 0),0
(-3.0, 17.59000000000028), (0, 0),0
(-2.0, 17.59000000000028), (0, 0),0
(-1.0, 17.59000000000028), (0, 0),0
(0.0, 17.59000000000028), (0, 0),0
(1.0, 17.59000000000028), (0, 0),0
(2.0, 17.59000000000028), (0, 0),0
(3.0, 17.59000000000028), (0, 0),0
