(-3.0, 9.919999999999831), (0, 0),0
(-2.0, 9.919999999999831), (0, 0),0
(-1.0, 9.919999999999831), (0, 0),0
(0.0, 9.919999999999831), (0, 0),0
(1.0, 9.919999999999831), (0, 0),0
(2.0, 9.919999999999831), (0, 0),0
(3.0, 9.919999999999831), (0, 0),0
(-3.0, 10.919999999999831), (0, 0),0
(-2.0, 10.919999999999831), (0, 0),0
(-1.0, 10.919999999999831), (0, 0),0
(0.0, 10.919999999999831), (0, 0),0
(1.0, 10.919999999999831), (0, 0),0
(2.0, 10.919999999999831), (0, 0),0
(3.0, 10.919999999999831), (0, 0),0
(-3.0, 11.919999999999831), (0, 0),0
(-2.0, 11.919999999999831), (0, 0),0
(-1.0, 11.919999999999831), (0, 0),0
(0.0, 11.919999999999831), (0, 0),0
(1.0, 11.919999999999831), (0, 0),0
(2.0, 11.919999999999831), (0, 0),0
(3.0, 11.919999999999831), (0, 0),0
(-3.0, 12.919999999999831), (0, 0),0
(-2.0, 12.919999999999831), (0, 0),0
(-1.0, 12.919999999999831), (0, 0),0
(0.0, 12.919999999999831), (0, 0),0
(1.0, 12.919999999999831), (0, 0),0
(2.0, 12.919999999999831), (0, 0),0
(3.0, 12.919999999999831), (0, 0),0
(-3.0, 13.919999999999831), (0, 0),0
(-2.0, 13.919999999999831), (0, 0),0
(-1.0, 13.919999999999831), (0, 0),0
(0.0, 13.919999999999831), (0, 0),0
(1.0, 13.919999999999831), (0, 0),0
(2.0, 13.919999999999831), (0, 0),0
(3.0, 13.919999999999831), (0, 0),0
(-3.0, 14.919999999999831), (0, 0),0
(-2.0, 14.919999999999831), (0, 0),0
(-1.0, 14.919999999999831), (0, 0),0
(0.0, 14.919999999999831), (0, 0),0
(1.0, 14.919999999999831), (0, 0),0
(2.0, 14.919999999999831), (0, 0),0
(3.0, 14.919999999999831), (0, 0),0
(-3.0, 15.920000000000186), (0, 0),0
(-2.0, 15.920000000000186), (0, 0),0
(-1.0, 15.920000000000186), (0, 0),0
(0.0, 15.920000000000186), (0, 0),0
(1.0, 15.920000000000186), (0, 0),0
(2.0, 15.920000000000186), (0, 0),0
(3.0, 15.920000000000186), (0, 0),0
(-3.0, 16.920000000000215), (0, 0),0
(-2.0, 16.920000000000215), (0, 0),0
(-1.0, 16.920000000000215), (0, 0),0
(0.0, 16.920000000000215), (0, 0),0
(1.0, 16.920000000000215), (0, 0),0
(2.0, 16.920000000000215), (0, 0),0
(3.0, 16.920000000000215), (0, 0),0
(-3.0, 17.920000000000215), (0, 0),0
(-2.0, 17.920000000000215), (0, 0),0
(-1.0, 17.920000000000215), (0, 0),0
(0.0, 17.920000000000215), (0, 0),0
(1.0, 17.920000000000215), (0, 0),0
(2.0, 17.920000000000215), (0, 0),0
(3.0, 17.920000000000215), (0, 0),0
