(-3.0, 10.304999999999891), (0, 0),0
(-2.0, 10.304999999999891), (0, 0),0
(-1.0, 10.304999999999891), (0, 0),0
(0.0, 10.304999999999891), (0, 0),0
(1.0, 10.304999999999891), (0, 0),0
(2.0, 10.304999999999891), (0, 0),0
(3.0, 10.304999999999891), (0, 0),0
(-3.0, 11.304999999999891), (0, 0),0
(-2.0, 11.304999999999891), (0, 0),0
(-1.0, 11.304999999999891), (0, 0),0
(0.0, 11.304999999999891), (0, 0),0
(1.0, 11.304999999999891), (0, 0),0
(2.0, 11.304999999999891), (0, 0),0
(3.0, 11.304999999999891), (0, 0),0
(-3.0, 12.304999999999891), (0, 0),0
(-2.0, 12.304999999999891), (0, 0),0
(-1.0, 12.304999999999891), (0, 0),0
(0.0, 12.304999999999891), (0, 0),0
(1.0, 12.304999999999891), (0, 0),0
(2.0, 12.304999999999891), (0, 0),0
(3.0, 12.304999999999891), (0, 0),0
(-3.0, 13.304999999999891), (0, 0),0
(-2.0, 13.304999999999891), (0, 0),0
(-1.0, 13.304999999999891), (0, 0),0
(0.0, 13.304999999999891), (0, 0),0
(1.0, 13.304999999999891), (0, 0),0
(2.0, 13.304999999999891), (0, 0),0
(3.0, 13.304999999999891), (0, 0),0
(-3.0, 14.304999999999891), (0, 0),0
(-2.0, 14.304999999999891), (0, 0),0
(-1.0, 14.304999999999891), (0, 0),0
(0.0, 14.304999999999891), (0, 0),0
(1.0, 14.304999999999891), (0, 0),0
(2.0, 14.304999999999891), (0, 0),0
(3.0, 14.304999999999891), (0, 0),0
(-3.0, 15.304999999999891), (0, 0),0
(-2.0, 15.304999999999891), (0, 0),0
(-1.0, 15.304999999999891), (0, 0),0
(0.0, 15.304999999999891), (0, 0),0
(1.0, 15.304999999999891), (0, 0),0
(2.0, 15.304999999999891), (0, 0),0
(3.0, 15.304999999999891), (0, 0),0
(-3.0, 16.30500000000014), (0, 0),0
(-2.0, 16.30500000000014), (0, 0),0
(-1.0, 16.30500000000014), (0, 0),0
(0.0, 16.30500000000014), (0, 0),0
(1.0, 16.30500000000014), (0, 0),0
(2.0, 16.30500000000014), (0, 0),0
(3.0, 16.30500000000014), (0, 0),0
(-3.0, 17.30500000000014), (0, 0),0
(-2.0, 17.30500000000014), (0, 0),0
(-1.0, 17.30500000000014), (0, 0),0
(0.0, 17.30500000000014), (0, 0),0
(1.0, 17.30500000000014), (0, 0),0
(2.0, 17.30500000000014), (0, 0),0
(3.0, 17.30500000000014), (0, 0),0
(-3.0, 18.30500000000014), (0, 0),0
(-2.0, 18.30500000000014), (0, 0),0
(-1.0, 18.30500000000014), (0, 0),0
(0.0, 18.30500000000014), (0, 0),0
(1.0, 18.30500000000014), (0, 0),0
(2.0, 18.30500000000014), (0, 0),0
(3.0, 18.30500000000014), (0, 0),0
