(-3.0, 10.729999999999958), (0, 0),0
(-2.0, 10.729999999999958), (0, 0),0
(-1.0, 10.729999999999958), (0, 0),0
(0.0, 10.729999999999958), (0, 0),0
(1.0, 10.729999999999958), (0, 0),0
(2.0, 10.729999999999958), (0, 0),0
(3.0, 10.729999999999958), (0, 0),0
(-3.0, 11.729999999999958), (0, 0),0
(-2.0, 11.729999999999958), (0, 0),0
(-1.0, 11.729999999999958), (0, 0),0
(0.0, 11.729999999999958), (0, 0),0
(1.0, 11.729999999999958), (0, 0),0
(2.0, 11.729999999999958), (0, 0),0
(3.0, 11.729999999999958), (0, 0),0
(-3.0, 12.729999999999958), (0, 0),0
(-2.0, 12.729999999999958), (0, 0),0
(-1.0, 12.729999999999958), (0, 0),0
(0.0, 12.729999999999958), (0, 0),0
(1.0, 12.729999999999958), (0, 0),0
(2.0, 12.729999999999958), (0, 0),0
(3.0, 12.729999999999958), (0, 0),0
(-3.0, 13.729999999999958), (0, 0),0
(-2.0, 13.729999999999958), (0, 0),0
(-1.0, 13.729999999999958), (0, 0),0
(0.0, 13.729999999999958), (0, 0),0
(1.0, 13.729999999999958), (0, 0),0
(2.0, 13.729999999999958), (0, 0),0
(3.0, 13.729999999999958), (0, 0),0
(-3.0, 14.729999999999958), (0, 0),0
(-2.0, 14.729999999999958), (0, 0),0
(-1.0, 14.729999999999958), (0, 0),0
(0.0, 14.729999999999958), (0, 0),0
(1.0, 14.729999999999958), (0, 0),0
(2.0, 14.729999999999958), (0, 0),0
(3.0, 14.729999999999958), (0, 0),0
(-3.0, 15.729999999999958), (0, 0),0
(-2.0, 15.729999999999958), (0, 0),0
(-1.0, 15.729999999999958), (0, 0),0
(0.0, 15.729999999999958), (0, 0),0
(1.0, 15.729999999999958), (0, 0),0
(2.0, 15.729999999999958), (0, 0),0
(3.0, 15.729999999999958), (0, 0),0
(-3.0, 16.730000000000054), (0, 0),0
(-2.0, 16.730000000000054), (0, 0),0
(-1.0, 16.730000000000054), (0, 0),0
(0.0, 16.730000000000054), (0, 0),0
(1.0, 16.730000000000054), (0, 0),0
(2.0, 16.730000000000054), (0, 0),0
(3.0, 16.730000000000054), (0, 0),0
(-3.0, 17.730000000000054), (0, 0),0
(-2.0, 17.730000000000054), (0, 0),0
(-1.0, 17.730000000000054), (0, 0),0
(0.0, 17.730000000000054), (0, 0),0
(1.0, 17.730000000000054), (0, 0),0
(2.0, 17.730000000000054), (0, 0),0
(3.0, 17.730000000000054), (0, 0),0
(-3.0, 18.730000000000054), (0, 0),0
(-2.0, 18.730000000000054), (0, 0),0
(-1.0, 18.730000000000054), (0, 0),0
(0.0, 18.730000000000054), (0, 0),0
(1.0, 18.730000000000054), (0, 0),0
(2.0, 18.730000000000054), (0, 0),0
(3.0, 18.730000000000054), (0, 0),0
