(-3.0, 7.994999999999532), (0.0, -7.105427357600989e-15),1.7763568394002505e-15
(-2.0, 7.994999999999532), (0.0, -7.105427357600989e-15),1.7763568394002505e-15
(-1.0, 7.994999999999532), (0.0, -7.105427357600989e-15),1.7763568394002505e-15
(-4.4408920985006264e-17, 7.994999999999532), (0.0, -7.105427357600989e-15),1.7763568394002505e-15
(1.0, 7.994999999999532), (0.0, -7.105427357600989e-15),1.7763568394002505e-15
(2.0, 7.994999999999532), (0.0, -7.105427357600989e-15),1.7763568394002505e-15
(3.0, 7.994999999999532), (0.0, -7.105427357600989e-15),1.7763568394002505e-15
(-3.0, 8.99499999999953), (0.0, 7.105427357600989e-15),1.7763568394002505e-15
(-2.0, 8.99499999999953), (0.0, 7.105427357600989e-15),1.7763568394002505e-15
(-1.0, 8.99499999999953), (0.0, 7.105427357600989e-15),1.7763568394002505e-15
(-4.4408920985006264e-17, 8.99499999999953), (0.0, 7.105427357600989e-15),1.7763568394002505e-15
(1.0, 8.99499999999953), (0.0, 7.105427357600989e-15),1.7763568394002505e-15
(2.0, 8.99499999999953), (0.0, 7.105427357600989e-15),1.7763568394002505e-15
(3.0, 8.99499999999953), (0.0, 7.105427357600989e-15),1.7763568394002505e-15
(-3.0, 9.99499999999953), (0, 0),0
(-2.0, 9.99499999999953), (0, 0),0
(-1.0, 9.99499999999953), (0, 0),0
(0.0, 9.99499999999953), (0, 0),0
(1.0, 9.99499999999953), (0, 0),0
(2.0, 9.99499999999953), (0, 0),0
(3.0, 9.99499999999953), (0, 0),0
(-3.0, 10.99499999999953), (0, 0),0
(-2.0, 10.99499999999953), (0, 0),0
(-1.0, 10.99499999999953), (0, 0),0
(0.0, 10.99499999999953), (0, 0),0
(1.0, 10.99499999999953), (0, 0),0
(2.0, 10.99499999999953), (0, 0),0
(3.0, 10.99499999999953), (0, 0),0
(-3.0, 11.99499999999953), (0, 0),0
(-2.0, 11.99499999999953), (0, 0),0
(-1.0, 11.99499999999953), (0, 0),0
(0.0, 11.99499999999953), (0, 0),0
(1.0, 11.99499999999953), (0, 0),0
(2.0, 11.99499999999953), (0, 0),0
(3.0, 11.99499999999953), (0, 0),0
(-3.0, 12.99499999999953), (0, 0),0
(-2.0, 12.99499999999953), (0, 0),0
(-1.0, 12.99499999999953), (0, 0),0
(0.0, 12.99499999999953), (0, 0),0
(1.0, 12.99499999999953), (0, 0),0
(2.0, 12.99499999999953), (0, 0),0
(3.0, 12.99499999999953), (0, 0),0
(-3.0, 13.994999999999886), (0, 0),0
(-2.0, 13.994999999999886), (0, 0),0
(-1.0, 13.994999999999886), (0, 0),0
(0.0, 13.994999999999886), (0, 0),0
(1.0, 13.994999999999886), (0, 0),0
(2.0, 13.994999999999886), (0, 0),0
(3.0, 13.994999999999886), (0, 0),0
(-3.0, 14.99500000000024), (0, 0),0
(-2.0, 14.99500000000024), (0, 0),0
(-1.0, 14.99500000000024), (0, 0),0
(0.0, 14.99500000000024), (0, 0),0
(1.0, 14.99500000000024), (0, 0),0
(2.0, 14.99500000000024), (0, 0),0
(3.0, 14.99500000000024), (0, 0),0
(-3.0, 15.995000000000596), (0, 0),0
(-2.0, 15.995000000000596), (0, 0),0
(-1.0, 15.995000000000596), (0, 0),0
(0.0, 15.995000000000596), (0, 0),0
(1.0, 15.995000000000596), (0, 0),0
(2.0, 15.995000000000596), (0, 0),0
(3.0, 15.995000000000596), (0, 0),0
