(-0.987369034062555, 3.52615590296911), (0, 0),0
(-1.9985859846954968, 5.486330462904433), (-0.0008357315362595039, -0.00017045522317045246),0.0008375187038583976
(-1.0007198685009095, 5.537211482750669), (-0.00010103220020529584, 7.637596769143803e-05),0.0017754573848686173
(-0.0019725565168835528, 5.562287550457378), (9.571204790576949e-05, 0.00016543337137016947),0.0017798884033526363
(0.9969608313570527, 5.541100383932565), (0.00011556564536033308, 7.169606533006635e-05),0.0015688450577552304
(1.995022048501449, 5.491901354081871), (0.0007254860431986971, -0.0001430501812212214),0.0007268953354128138
(0.9849833891418126, 3.528199635006844), (0, 0),0
(-2.7894594888398374, 6.69092802122359), (-0.13785393176323038, -0.14811777033329893),0.17249522955161523
(-1.9902841602144115, 6.905597393122044), (0.1282766930320087, 0.14775403226951325),0.182166432137699
(-1.0000000000001794, 6.914999999999214), (0.009577238731221687, 0.00036373806375015203),0.009671202586092664
(-1.7880730229791199e-13, 6.914999999999214), (-2.344351629277776e-27, -3.5527136788004694e-14),8.881784197001252e-15
(0.9999999999998215, 6.914999999999214), (-0.009577238731221035, 0.000363738063750127),0.009671202586091998
(1.9902841602140542, 6.905597393122044), (-0.1282766930320088, 0.14775403226951192),0.18216643213769745
(2.7894594888394812, 6.690928021223591), (0.13785393176322985, -0.14811777033329757),0.17249522955161434
(-2.9999999999999165, 7.914999999999206), (7.415292509077511e-29, -3.5527136788004978e-15),8.881784197001252e-16
(-1.9999999999999154, 7.914999999999205), (0, 0),0
(-0.9999999999999151, 7.914999999999205), (2.3478472691640364e-27, 3.5527136788004694e-14),8.881784197001252e-15
(8.514322580310822e-14, 7.914999999999205), (2.344351629277776e-27, 3.5527136788004694e-14),8.881784197001252e-15
(1.0000000000000855, 7.914999999999205), (2.3448890407694576e-27, 3.5527136788004694e-14),8.881784197001252e-15
(2.0000000000000866, 7.914999999999205), (-4.440892098500624e-16, -1.5777218104420236e-30),4.440892098500626e-16
(3.000000000000086, 7.914999999999206), (4.440892098501389e-16, -3.552713678800496e-15),1.3322676295501878e-15
(-3.0, 8.914999999999205), (-7.415292509077511e-29, 3.5527136788004978e-15),8.881784197001252e-16
(-2.0, 8.914999999999205), (0, 0),0
(-1.0, 8.914999999999205), (0, 0),0
(0.0, 8.914999999999205), (0, 0),0
(1.0, 8.914999999999205), (0, 0),0
(2.0, 8.914999999999205), (0, 0),0
(3.0, 8.914999999999205), (-7.651950780643815e-29, 3.5527136788004978e-15),8.881784197001252e-16
(-3.0, 9.914999999999205), (0, 0),0
(-2.0, 9.914999999999205), (0, 0),0
(-1.0, 9.914999999999205), (0, 0),0
(0.0, 9.914999999999205), (0, 0),0
(1.0, 9.914999999999205), (0, 0),0
(2.0, 9.914999999999205), (0, 0),0
(3.0, 9.914999999999205), (0, 0),0
(-3.0, 10.914999999999205), (0, 0),0
(-2.0, 10.914999999999205), (0, 0),0
(-1.0, 10.914999999999205), (0, 0),0
(0.0, 10.914999999999205), (0, 0),0
(1.0, 10.914999999999205), (0, 0),0
(2.0, 10.914999999999205), (0, 0),0
(3.0, 10.914999999999205), (0, 0),0
(-3.0, 11.91499999999956), (0, 0),0
(-2.0, 11.91499999999956), (0, 0),0
(-1.0, 11.91499999999956), (0, 0),0
(0.0, 11.91499999999956), (0, 0),0
(1.0, 11.91499999999956), (0, 0),0
(2.0, 11.91499999999956), (0, 0),0
(3.0, 11.91499999999956), (0, 0),0
(-3.0, 12.914999999999916), (0, 0),0
(-2.0, 12.914999999999916), (0, 0),0
(-1.0, 12.914999999999916), (0, 0),0
(0.0, 12.914999999999916), (0, 0),0
(1.0, 12.914999999999916), (0, 0),0
(2.0, 12.914999999999916), (0, 0),0
(3.0, 12.914999999999916), (0, 0),0
(-3.0, 13.915000000000271), (0, 0),0
(-2.0, 13.915000000000271), (0, 0),0
(-1.0, 13.915000000000271), (0, 0),0
(0.0, 13.915000000000271), (0, 0),0
(1.0, 13.915000000000271), (0, 0),0
(2.0, 13.915000000000271), (0, 0),0
(3.0, 13.915000000000271), (0, 0),0
