(-3.0, 8.56999999999962), (0, 0),0
(-2.0, 8.56999999999962), (0, 0),0
(-1.0, 8.56999999999962), (0, 0),0
(0.0, 8.56999999999962), (0, 0),0
(1.0, 8.56999999999962), (0, 0),0
(2.0, 8.56999999999962), (0, 0),0
(3.0, 8.56999999999962), (0, 0),0
(-3.0, 9.56999999999962), (0, 0),0
(-2.0, 9.56999999999962), (0, 0),0
(-1.0, 9.56999999999962), (0, 0),0
(0.0, 9.56999999999962), (0, 0),0
(1.0, 9.56999999999962), (0, 0),0
(2.0, 9.56999999999962), (0, 0),0
(3.0, 9.56999999999962), (0, 0),0
(-3.0, 10.56999999999962), (0, 0),0
(-2.0, 10.56999999999962), (0, 0),0
(-1.0, 10.56999999999962), (0, 0),0
(0.0, 10.56999999999962), (0, 0),0
(1.0, 10.56999999999962), (0, 0),0
(2.0, 10.56999999999962), (0, 0),0
(3.0, 10.56999999999962), (0, 0),0
(-3.0, 11.56999999999962), (0, 0),0
(-2.0, 11.56999999999962), (0, 0),0
(-1.0, 11.56999999999962), (0, 0),0
(0.0, 11.56999999999962), (0, 0),0
(1.0, 11.56999999999962), (0, 0),0
(2.0, 11.56999999999962), (0, 0),0
(3.0, 11.56999999999962), (0, 0),0
(-3.0, 12.56999999999962), (0, 0),0
(-2.0, 12.56999999999962), (0, 0),0
(-1.0, 12.56999999999962), (0, 0),0
(0.0, 12.56999999999962), (0, 0),0
(1.0, 12.56999999999962), (0, 0),0
(2.0, 12.56999999999962), (0, 0),0
(3.0, 12.56999999999962), (0, 0),0
(-3.0, 13.56999999999962), (0, 0),0
(-2.0, 13.56999999999962), (0, 0),0
(-1.0, 13.56999999999962), (0, 0),0
(0.0, 13.56999999999962), (0, 0),0
(1.0, 13.56999999999962), (0, 0),0
(2.0, 13.56999999999962), (0, 0),0
(3.0, 13.56999999999962), (0, 0),0
(-3.0, 14.569999999999975), (0, 0),0
(-2.0, 14.569999999999975), (0, 0),0
(-1.0, 14.569999999999975), (0, 0),0
(0.0, 14.569999999999975), (0, 0),0
(1.0, 14.569999999999975), (0, 0),0
(2.0, 14.569999999999975), (0, 0),0
(3.0, 14.569999999999975), (0, 0),0
(-3.0, 15.57000000000033), (0, 0),0
(-2.0, 15.57000000000033), (0, 0),0
(-1.0, 15.57000000000033), (0, 0),0
(0.0, 15.57000000000033), (0, 0),0
(1.0, 15.57000000000033), (0, 0),0
(2.0, 15.57000000000033), (0, 0),0
(3.0, 15.57000000000033), (0, 0),0
(-3.0, 16.570000000000483), (0, 0),0
(-2.0, 16.570000000000483), (0, 0),0
(-1.0, 16.570000000000483), (0, 0),0
(0.0, 16.570000000000483), (0, 0),0
(1.0, 16.570000000000483), (0, 0),0
(2.0, 16.570000000000483), (0, 0),0
(3.0, 16.570000000000483), (0, 0),0
