(-1.2076253850086647, 3.9404971904057544), (0, 0),0
(-1.9956576960125938, 5.689213536993648), (-0.001978322980521283, -0.00042788311270128916),0.0019851537372572725
(-0.9990986167875395, 5.7430989243909565), (-0.0006370108925644897, 0.00016571067823683444),0.004608189086632741
(-0.002034710001658756, 5.768086429279794), (0.0006928310860437837, 0.00042838782298355166),0.004549699199418389
(0.9958055655602466, 5.746518657024739), (-0.00018892001459582019, 0.00027423469145458526),0.004045445167811801
(1.992332570933873, 5.694548914291038), (0.002111422801637809, -0.0004404500799736822),0.002118781317768881
(1.2052397400879222, 3.9425409224434884), (0, 0),0
(-3.000000000000163, 7.114999999999245), (-2.0352611354702105e-27, -3.5527136788004694e-14),8.881784197001252e-15
(-2.0000000000001625, 7.114999999999245), (-2.037233287733263e-27, -3.5527136788004694e-14),8.881784197001252e-15
(-1.0000000000001616, 7.114999999999245), (-2.0323029070756317e-27, -3.5527136788004694e-14),8.881784197001252e-15
(-1.6104373390390948e-13, 7.114999999999245), (-2.0288072671893713e-27, -3.5527136788004694e-14),8.881784197001252e-15
(0.9999999999998392, 7.114999999999245), (-2.029344678681053e-27, -3.5527136788004694e-14),8.881784197001252e-15
(1.99999999999984, 7.114999999999245), (-2.033288983207158e-27, -3.5527136788004694e-14),8.881784197001252e-15
(2.9999999999998406, 7.114999999999245), (-2.0273725264180003e-27, -3.5527136788004694e-14),8.881784197001252e-15
(-2.999999999999934, 8.114999999999236), (2.0352611354702105e-27, 3.5527136788004694e-14),8.881784197001252e-15
(-1.9999999999999332, 8.114999999999236), (2.037233287733263e-27, 3.5527136788004694e-14),8.881784197001252e-15
(-0.9999999999999328, 8.114999999999236), (2.0323029070756317e-27, 3.5527136788004694e-14),8.881784197001252e-15
(6.737965740910572e-14, 8.114999999999236), (2.0288072671893713e-27, 3.5527136788004694e-14),8.881784197001252e-15
(1.0000000000000677, 8.114999999999236), (2.029344678681053e-27, 3.5527136788004694e-14),8.881784197001252e-15
(2.000000000000069, 8.114999999999236), (2.033288983207158e-27, 3.5527136788004694e-14),8.881784197001252e-15
(3.000000000000069, 8.114999999999236), (2.0273725264180003e-27, 3.5527136788004694e-14),8.881784197001252e-15
(-3.0, 9.114999999999236), (0, 0),0
(-2.0, 9.114999999999236), (0, 0),0
(-1.0, 9.114999999999236), (0, 0),0
(0.0, 9.114999999999236), (0, 0),0
(1.0, 9.114999999999236), (0, 0),0
(2.0, 9.114999999999236), (0, 0),0
(3.0, 9.114999999999236), (0, 0),0
(-3.0, 10.114999999999236), (0, 0),0
(-2.0, 10.114999999999236), (0, 0),0
(-1.0, 10.114999999999236), (0, 0),0
(0.0, 10.114999999999236), (0, 0),0
(1.0, 10.114999999999236), (0, 0),0
(2.0, 10.114999999999236), (0, 0),0
(3.0, 10.114999999999236), (0, 0),0
(-3.0, 11.114999999999236), (0, 0),0
(-2.0, 11.114999999999236), (0, 0),0
(-1.0, 11.114999999999236), (0, 0),0
(0.0, 11.114999999999236), (0, 0),0
(1.0, 11.114999999999236), (0, 0),0
(2.0, 11.114999999999236), (0, 0),0
(3.0, 11.114999999999236), (0, 0),0
(-3.0, 12.114999999999592), (0, 0),0
(-2.0, 12.114999999999592), (0, 0),0
(-1.0, 12.114999999999592), (0, 0),0
(0.0, 12.114999999999592), (0, 0),0
(1.0, 12.114999999999592), (0, 0),0
(2.0, 12.114999999999592), (0, 0),0
(3.0, 12.114999999999592), (0, 0),0
(-3.0, 13.114999999999947), (0, 0),0
(-2.0, 13.114999999999947), (0, 0),0
(-1.0, 13.114999999999947), (0, 0),0
(0.0, 13.114999999999947), (0, 0),0
(1.0, 13.114999999999947), (0, 0),0
(2.0, 13.114999999999947), (0, 0),0
(3.0, 13.114999999999947), (0, 0),0
(-3.0, 14.115000000000302), (0, 0),0
(-2.0, 14.115000000000302), (0, 0),0
(-1.0, 14.115000000000302), (0, 0),0
(0.0, 14.115000000000302), (0, 0),0
(1.0, 14.115000000000302), (0, 0),0
(2.0, 14.115000000000302), (0, 0),0
(3.0, 14.115000000000302), (0, 0),0
