(-3.0, 10.154999999999868), (0, 0),0
(-2.0, 10.154999999999868), (0, 0),0
(-1.0, 10.154999999999868), (0, 0),0
(0.0, 10.154999999999868), (0, 0),0
(1.0, 10.154999999999868), (0, 0),0
(2.0, 10.154999999999868), (0, 0),0
(3.0, 10.154999999999868), (0, 0),0
(-3.0, 11.154999999999868), (0, 0),0
(-2.0, 11.154999999999868), (0, 0),0
(-1.0, 11.154999999999868), (0, 0),0
(0.0, 11.154999999999868), (0, 0),0
(1.0, 11.154999999999868), (0, 0),0
(2.0, 11.154999999999868), (0, 0),0
(3.0, 11.154999999999868), (0, 0),0
(-3.0, 12.154999999999868), (0, 0),0
(-2.0, 12.154999999999868), (0, 0),0
(-1.0, 12.154999999999868), (0, 0),0
(0.0, 12.154999999999868), (0, 0),0
(1.0, 12.154999999999868), (0, 0),0
(2.0, 12.154999999999868), (0, 0),0
(3.0, 12.154999999999868), (0, 0),0
(-3.0, 13.154999999999868), (0, 0),0
(-2.0, 13.154999999999868), (0, 0),0
(-1.0, 13.154999999999868), (0, 0),0
(0.0, 13.154999999999868), (0, 0),0
(1.0, 13.154999999999868), (0, 0),0
(2.0, 13.154999999999868), (0, 0),0
(3.0, 13.154999999999868), (0, 0),0
(-3.0, 14.154999999999868), (0, 0),0
(-2.0, 14.154999999999868), (0, 0),0
(-1.0, 14.154999999999868), (0, 0),0
(0.0, 14.154999999999868), (0, 0),0
(1.0, 14.154999999999868), (0, 0),0
(2.0, 14.154999999999868), (0, 0),0
(3.0, 14.154999999999868), (0, 0),0
(-3.0, 15.154999999999868), (0, 0),0
(-2.0, 15.154999999999868), (0, 0),0
(-1.0, 15.154999999999868), (0, 0),0
(0.0, 15.154999999999868), (0, 0),0
(1.0, 15.154999999999868), (0, 0),0
(2.0, 15.154999999999868), (0, 0),0
(3.0, 15.154999999999868), (0, 0),0
(-3.0, 16.155000000000168), (0, 0),0
(-2.0, 16.155000000000168), (0, 0),0
(-1.0, 16.155000000000168), (0, 0),0
(0.0, 16.155000000000168), (0, 0),0
(1.0, 16.155000000000168), (0, 0),0
(2.0, 16.155000000000168), (0, 0),0
(3.0, 16.155000000000168), (0, 0),0
(-3.0, 17.155000000000168), (0, 0),0
(-2.0, 17.155000000000168), (0, 0),0
(-1.0, 17.155000000000168), (0, 0),0
(0.0, 17.155000000000168), (0, 0),0
(1.0, 17.155000000000168), (0, 0),0
(2.0, 17.155000000000168), (0, 0),0
(3.0, 17.155000000000168), (0, 0),0
(-3.0, 18.155000000000168), (0, 0),0
(-2.0, 18.155000000000168), (0, 0),0
(-1.0, 18.155000000000168), (0, 0),0
(0.0, 18.155000000000168), (0, 0),0
(1.0, 18.155000000000168), (0, 0),0
(2.0, 18.155000000000168), (0, 0),0
(3.0, 18.155000000000168), (0, 0),0
