(-1.2354895213634456, -3.1931554574285728), (-2.648837421844495e-05, -0.0014012041960396403),0.0004522226281180597
(0.5700639431580675, -2.4623947439599814), (-1.4242252085393037e-05, 1.5170764213551943e-05),0.0002689148667297525
(-0.48277509289281956, 2.621915345514805), (-0.14131659427382082, 0.0883168285072832),0.22471499287695218
(-0.018196615172381553, 3.432930139859355), (0.030358330569016607, 0.21198618880395645),0.06534596849595098
(0.21345972523305345, 2.1508341261912345), (0.1109582637048042, -0.30030301731123965),0.1593690243810012
(-1.6648326368843427, -2.290318848294793), (-0.00011820291657108695, 0.00099424368556406),0.0002753110794094793
(-0.41761588990326143, -2.6180650896059063), (1.861043118923781e-05, 0.0003274730071923401),0.0003045651216376788
(-0.02549673762297955, -0.7323336939480245), (-0.0746193345802125, -0.8128502916500249),0.24793255794194402
(0.1584919936610981, 0.34451949478758975), (-3.979498058509183, 3.1211866184518176),6.601298244320675
(-0.9787166213397248, 5.087403560868828), (-0.019107223364290153, -0.0012517655026407129),0.019489631637537363
(0.001662265221133287, 5.103460374126265), (-0.002423105961449276, 0.0030858470635436617),0.04150972746703574
(0.9794204681122011, 5.082637558740898), (0.02153032932573943, -0.0018340815609029486),0.022020095829498376
(0.23151093037520976, 0.49648436674600754), (-3.7416032435207027, 4.5891985950482175),6.344297041926173
(1.5634224769097764, -2.3485689086245585), (0.00014032311168568712, 6.43167390696882e-05),0.0001412612938006541
(0.2771469836345578, 0.10986400681840142), (0.14992182377443528, -1.131740430011621),2.4135442008318897
(-1.9467532505660063, 6.348664526202218), (-0.025089948466329434, -0.0023155850958241383),0.025760214624743316
(-0.9727726827865001, 6.371137020410399), (-0.003000224194302497, -0.0010994746175572068),0.05470092346598221
(-0.00216160291533246, 6.400637504763732), (0.0038864694756644697, 0.006230008326102994),0.05377119362908278
(0.9725959739813025, 6.3722958449373825), (-0.0013046387260712417, -0.00040196312453897286),0.05103250462742537
(1.9461217581464267, 6.349272949155341), (0.025508341911038703, -0.002412985488182676),0.02620201983958148
(0.2742357040105807, 0.07069443253817997), (0.14579881283566318, -1.4356674729161967),2.378369198593431
(-3.00000000000011, 7.624999999999012), (-1.1635698352009924e-27, -3.5527136788004694e-14),8.881784197001252e-15
(-2.00000000000011, 7.624999999999012), (-1.16948629199015e-27, -3.5527136788004694e-14),8.881784197001252e-15
(-1.0000000000001088, 7.624999999999012), (-1.1606116068064136e-27, -3.5527136788004694e-14),8.881784197001252e-15
(-1.0835776720341533e-13, 7.624999999999012), (-1.1585428190824723e-27, -3.5527136788004694e-14),8.881784197001252e-15
(0.9999999999998918, 7.624999999999012), (-1.1606116068064136e-27, -3.5527136788004694e-14),8.881784197001252e-15
(1.999999999999892, 7.624999999999012), (-1.1675141397270975e-27, -3.5527136788004694e-14),8.881784197001252e-15
(2.999999999999893, 7.624999999999012), (-1.1596255306748874e-27, -3.5527136788004694e-14),8.881784197001252e-15
(-2.999999999999979, 8.624999999999003), (1.1635698352009924e-27, 3.5527136788004694e-14),8.881784197001252e-15
(-1.9999999999999785, 8.624999999999003), (1.16948629199015e-27, 3.5527136788004694e-14),8.881784197001252e-15
(-0.9999999999999781, 8.624999999999003), (1.1606116068064136e-27, 3.5527136788004694e-14),8.881784197001252e-15
(2.2082558004399328e-14, 8.624999999999003), (1.1585428190824723e-27, 3.5527136788004694e-14),8.881784197001252e-15
(1.0000000000000224, 8.624999999999003), (1.1606116068064136e-27, 3.5527136788004694e-14),8.881784197001252e-15
(2.0000000000000235, 8.624999999999003), (1.1675141397270975e-27, 3.5527136788004694e-14),8.881784197001252e-15
(3.0000000000000235, 8.624999999999003), (1.1596255306748874e-27, 3.5527136788004694e-14),8.881784197001252e-15
(-3.0, 9.624999999999003), (0, 0),0
(-2.0, 9.624999999999003), (0, 0),0
(-1.0, 9.624999999999003), (0, 0),0
(0.0, 9.624999999999003), (0, 0),0
(1.0, 9.624999999999003), (0, 0),0
(2.0, 9.624999999999003), (0, 0),0
(3.0, 9.624999999999003), (0, 0),0
(-3.0, 10.624999999999359), (0, 0),0
(-2.0, 10.624999999999359), (0, 0),0
(-1.0, 10.624999999999359), (0, 0),0
(0.0, 10.624999999999359), (0, 0),0
(1.0, 10.624999999999359), (0, 0),0
(2.0, 10.624999999999359), (0, 0),0
(3.0, 10.624999999999359), (0, 0),0
(-3.0, 11.624999999999714), (0, 0),0
(-2.0, 11.624999999999714), (0, 0),0
(-1.0, 11.624999999999714), (0, 0),0
(0.0, 11.624999999999714), (0, 0),0
(1.0, 11.624999999999714), (0, 0),0
(2.0, 11.624999999999714), (0, 0),0
(3.0, 11.624999999999714), (0, 0),0
(-3.0, 12.62500000000007), (0, 0),0
(-2.0, 12.62500000000007), (0, 0),0
(-1.0, 12.62500000000007), (0, 0),0
(0.0, 12.62500000000007), (0, 0),0
(1.0, 12.62500000000007), (0, 0),0
(2.0, 12.62500000000007), (0, 0),0
(3.0, 12.62500000000007), (0, 0),0
