(-3.0, 7.984999999999532), (0.0, -1.4210854715201953e-14),3.552713678800501e-15
(-2.0, 7.984999999999532), (-2.2204460492503126e-16, -1.4210854715201953e-14),3.774758283725532e-15
(-1.0000000000000002, 7.984999999999532), (2.2204460492503126e-16, -1.4210854715201953e-14),3.774758283725532e-15
(5.6621374255882664e-18, 7.984999999999532), (-2.2204460492503126e-16, -1.4210854715201953e-14),3.774758283725532e-15
(0.9999999999999998, 7.984999999999532), (2.2204460492503126e-16, -1.4210854715201953e-14),3.774758283725532e-15
(1.9999999999999998, 7.984999999999532), (0.0, -1.4210854715201953e-14),3.552713678800501e-15
(3.0, 7.984999999999532), (0.0, -1.4210854715201953e-14),3.552713678800501e-15
(-3.0, 8.984999999999529), (0.0, 1.4210854715201953e-14),3.552713678800501e-15
(-2.0, 8.984999999999529), (-2.2204460492503126e-16, 1.4210854715201953e-14),3.774758283725532e-15
(-1.0000000000000002, 8.984999999999529), (2.2204460492503126e-16, 1.4210854715201953e-14),3.774758283725532e-15
(5.6621374255882664e-18, 8.984999999999529), (-2.2204460492503126e-16, 1.4210854715201953e-14),3.774758283725532e-15
(0.9999999999999998, 8.984999999999529), (2.2204460492503126e-16, 1.4210854715201953e-14),3.774758283725532e-15
(1.9999999999999998, 8.984999999999529), (0.0, 1.4210854715201953e-14),3.552713678800501e-15
(3.0, 8.984999999999529), (0.0, 1.4210854715201953e-14),3.552713678800501e-15
(-3.0, 9.984999999999529), (0, 0),0
(-2.0, 9.984999999999529), (0, 0),0
(-1.0, 9.984999999999529), (0, 0),0
(0.0, 9.984999999999529), (0, 0),0
(1.0, 9.984999999999529), (0, 0),0
(2.0, 9.984999999999529), (0, 0),0
(3.0, 9.984999999999529), (0, 0),0
(-3.0, 10.984999999999529), (0, 0),0
(-2.0, 10.984999999999529), (0, 0),0
(-1.0, 10.984999999999529), (0, 0),0
(0.0, 10.984999999999529), (0, 0),0
(1.0, 10.984999999999529), (0, 0),0
(2.0, 10.984999999999529), (0, 0),0
(3.0, 10.984999999999529), (0, 0),0
(-3.0, 11.984999999999529), (0, 0),0
(-2.0, 11.984999999999529), (0, 0),0
(-1.0, 11.984999999999529), (0, 0),0
(0.0, 11.984999999999529), (0, 0),0
(1.0, 11.984999999999529), (0, 0),0
(2.0, 11.984999999999529), (0, 0),0
(3.0, 11.984999999999529), (0, 0),0
(-3.0, 12.984999999999529), (0, 0),0
(-2.0, 12.984999999999529), (0, 0),0
(-1.0, 12.984999999999529), (0, 0),0
(0.0, 12.984999999999529), (0, 0),0
(1.0, 12.984999999999529), (0, 0),0
(2.0, 12.984999999999529), (0, 0),0
(3.0, 12.984999999999529), (0, 0),0
(-3.0, 13.984999999999884), (0, 0),0
(-2.0, 13.984999999999884), (0, 0),0
(-1.0, 13.984999999999884), (0, 0),0
(0.0, 13.984999999999884), (0, 0),0
(1.0, 13.984999999999884), (0, 0),0
(2.0, 13.984999999999884), (0, 0),0
(3.0, 13.984999999999884), (0, 0),0
(-3.0, 14.98500000000024), (0, 0),0
(-2.0, 14.98500000000024), (0, 0),0
(-1.0, 14.98500000000024), (0, 0),0
(0.0, 14.98500000000024), (0, 0),0
(1.0, 14.98500000000024), (0, 0),0
(2.0, 14.98500000000024), (0, 0),0
(3.0, 14.98500000000024), (0, 0),0
(-3.0, 15.985000000000595), (0, 0),0
(-2.0, 15.985000000000595), (0, 0),0
(-1.0, 15.985000000000595), (0, 0),0
(0.0, 15.985000000000595), (0, 0),0
(1.0, 15.985000000000595), (0, 0),0
(2.0, 15.985000000000595), (0, 0),0
(3.0, 15.985000000000595), (0, 0),0
