(0.3426850308932451, 0.6499383821818016), (-3.022699877262802, 0.9928774401208655),6.273094208430417
(0.23619857344712566, 0.8660733384810289), (-3.1835529875828064, 3.433814100644306),6.577973970353509
(-0.9828426558214554, 5.113792665599893), (-0.017103881241603565, -0.001600819579355889),0.017411731073871506
(-0.0005232546638017947, 5.13677745057854), (-0.002635030947818511, 0.003175246471852076),0.03756054183514157
(0.9791331837878466, 5.117242465224435), (0.019738912189422076, -0.0015744268924961868),0.020148810761270064
(-0.30568737312729594, 0.7220737579944831), (3.159806136732812, 2.0378203166301248),6.681305683659487
(-0.05249337450795, 0.8695614495656917), (3.6898120705343076, 3.7166171887388644),6.877752213776327
(-0.24575308856908926, 2.2067378929818093), (0, 0),0
(-1.9436595351437724, 6.357927500170696), (-0.02801498397119643, -0.0032133415165949883),0.02885936229973851
(-0.9729179199886009, 6.385763713972136), (0.0034855663732525216, 0.0004756046097621879),0.054031987860505226
(0.0015301978181768605, 6.412953338076145), (-0.0033566350478993895, 0.005992566824962687),0.05389555419190384
(0.9723940329082167, 6.384623793760445), (-0.00020345284200697783, -0.00023151186416236385),0.05765995252190603
(1.943105658052605, 6.358503985574746), (0.028089505487850275, -0.003023318053967523),0.02893702389076891
(-0.3666441535364396, 0.5930069686115795), (3.1066346575784896, 0.6441885011713214),6.395438524663923
(-2.999999999999894, 7.63499999999917), (1.1438483125704671e-27, -3.5527136788004694e-14),8.881784197001252e-15
(-1.999999999999893, 7.63499999999917), (1.1517369216226772e-27, -3.5527136788004694e-14),8.881784197001252e-15
(-0.9999999999998926, 7.63499999999917), (1.1448343887019934e-27, -3.5527136788004694e-14),8.881784197001252e-15
(1.074695887837152e-13, 7.63499999999917), (1.142765600978052e-27, -3.5527136788004694e-14),8.881784197001252e-15
(1.000000000000108, 7.63499999999917), (1.1448343887019934e-27, -3.5527136788004694e-14),8.881784197001252e-15
(2.0000000000001092, 7.63499999999917), (1.1537090738857298e-27, -3.5527136788004694e-14),8.881784197001252e-15
(3.0000000000001092, 7.63499999999917), (1.1477926170965722e-27, -3.5527136788004694e-14),8.881784197001252e-15
(-3.0000000000000226, 8.634999999999161), (-1.1438483125704671e-27, 3.5527136788004694e-14),8.881784197001252e-15
(-2.0000000000000226, 8.634999999999161), (-1.1517369216226772e-27, 3.5527136788004694e-14),8.881784197001252e-15
(-1.0000000000000215, 8.634999999999161), (-1.1448343887019934e-27, 3.5527136788004694e-14),8.881784197001252e-15
(-2.1194379584699203e-14, 8.634999999999161), (-1.142765600978052e-27, 3.5527136788004694e-14),8.881784197001252e-15
(0.999999999999979, 8.634999999999161), (-1.1448343887019934e-27, 3.5527136788004694e-14),8.881784197001252e-15
(1.9999999999999793, 8.634999999999161), (-1.1537090738857298e-27, 3.5527136788004694e-14),8.881784197001252e-15
(2.99999999999998, 8.634999999999161), (-1.1477926170965722e-27, 3.5527136788004694e-14),8.881784197001252e-15
(-3.0, 9.634999999999161), (0, 0),0
(-2.0, 9.634999999999161), (0, 0),0
(-1.0, 9.634999999999161), (0, 0),0
(0.0, 9.634999999999161), (0, 0),0
(1.0, 9.634999999999161), (0, 0),0
(2.0, 9.634999999999161), (0, 0),0
(3.0, 9.634999999999161), (0, 0),0
(-3.0, 10.634999999999161), (0, 0),0
(-2.0, 10.634999999999161), (0, 0),0
(-1.0, 10.634999999999161), (0, 0),0
(0.0, 10.634999999999161), (0, 0),0
(1.0, 10.634999999999161), (0, 0),0
(2.0, 10.634999999999161), (0, 0),0
(3.0, 10.634999999999161), (0, 0),0
(-3.0, 11.634999999999517), (0, 0),0
(-2.0, 11.634999999999517), (0, 0),0
(-1.0, 11.634999999999517), (0, 0),0
(0.0, 11.634999999999517), (0, 0),0
(1.0, 11.634999999999517), (0, 0),0
(2.0, 11.634999999999517), (0, 0),0
(3.0, 11.634999999999517), (0, 0),0
(-3.0, 12.634999999999872), (0, 0),0
(-2.0, 12.634999999999872), (0, 0),0
(-1.0, 12.634999999999872), (0, 0),0
(0.0, 12.634999999999872), (0, 0),0
(1.0, 12.634999999999872), (0, 0),0
(2.0, 12.634999999999872), (0, 0),0
(3.0, 12.634999999999872), (0, 0),0
(-3.0, 13.635000000000227), (0, 0),0
(-2.0, 13.635000000000227), (0, 0),0
(-1.0, 13.635000000000227), (0, 0),0
(0.0, 13.635000000000227), (0, 0),0
(1.0, 13.635000000000227), (0, 0),0
(2.0, 13.635000000000227), (0, 0),0
(3.0, 13.635000000000227), (0, 0),0
