(-3.0, 10.669999999999948), (0, 0),0
(-2.0, 10.669999999999948), (0, 0),0
(-1.0, 10.669999999999948), (0, 0),0
(0.0, 10.669999999999948), (0, 0),0
(1.0, 10.669999999999948), (0, 0),0
(2.0, 10.669999999999948), (0, 0),0
(3.0, 10.669999999999948), (0, 0),0
(-3.0, 11.669999999999948), (0, 0),0
(-2.0, 11.669999999999948), (0, 0),0
(-1.0, 11.669999999999948), (0, 0),0
(0.0, 11.669999999999948), (0, 0),0
(1.0, 11.669999999999948), (0, 0),0
(2.0, 11.669999999999948), (0, 0),0
(3.0, 11.669999999999948), (0, 0),0
(-3.0, 12.669999999999948), (0, 0),0
(-2.0, 12.669999999999948), (0, 0),0
(-1.0, 12.669999999999948), (0, 0),0
(0.0, 12.669999999999948), (0, 0),0
(1.0, 12.669999999999948), (0, 0),0
(2.0, 12.669999999999948), (0, 0),0
(3.0, 12.669999999999948), (0, 0),0
(-3.0, 13.669999999999948), (0, 0),0
(-2.0, 13.669999999999948), (0, 0),0
(-1.0, 13.669999999999948), (0, 0),0
(0.0, 13.669999999999948), (0, 0),0
(1.0, 13.669999999999948), (0, 0),0
(2.0, 13.669999999999948), (0, 0),0
(3.0, 13.669999999999948), (0, 0),0
(-3.0, 14.669999999999948), (0, 0),0
(-2.0, 14.669999999999948), (0, 0),0
(-1.0, 14.669999999999948), (0, 0),0
(0.0, 14.669999999999948), (0, 0),0
(1.0, 14.669999999999948), (0, 0),0
(2.0, 14.669999999999948), (0, 0),0
(3.0, 14.669999999999948), (0, 0),0
(-3.0, 15.669999999999948), (0, 0),0
(-2.0, 15.669999999999948), (0, 0),0
(-1.0, 15.669999999999948), (0, 0),0
(0.0, 15.669999999999948), (0, 0),0
(1.0, 15.669999999999948), (0, 0),0
(2.0, 15.669999999999948), (0, 0),0
(3.0, 15.669999999999948), (0, 0),0
(-3.0, 16.670000000000066), (0, 0),0
(-2.0, 16.670000000000066), (0, 0),0
(-1.0, 16.670000000000066), (0, 0),0
(0.0, 16.670000000000066), (0, 0),0
(1.0, 16.670000000000066), (0, 0),0
(2.0, 16.670000000000066), (0, 0),0
(3.0, 16.670000000000066), (0, 0),0
(-3.0, 17.670000000000066), (0, 0),0
(-2.0, 17.670000000000066), (0, 0),0
(-1.0, 17.670000000000066), (0, 0),0
(0.0, 17.670000000000066), (0, 0),0
(1.0, 17.670000000000066), (0, 0),0
(2.0, 17.670000000000066), (0, 0),0
(3.0, 17.670000000000066), (0, 0),0
(-3.0, 18.670000000000066), (0, 0),0
(-2.0, 18.670000000000066), (0, 0),0
(-1.0, 18.670000000000066), (0, 0),0
(0.0, 18.670000000000066), (0, 0),0
(1.0, 18.670000000000066), (0, 0),0
(2.0, 18.670000000000066), (0, 0),0
(3.0, 18.670000000000066), (0, 0),0
