(-3.0, 9.034999999999693), (0, 0),0
(-2.0, 9.034999999999693), (0, 0),0
(-1.0, 9.034999999999693), (0, 0),0
(0.0, 9.034999999999693), (0, 0),0
(1.0, 9.034999999999693), (0, 0),0
(2.0, 9.034999999999693), (0, 0),0
(3.0, 9.034999999999693), (0, 0),0
(-3.0, 10.034999999999693), (0, 0),0
(-2.0, 10.034999999999693), (0, 0),0
(-1.0, 10.034999999999693), (0, 0),0
(0.0, 10.034999999999693), (0, 0),0
(1.0, 10.034999999999693), (0, 0),0
(2.0, 10.034999999999693), (0, 0),0
(3.0, 10.034999999999693), (0, 0),0
(-3.0, 11.034999999999693), (0, 0),0
(-2.0, 11.034999999999693), (0, 0),0
(-1.0, 11.034999999999693), (0, 0),0
(0.0, 11.034999999999693), (0, 0),0
(1.0, 11.034999999999693), (0, 0),0
(2.0, 11.034999999999693), (0, 0),0
(3.0, 11.034999999999693), (0, 0),0
(-3.0, 12.034999999999693), (0, 0),0
(-2.0, 12.034999999999693), (0, 0),0
(-1.0, 12.034999999999693), (0, 0),0
(0.0, 12.034999999999693), (0, 0),0
(1.0, 12.034999999999693), (0, 0),0
(2.0, 12.034999999999693), (0, 0),0
(3.0, 12.034999999999693), (0, 0),0
(-3.0, 13.034999999999693), (0, 0),0
(-2.0, 13.034999999999693), (0, 0),0
(-1.0, 13.034999999999693), (0, 0),0
(0.0, 13.034999999999693), (0, 0),0
(1.0, 13.034999999999693), (0, 0),0
(2.0, 13.034999999999693), (0, 0),0
(3.0, 13.034999999999693), (0, 0),0
(-3.0, 14.034999999999693), (0, 0),0
(-2.0, 14.034999999999693), (0, 0),0
(-1.0, 14.034999999999693), (0, 0),0
(0.0, 14.034999999999693), (0, 0),0
(1.0, 14.034999999999693), (0, 0),0
(2.0, 14.034999999999693), (0, 0),0
(3.0, 14.034999999999693), (0, 0),0
(-3.0, 15.035000000000048), (0, 0),0
(-2.0, 15.035000000000048), (0, 0),0
(-1.0, 15.035000000000048), (0, 0),0
(0.0, 15.035000000000048), (0, 0),0
(1.0, 15.035000000000048), (0, 0),0
(2.0, 15.035000000000048), (0, 0),0
(3.0, 15.035000000000048), (0, 0),0
(-3.0, 16.03500000000039), (0, 0),0
(-2.0, 16.03500000000039), (0, 0),0
(-1.0, 16.03500000000039), (0, 0),0
(0.0, 16.03500000000039), (0, 0),0
(1.0, 16.03500000000039), (0, 0),0
(2.0, 16.03500000000039), (0, 0),0
(3.0, 16.03500000000039), (0, 0),0
(-3.0, 17.03500000000039), (0, 0),0
(-2.0, 17.03500000000039), (0, 0),0
(-1.0, 17.03500000000039), (0, 0),0
(0.0, 17.03500000000039), (0, 0),0
(1.0, 17.03500000000039), (0, 0),0
(2.0, 17.03500000000039), (0, 0),0
(3.0, 17.03500000000039), (0, 0),0
