(-3.0, 9.59499999999978), (0, 0),0
(-2.0, 9.59499999999978), (0, 0),0
(-1.0, 9.59499999999978), (0, 0),0
(0.0, 9.59499999999978), (0, 0),0
(1.0, 9.59499999999978), (0, 0),0
(2.0, 9.59499999999978), (0, 0),0
(3.0, 9.59499999999978), (0, 0),0
(-3.0, 10.59499999999978), (0, 0),0
(-2.0, 10.59499999999978), (0, 0),0
(-1.0, 10.59499999999978), (0, 0),0
(0.0, 10.59499999999978), (0, 0),0
(1.0, 10.59499999999978), (0, 0),0
(2.0, 10.59499999999978), (0, 0),0
(3.0, 10.59499999999978), (0, 0),0
(-3.0, 11.59499999999978), (0, 0),0
(-2.0, 11.59499999999978), (0, 0),0
(-1.0, 11.59499999999978), (0, 0),0
(0.0, 11.59499999999978), (0, 0),0
(1.0, 11.59499999999978), (0, 0),0
(2.0, 11.59499999999978), (0, 0),0
(3.0, 11.59499999999978), (0, 0),0
(-3.0, 12.59499999999978), (0, 0),0
(-2.0, 12.59499999999978), (0, 0),0
(-1.0, 12.59499999999978), (0, 0),0
(0.0, 12.59499999999978), (0, 0),0
(1.0, 12.59499999999978), (0, 0),0
(2.0, 12.59499999999978), (0, 0),0
(3.0, 12.59499999999978), (0, 0),0
(-3.0, 13.59499999999978), (0, 0),0
(-2.0, 13.59499999999978), (0, 0),0
(-1.0, 13.59499999999978), (0, 0),0
(0.0, 13.59499999999978), (0, 0),0
(1.0, 13.59499999999978), (0, 0),0
(2.0, 13.59499999999978), (0, 0),0
(3.0, 13.59499999999978), (0, 0),0
(-3.0, 14.59499999999978), (0, 0),0
(-2.0, 14.59499999999978), (0, 0),0
(-1.0, 14.59499999999978), (0, 0),0
(0.0, 14.59499999999978), (0, 0),0
(1.0, 14.59499999999978), (0, 0),0
(2.0, 14.59499999999978), (0, 0),0
(3.0, 14.59499999999978), (0, 0),0
(-3.0, 15.595000000000136), (0, 0),0
(-2.0, 15.595000000000136), (0, 0),0
(-1.0, 15.595000000000136), (0, 0),0
(0.0, 15.595000000000136), (0, 0),0
(1.0, 15.595000000000136), (0, 0),0
(2.0, 15.595000000000136), (0, 0),0
(3.0, 15.595000000000136), (0, 0),0
(-3.0, 16.59500000000028), (0, 0),0
(-2.0, 16.59500000000028), (0, 0),0
(-1.0, 16.59500000000028), (0, 0),0
(0.0, 16.59500000000028), (0, 0),0
(1.0, 16.59500000000028), (0, 0),0
(2.0, 16.59500000000028), (0, 0),0
(3.0, 16.59500000000028), (0, 0),0
(-3.0, 17.59500000000028), (0, 0),0
(-2.0, 17.59500000000028), (0, 0),0
(-1.0, 17.59500000000028), (0, 0),0
(0.0, 17.59500000000028), (0, 0),0
(1.0, 17.59500000000028), (0, 0),0
(2.0, 17.59500000000028), (0, 0),0
(3.0, 17.59500000000028), (0, 0),0
