(-1.6481380869008837, 4.654179765279046), (0, 0),0
(-1.9821633665906044, 5.9875096269789205), (-0.007422796239986177, -0.002032933484809822),0.007496370650162842
(-0.9919780373973457, 6.055306884467972), (-0.0019944965695286986, 0.0010889119808384336),0.017007073716143073
(-0.0017996305873889439, 6.080121598412416), (0.0015187491032540475, 0.0016820403178188954),0.017474828729231007
(0.9899656981174849, 6.056954622994983), (-0.00016544904859761532, 0.001378771607110222),0.016111849398526612
(1.9796890879699323, 5.992004261098414), (0.008063992754858444, -0.002116790420957729),0.008147723735275836
(1.6457524419801413, 4.65622349731678), (0, 0),0
(-3.0000000000001377, 7.39999999999929), (-1.5856104194942337e-27, -3.5527136788004694e-14),8.881784197001252e-15
(-2.0000000000001372, 7.39999999999929), (-1.5875825717572863e-27, -3.5527136788004694e-14),8.881784197001252e-15
(-1.0000000000001363, 7.39999999999929), (-1.582652191099655e-27, -3.5527136788004694e-14),8.881784197001252e-15
(-1.3573064894245591e-13, 7.39999999999929), (-1.5791565512133946e-27, -3.5527136788004694e-14),8.881784197001252e-15
(0.9999999999998646, 7.39999999999929), (-1.5796939627050761e-27, -3.5527136788004694e-14),8.881784197001252e-15
(1.9999999999998652, 7.39999999999929), (-1.5836382672311812e-27, -3.5527136788004694e-14),8.881784197001252e-15
(2.999999999999866, 7.39999999999929), (-1.5777218104420236e-27, -3.5527136788004694e-14),8.881784197001252e-15
(-2.999999999999959, 8.399999999999281), (1.5856104194942337e-27, 3.5527136788004694e-14),8.881784197001252e-15
(-1.9999999999999585, 8.399999999999281), (1.5875825717572863e-27, 3.5527136788004694e-14),8.881784197001252e-15
(-0.9999999999999581, 8.399999999999281), (1.582652191099655e-27, 3.5527136788004694e-14),8.881784197001252e-15
(4.206657244765215e-14, 8.399999999999281), (1.5791565512133946e-27, 3.5527136788004694e-14),8.881784197001252e-15
(1.0000000000000424, 8.399999999999281), (1.5796939627050761e-27, 3.5527136788004694e-14),8.881784197001252e-15
(2.0000000000000435, 8.399999999999281), (1.5836382672311812e-27, 3.5527136788004694e-14),8.881784197001252e-15
(3.0000000000000435, 8.399999999999281), (1.5777218104420236e-27, 3.5527136788004694e-14),8.881784197001252e-15
(-3.0, 9.399999999999281), (0, 0),0
(-2.0, 9.399999999999281), (0, 0),0
(-1.0, 9.399999999999281), (0, 0),0
(0.0, 9.399999999999281), (0, 0),0
(1.0, 9.399999999999281), (0, 0),0
(2.0, 9.399999999999281), (0, 0),0
(3.0, 9.399999999999281), (0, 0),0
(-3.0, 10.399999999999281), (0, 0),0
(-2.0, 10.399999999999281), (0, 0),0
(-1.0, 10.399999999999281), (0, 0),0
(0.0, 10.399999999999281), (0, 0),0
(1.0, 10.399999999999281), (0, 0),0
(2.0, 10.399999999999281), (0, 0),0
(3.0, 10.399999999999281), (0, 0),0
(-3.0, 11.399999999999281), (0, 0),0
(-2.0, 11.399999999999281), (0, 0),0
(-1.0, 11.399999999999281), (0, 0),0
(0.0, 11.399999999999281), (0, 0),0
(1.0, 11.399999999999281), (0, 0),0
(2.0, 11.399999999999281), (0, 0),0
(3.0, 11.399999999999281), (0, 0),0
(-3.0, 12.399999999999636), (0, 0),0
(-2.0, 12.399999999999636), (0, 0),0
(-1.0, 12.399999999999636), (0, 0),0
(0.0, 12.399999999999636), (0, 0),0
(1.0, 12.399999999999636), (0, 0),0
(2.0, 12.399999999999636), (0, 0),0
(3.0, 12.399999999999636), (0, 0),0
(-3.0, 13.399999999999991), (0, 0),0
(-2.0, 13.399999999999991), (0, 0),0
(-1.0, 13.399999999999991), (0, 0),0
(0.0, 13.399999999999991), (0, 0),0
(1.0, 13.399999999999991), (0, 0),0
(2.0, 13.399999999999991), (0, 0),0
(3.0, 13.399999999999991), (0, 0),0
(-3.0, 14.400000000000347), (0, 0),0
(-2.0, 14.400000000000347), (0, 0),0
(-1.0, 14.400000000000347), (0, 0),0
(0.0, 14.400000000000347), (0, 0),0
(1.0, 14.400000000000347), (0, 0),0
(2.0, 14.400000000000347), (0, 0),0
(3.0, 14.400000000000347), (0, 0),0
