(-0.987369034062555, 3.4411559029691117), (3.75, 2.1650635094610964),4.330127018922194
(-1.968922967503181, 5.369372582965278), (0.059392810970892995, -0.44937804703366674),0.19486077740300123
(-0.9993865963558487, 5.449603997855295), (0.024127110999692374, 0.008480417316948348),0.029350674642211305
(-0.001937446093455617, 5.476022459763885), (0.00013731266592140537, 0.0004185330412028607),0.004263955382575735
(0.995745208412389, 5.453488755136158), (-0.02466183764934964, 0.00851740299266114),0.029631327744385927
(1.9649686233433508, 5.374563834741158), (-0.06058595005480073, -0.45007266373402227),0.1969697011517314
(0.9849833891418126, 3.4431996350068457), (0, 0),0
(-2.480012161819964, 6.026253515031947), (3.596931826863499, 2.341129315131393),4.603382144923929
(-1.841862836362451, 6.6530046810740915), (-0.007892240496445324, 0.2286531899992103),0.1881470198166889
(-0.9309393621045972, 6.761796189187601), (0.008659792300545241, 0.026745739246364603),0.15437994820486878
(-0.003269564108576201, 6.7938409737691945), (0.005498776176498361, 0.01762704217592531),0.1371768573285992
(0.9307751919768174, 6.761628640127205), (-0.014045856925051496, 0.027394646249675546),0.1478645384073598
(1.84186140740151, 6.653032360221689), (0.008054476914557712, 0.22770593896969613),0.18752219090060984
(2.480347921129863, 6.0259304111510215), (-3.59561622176596, 2.3429055045668044),4.604585905904839
(-2.999999999999911, 7.829999999999201), (8.361925595342725e-28, -3.5527136788004694e-14),8.881784197001252e-15
(-1.9999999999999103, 7.829999999999201), (8.440811685864826e-28, -3.5527136788004694e-14),8.881784197001252e-15
(-0.99999999999991, 7.829999999999201), (8.371786356657988e-28, -3.5527136788004694e-14),8.881784197001252e-15
(9.015010959956276e-14, 7.829999999999201), (8.35109847941857e-28, -3.5527136788004694e-14),8.881784197001252e-15
(1.0000000000000906, 7.829999999999201), (8.371786356657988e-28, -3.5527136788004694e-14),8.881784197001252e-15
(2.000000000000092, 7.829999999999201), (8.460533208495352e-28, -3.5527136788004694e-14),8.881784197001252e-15
(3.000000000000092, 7.829999999999201), (8.401368640603776e-28, -3.5527136788004694e-14),8.881784197001252e-15
(-3.0000000000000053, 8.829999999999192), (-8.361925595342725e-28, 3.5527136788004694e-14),8.881784197001252e-15
(-2.0000000000000053, 8.829999999999192), (-8.440811685864826e-28, 3.5527136788004694e-14),8.881784197001252e-15
(-1.0000000000000042, 8.829999999999192), (-8.371786356657988e-28, 3.5527136788004694e-14),8.881784197001252e-15
(-3.8749004005467286e-15, 8.829999999999192), (-8.35109847941857e-28, 3.5527136788004694e-14),8.881784197001252e-15
(0.9999999999999963, 8.829999999999192), (-8.371786356657988e-28, 3.5527136788004694e-14),8.881784197001252e-15
(1.9999999999999967, 8.829999999999192), (-8.460533208495352e-28, 3.5527136788004694e-14),8.881784197001252e-15
(2.9999999999999973, 8.829999999999192), (-8.401368640603776e-28, 3.5527136788004694e-14),8.881784197001252e-15
(-3.0, 9.829999999999192), (0, 0),0
(-2.0, 9.829999999999192), (0, 0),0
(-1.0, 9.829999999999192), (0, 0),0
(0.0, 9.829999999999192), (0, 0),0
(1.0, 9.829999999999192), (0, 0),0
(2.0, 9.829999999999192), (0, 0),0
(3.0, 9.829999999999192), (0, 0),0
(-3.0, 10.829999999999192), (0, 0),0
(-2.0, 10.829999999999192), (0, 0),0
(-1.0, 10.829999999999192), (0, 0),0
(0.0, 10.829999999999192), (0, 0),0
(1.0, 10.829999999999192), (0, 0),0
(2.0, 10.829999999999192), (0, 0),0
(3.0, 10.829999999999192), (0, 0),0
(-3.0, 11.829999999999547), (0, 0),0
(-2.0, 11.829999999999547), (0, 0),0
(-1.0, 11.829999999999547), (0, 0),0
(0.0, 11.829999999999547), (0, 0),0
(1.0, 11.829999999999547), (0, 0),0
(2.0, 11.829999999999547), (0, 0),0
(3.0, 11.829999999999547), (0, 0),0
(-3.0, 12.829999999999902), (0, 0),0
(-2.0, 12.829999999999902), (0, 0),0
(-1.0, 12.829999999999902), (0, 0),0
(0.0, 12.829999999999902), (0, 0),0
(1.0, 12.829999999999902), (0, 0),0
(2.0, 12.829999999999902), (0, 0),0
(3.0, 12.829999999999902), (0, 0),0
(-3.0, 13.830000000000258), (0, 0),0
(-2.0, 13.830000000000258), (0, 0),0
(-1.0, 13.830000000000258), (0, 0),0
(0.0, 13.830000000000258), (0, 0),0
(1.0, 13.830000000000258), (0, 0),0
(2.0, 13.830000000000258), (0, 0),0
(3.0, 13.830000000000258), (0, 0),0
