(-3.0000000000000635, 7.259999999999424), (0.0, -3.5527136788004694e-14),8.881784197001252e-15
(-2.0000000000000635, 7.259999999999424), (0.0, -3.5527136788004694e-14),8.881784197001252e-15
(-1.0000000000000628, 7.259999999999424), (0.0, -3.5527136788004694e-14),8.881784197001252e-15
(-6.241152039621056e-14, 7.259999999999424), (0.0, -3.5527136788004694e-14),8.881784197001252e-15
(0.9999999999999378, 7.259999999999424), (0.0, -3.5527136788004694e-14),8.881784197001252e-15
(1.9999999999999383, 7.259999999999424), (0.0, -3.5527136788004694e-14),8.881784197001252e-15
(2.9999999999999383, 7.259999999999424), (0.0, -3.5527136788004694e-14),8.881784197001252e-15
(-3.0000000000000635, 8.259999999999415), (0.0, 3.5527136788004694e-14),8.881784197001252e-15
(-2.0000000000000635, 8.259999999999415), (0.0, 3.5527136788004694e-14),8.881784197001252e-15
(-1.0000000000000628, 8.259999999999415), (0.0, 3.5527136788004694e-14),8.881784197001252e-15
(-6.241152039621056e-14, 8.259999999999415), (0.0, 3.5527136788004694e-14),8.881784197001252e-15
(0.9999999999999378, 8.259999999999415), (0.0, 3.5527136788004694e-14),8.881784197001252e-15
(1.9999999999999383, 8.259999999999415), (0.0, 3.5527136788004694e-14),8.881784197001252e-15
(2.9999999999999383, 8.259999999999415), (0.0, 3.5527136788004694e-14),8.881784197001252e-15
(-3.0, 9.259999999999415), (0, 0),0
(-2.0, 9.259999999999415), (0, 0),0
(-1.0, 9.259999999999415), (0, 0),0
(0.0, 9.259999999999415), (0, 0),0
(1.0, 9.259999999999415), (0, 0),0
(2.0, 9.259999999999415), (0, 0),0
(3.0, 9.259999999999415), (0, 0),0
(-3.0, 10.259999999999415), (0, 0),0
(-2.0, 10.259999999999415), (0, 0),0
(-1.0, 10.259999999999415), (0, 0),0
(0.0, 10.259999999999415), (0, 0),0
(1.0, 10.259999999999415), (0, 0),0
(2.0, 10.259999999999415), (0, 0),0
(3.0, 10.259999999999415), (0, 0),0
(-3.0, 11.259999999999415), (0, 0),0
(-2.0, 11.259999999999415), (0, 0),0
(-1.0, 11.259999999999415), (0, 0),0
(0.0, 11.259999999999415), (0, 0),0
(1.0, 11.259999999999415), (0, 0),0
(2.0, 11.259999999999415), (0, 0),0
(3.0, 11.259999999999415), (0, 0),0
(-3.0, 12.259999999999415), (0, 0),0
(-2.0, 12.259999999999415), (0, 0),0
(-1.0, 12.259999999999415), (0, 0),0
(0.0, 12.259999999999415), (0, 0),0
(1.0, 12.259999999999415), (0, 0),0
(2.0, 12.259999999999415), (0, 0),0
(3.0, 12.259999999999415), (0, 0),0
(-3.0, 13.25999999999977), (0, 0),0
(-2.0, 13.25999999999977), (0, 0),0
(-1.0, 13.25999999999977), (0, 0),0
(0.0, 13.25999999999977), (0, 0),0
(1.0, 13.25999999999977), (0, 0),0
(2.0, 13.25999999999977), (0, 0),0
(3.0, 13.25999999999977), (0, 0),0
(-3.0, 14.260000000000126), (0, 0),0
(-2.0, 14.260000000000126), (0, 0),0
(-1.0, 14.260000000000126), (0, 0),0
(0.0, 14.260000000000126), (0, 0),0
(1.0, 14.260000000000126), (0, 0),0
(2.0, 14.260000000000126), (0, 0),0
(3.0, 14.260000000000126), (0, 0),0
(-3.0, 15.260000000000481), (0, 0),0
(-2.0, 15.260000000000481), (0, 0),0
(-1.0, 15.260000000000481), (0, 0),0
(0.0, 15.260000000000481), (0, 0),0
(1.0, 15.260000000000481), (0, 0),0
(2.0, 15.260000000000481), (0, 0),0
(3.0, 15.260000000000481), (0, 0),0
