(-0.987369034062555, 3.5811559029691087), (0, 0),0
(-1.9980385190593655, 5.541869416024065), (-0.0010247834775084857, -0.00021137423597462259),0.0010272001677033016
(-1.0003912155160057, 5.5933136823463805), (-0.0001411523768476569, 9.429790369909155e-05),0.002194866787902816
(-0.0018734586609507361, 5.61837998343143), (-8.67298869814629e-05, 0.0002237354919473351),0.002422189957380083
(0.9966458228957097, 5.597125066023613), (0.00036117167563775384, 7.103399912908541e-05),0.002147921687040255
(1.9945143166531316, 5.547401121819777), (0.0008914940656998516, -0.0001776931588008895),0.0008933983498596865
(0.9849833891418126, 3.5831996350068427), (0, 0),0
(-3.000000000000176, 6.969999999999223), (-2.264030797984304e-27, -3.5527136788004694e-14),8.881784197001252e-15
(-2.0000000000001754, 6.969999999999223), (-2.2660029502473564e-27, -3.5527136788004694e-14),8.881784197001252e-15
(-1.0000000000001745, 6.969999999999223), (-2.261072569589725e-27, -3.5527136788004694e-14),8.881784197001252e-15
(-1.739223209895613e-13, 6.969999999999223), (-2.2575769297034648e-27, -3.5527136788004694e-14),8.881784197001252e-15
(0.9999999999998264, 6.969999999999223), (-2.2581143411951463e-27, -3.5527136788004694e-14),8.881784197001252e-15
(1.999999999999827, 6.969999999999223), (-2.2620586457212514e-27, -3.5527136788004694e-14),8.881784197001252e-15
(2.9999999999998277, 6.969999999999223), (-2.2561421889320938e-27, -3.5527136788004694e-14),8.881784197001252e-15
(-2.999999999999921, 7.969999999999214), (2.264030797984304e-27, 3.5527136788004694e-14),8.881784197001252e-15
(-1.9999999999999203, 7.969999999999214), (2.2660029502473564e-27, 3.5527136788004694e-14),8.881784197001252e-15
(-0.99999999999992, 7.969999999999214), (2.261072569589725e-27, 3.5527136788004694e-14),8.881784197001252e-15
(8.025824449475753e-14, 7.969999999999214), (2.2575769297034648e-27, 3.5527136788004694e-14),8.881784197001252e-15
(1.0000000000000806, 7.969999999999214), (2.2581143411951463e-27, 3.5527136788004694e-14),8.881784197001252e-15
(2.0000000000000817, 7.969999999999214), (2.2620586457212514e-27, 3.5527136788004694e-14),8.881784197001252e-15
(3.0000000000000817, 7.969999999999214), (2.2561421889320938e-27, 3.5527136788004694e-14),8.881784197001252e-15
(-3.0, 8.969999999999214), (0, 0),0
(-2.0, 8.969999999999214), (0, 0),0
(-1.0, 8.969999999999214), (0, 0),0
(0.0, 8.969999999999214), (0, 0),0
(1.0, 8.969999999999214), (0, 0),0
(2.0, 8.969999999999214), (0, 0),0
(3.0, 8.969999999999214), (0, 0),0
(-3.0, 9.969999999999214), (0, 0),0
(-2.0, 9.969999999999214), (0, 0),0
(-1.0, 9.969999999999214), (0, 0),0
(0.0, 9.969999999999214), (0, 0),0
(1.0, 9.969999999999214), (0, 0),0
(2.0, 9.969999999999214), (0, 0),0
(3.0, 9.969999999999214), (0, 0),0
(-3.0, 10.969999999999214), (0, 0),0
(-2.0, 10.969999999999214), (0, 0),0
(-1.0, 10.969999999999214), (0, 0),0
(0.0, 10.969999999999214), (0, 0),0
(1.0, 10.969999999999214), (0, 0),0
(2.0, 10.969999999999214), (0, 0),0
(3.0, 10.969999999999214), (0, 0),0
(-3.0, 11.969999999999569), (0, 0),0
(-2.0, 11.969999999999569), (0, 0),0
(-1.0, 11.969999999999569), (0, 0),0
(0.0, 11.969999999999569), (0, 0),0
(1.0, 11.969999999999569), (0, 0),0
(2.0, 11.969999999999569), (0, 0),0
(3.0, 11.969999999999569), (0, 0),0
(-3.0, 12.969999999999924), (0, 0),0
(-2.0, 12.969999999999924), (0, 0),0
(-1.0, 12.969999999999924), (0, 0),0
(0.0, 12.969999999999924), (0, 0),0
(1.0, 12.969999999999924), (0, 0),0
(2.0, 12.969999999999924), (0, 0),0
(3.0, 12.969999999999924), (0, 0),0
(-3.0, 13.97000000000028), (0, 0),0
(-2.0, 13.97000000000028), (0, 0),0
(-1.0, 13.97000000000028), (0, 0),0
(0.0, 13.97000000000028), (0, 0),0
(1.0, 13.97000000000028), (0, 0),0
(2.0, 13.97000000000028), (0, 0),0
(3.0, 13.97000000000028), (0, 0),0
