(-3.0, 10.864999999999979), (0, 0),0
(-2.0, 10.864999999999979), (0, 0),0
(-1.0, 10.864999999999979), (0, 0),0
(0.0, 10.864999999999979), (0, 0),0
(1.0, 10.864999999999979), (0, 0),0
(2.0, 10.864999999999979), (0, 0),0
(3.0, 10.864999999999979), (0, 0),0
(-3.0, 11.864999999999979), (0, 0),0
(-2.0, 11.864999999999979), (0, 0),0
(-1.0, 11.864999999999979), (0, 0),0
(0.0, 11.864999999999979), (0, 0),0
(1.0, 11.864999999999979), (0, 0),0
(2.0, 11.864999999999979), (0, 0),0
(3.0, 11.864999999999979), (0, 0),0
(-3.0, 12.864999999999979), (0, 0),0
(-2.0, 12.864999999999979), (0, 0),0
(-1.0, 12.864999999999979), (0, 0),0
(0.0, 12.864999999999979), (0, 0),0
(1.0, 12.864999999999979), (0, 0),0
(2.0, 12.864999999999979), (0, 0),0
(3.0, 12.864999999999979), (0, 0),0
(-3.0, 13.864999999999979), (0, 0),0
(-2.0, 13.864999999999979), (0, 0),0
(-1.0, 13.864999999999979), (0, 0),0
(0.0, 13.864999999999979), (0, 0),0
(1.0, 13.864999999999979), (0, 0),0
(2.0, 13.864999999999979), (0, 0),0
(3.0, 13.864999999999979), (0, 0),0
(-3.0, 14.864999999999979), (0, 0),0
(-2.0, 14.864999999999979), (0, 0),0
(-1.0, 14.864999999999979), (0, 0),0
(0.0, 14.864999999999979), (0, 0),0
(1.0, 14.864999999999979), (0, 0),0
(2.0, 14.864999999999979), (0, 0),0
(3.0, 14.864999999999979), (0, 0),0
(-3.0, 15.864999999999979), (0, 0),0
(-2.0, 15.864999999999979), (0, 0),0
(-1.0, 15.864999999999979), (0, 0),0
(0.0, 15.864999999999979), (0, 0),0
(1.0, 15.864999999999979), (0, 0),0
(2.0, 15.864999999999979), (0, 0),0
(3.0, 15.864999999999979), (0, 0),0
(-3.0, 16.865000000000027), (0, 0),0
(-2.0, 16.865000000000027), (0, 0),0
(-1.0, 16.865000000000027), (0, 0),0
(0.0, 16.865000000000027), (0, 0),0
(1.0, 16.865000000000027), (0, 0),0
(2.0, 16.865000000000027), (0, 0),0
(3.0, 16.865000000000027), (0, 0),0
(-3.0, 17.865000000000027), (0, 0),0
(-2.0, 17.865000000000027), (0, 0),0
(-1.0, 17.865000000000027), (0, 0),0
(0.0, 17.865000000000027), (0, 0),0
(1.0, 17.865000000000027), (0, 0),0
(2.0, 17.865000000000027), (0, 0),0
(3.0, 17.865000000000027), (0, 0),0
(-3.0, 18.865000000000027), (0, 0),0
(-2.0, 18.865000000000027), (0, 0),0
(-1.0, 18.865000000000027), (0, 0),0
(0.0, 18.865000000000027), (0, 0),0
(1.0, 18.865000000000027), (0, 0),0
(2.0, 18.865000000000027), (0, 0),0
(3.0, 18.865000000000027), (0, 0),0
