(-3.0, 9.074999999999699), (0, 0),0
(-2.0, 9.074999999999699), (0, 0),0
(-1.0, 9.074999999999699), (0, 0),0
(0.0, 9.074999999999699), (0, 0),0
(1.0, 9.074999999999699), (0, 0),0
(2.0, 9.074999999999699), (0, 0),0
(3.0, 9.074999999999699), (0, 0),0
(-3.0, 10.074999999999699), (0, 0),0
(-2.0, 10.074999999999699), (0, 0),0
(-1.0, 10.074999999999699), (0, 0),0
(0.0, 10.074999999999699), (0, 0),0
(1.0, 10.074999999999699), (0, 0),0
(2.0, 10.074999999999699), (0, 0),0
(3.0, 10.074999999999699), (0, 0),0
(-3.0, 11.074999999999699), (0, 0),0
(-2.0, 11.074999999999699), (0, 0),0
(-1.0, 11.074999999999699), (0, 0),0
(0.0, 11.074999999999699), (0, 0),0
(1.0, 11.074999999999699), (0, 0),0
(2.0, 11.074999999999699), (0, 0),0
(3.0, 11.074999999999699), (0, 0),0
(-3.0, 12.074999999999699), (0, 0),0
(-2.0, 12.074999999999699), (0, 0),0
(-1.0, 12.074999999999699), (0, 0),0
(0.0, 12.074999999999699), (0, 0),0
(1.0, 12.074999999999699), (0, 0),0
(2.0, 12.074999999999699), (0, 0),0
(3.0, 12.074999999999699), (0, 0),0
(-3.0, 13.074999999999699), (0, 0),0
(-2.0, 13.074999999999699), (0, 0),0
(-1.0, 13.074999999999699), (0, 0),0
(0.0, 13.074999999999699), (0, 0),0
(1.0, 13.074999999999699), (0, 0),0
(2.0, 13.074999999999699), (0, 0),0
(3.0, 13.074999999999699), (0, 0),0
(-3.0, 14.074999999999699), (0, 0),0
(-2.0, 14.074999999999699), (0, 0),0
(-1.0, 14.074999999999699), (0, 0),0
(0.0, 14.074999999999699), (0, 0),0
(1.0, 14.074999999999699), (0, 0),0
(2.0, 14.074999999999699), (0, 0),0
(3.0, 14.074999999999699), (0, 0),0
(-3.0, 15.075000000000054), (0, 0),0
(-2.0, 15.075000000000054), (0, 0),0
(-1.0, 15.075000000000054), (0, 0),0
(0.0, 15.075000000000054), (0, 0),0
(1.0, 15.075000000000054), (0, 0),0
(2.0, 15.075000000000054), (0, 0),0
(3.0, 15.075000000000054), (0, 0),0
(-3.0, 16.075000000000383), (0, 0),0
(-2.0, 16.075000000000383), (0, 0),0
(-1.0, 16.075000000000383), (0, 0),0
(0.0, 16.075000000000383), (0, 0),0
(1.0, 16.075000000000383), (0, 0),0
(2.0, 16.075000000000383), (0, 0),0
(3.0, 16.075000000000383), (0, 0),0
(-3.0, 17.075000000000383), (0, 0),0
(-2.0, 17.075000000000383), (0, 0),0
(-1.0, 17.075000000000383), (0, 0),0
(0.0, 17.075000000000383), (0, 0),0
(1.0, 17.075000000000383), (0, 0),0
(2.0, 17.075000000000383), (0, 0),0
(3.0, 17.075000000000383), (0, 0),0
