(-3.0000000000000395, 7.5299999999994665), (0.0, -3.5527136788004694e-14),8.881784197001252e-15
(-2.0000000000000395, 7.5299999999994665), (0.0, -3.5527136788004694e-14),8.881784197001252e-15
(-1.0000000000000389, 7.5299999999994665), (0.0, -3.5527136788004694e-14),8.881784197001252e-15
(-3.8430703064307183e-14, 7.5299999999994665), (0.0, -3.5527136788004694e-14),8.881784197001252e-15
(0.9999999999999618, 7.5299999999994665), (0.0, -3.5527136788004694e-14),8.881784197001252e-15
(1.9999999999999623, 7.5299999999994665), (0.0, -3.5527136788004694e-14),8.881784197001252e-15
(2.9999999999999623, 7.5299999999994665), (0.0, -3.5527136788004694e-14),8.881784197001252e-15
(-3.0000000000000395, 8.529999999999458), (0.0, 3.5527136788004694e-14),8.881784197001252e-15
(-2.0000000000000395, 8.529999999999458), (0.0, 3.5527136788004694e-14),8.881784197001252e-15
(-1.0000000000000389, 8.529999999999458), (0.0, 3.5527136788004694e-14),8.881784197001252e-15
(-3.8430703064307183e-14, 8.529999999999458), (0.0, 3.5527136788004694e-14),8.881784197001252e-15
(0.9999999999999618, 8.529999999999458), (0.0, 3.5527136788004694e-14),8.881784197001252e-15
(1.9999999999999623, 8.529999999999458), (0.0, 3.5527136788004694e-14),8.881784197001252e-15
(2.9999999999999623, 8.529999999999458), (0.0, 3.5527136788004694e-14),8.881784197001252e-15
(-3.0, 9.529999999999458), (0, 0),0
(-2.0, 9.529999999999458), (0, 0),0
(-1.0, 9.529999999999458), (0, 0),0
(0.0, 9.529999999999458), (0, 0),0
(1.0, 9.529999999999458), (0, 0),0
(2.0, 9.529999999999458), (0, 0),0
(3.0, 9.529999999999458), (0, 0),0
(-3.0, 10.529999999999458), (0, 0),0
(-2.0, 10.529999999999458), (0, 0),0
(-1.0, 10.529999999999458), (0, 0),0
(0.0, 10.529999999999458), (0, 0),0
(1.0, 10.529999999999458), (0, 0),0
(2.0, 10.529999999999458), (0, 0),0
(3.0, 10.529999999999458), (0, 0),0
(-3.0, 11.529999999999458), (0, 0),0
(-2.0, 11.529999999999458), (0, 0),0
(-1.0, 11.529999999999458), (0, 0),0
(0.0, 11.529999999999458), (0, 0),0
(1.0, 11.529999999999458), (0, 0),0
(2.0, 11.529999999999458), (0, 0),0
(3.0, 11.529999999999458), (0, 0),0
(-3.0, 12.529999999999458), (0, 0),0
(-2.0, 12.529999999999458), (0, 0),0
(-1.0, 12.529999999999458), (0, 0),0
(0.0, 12.529999999999458), (0, 0),0
(1.0, 12.529999999999458), (0, 0),0
(2.0, 12.529999999999458), (0, 0),0
(3.0, 12.529999999999458), (0, 0),0
(-3.0, 13.529999999999813), (0, 0),0
(-2.0, 13.529999999999813), (0, 0),0
(-1.0, 13.529999999999813), (0, 0),0
(0.0, 13.529999999999813), (0, 0),0
(1.0, 13.529999999999813), (0, 0),0
(2.0, 13.529999999999813), (0, 0),0
(3.0, 13.529999999999813), (0, 0),0
(-3.0, 14.530000000000168), (0, 0),0
(-2.0, 14.530000000000168), (0, 0),0
(-1.0, 14.530000000000168), (0, 0),0
(0.0, 14.530000000000168), (0, 0),0
(1.0, 14.530000000000168), (0, 0),0
(2.0, 14.530000000000168), (0, 0),0
(3.0, 14.530000000000168), (0, 0),0
(-3.0, 15.530000000000523), (0, 0),0
(-2.0, 15.530000000000523), (0, 0),0
(-1.0, 15.530000000000523), (0, 0),0
(0.0, 15.530000000000523), (0, 0),0
(1.0, 15.530000000000523), (0, 0),0
(2.0, 15.530000000000523), (0, 0),0
(3.0, 15.530000000000523), (0, 0),0
