(-2.0735824316275484, 5.4185306304682435), (-0.003533216923624024, -0.07844393646339493),0.020340457991664618
(-1.8998785295289864, 6.382667432298624), (-0.036504292573323355, 0.05923826995916806),0.06243695484903544
(-0.9487896626192196, 6.496724823875045), (-0.006590318236636958, 0.013650047003106413),0.09115138803404088
(0.0017338553242876517, 6.525038103997877), (-0.0034795191818253815, 0.011235930223846495),0.10198382957650232
(0.9484248041752193, 6.498208212380667), (0.009782435285897069, 0.013470809445618804),0.09533538917855666
(1.8993393676204564, 6.385306048814357), (0.037104040698891234, 0.05285917545645233),0.06104217098110698
(2.0721725554792023, 5.419280925519274), (0.0032208709306214144, -0.07201029562479717),0.018635720202382577
(-3.0000000000001097, 7.714999999999339), (-1.0886280492049963e-27, -3.5527136788004694e-14),8.881784197001252e-15
(-2.0000000000001092, 7.714999999999339), (-1.0906002014680488e-27, -3.5527136788004694e-14),8.881784197001252e-15
(-1.0000000000001084, 7.714999999999339), (-1.0856698208104175e-27, -3.5527136788004694e-14),8.881784197001252e-15
(-1.0775302872190197e-13, 7.714999999999339), (-1.0821741809241572e-27, -3.5527136788004694e-14),8.881784197001252e-15
(0.9999999999998925, 7.714999999999339), (-1.0827115924158387e-27, -3.5527136788004694e-14),8.881784197001252e-15
(1.9999999999998932, 7.714999999999339), (-1.0866558969419438e-27, -3.5527136788004694e-14),8.881784197001252e-15
(2.999999999999894, 7.714999999999339), (-1.0807394401527862e-27, -3.5527136788004694e-14),8.881784197001252e-15
(-2.999999999999987, 8.71499999999933), (1.0886280492049963e-27, 3.5527136788004694e-14),8.881784197001252e-15
(-1.9999999999999865, 8.71499999999933), (1.0906002014680488e-27, 3.5527136788004694e-14),8.881784197001252e-15
(-0.9999999999999861, 8.71499999999933), (1.0856698208104175e-27, 3.5527136788004694e-14),8.881784197001252e-15
(1.40889522270982e-14, 8.71499999999933), (1.0821741809241572e-27, 3.5527136788004694e-14),8.881784197001252e-15
(1.0000000000000144, 8.71499999999933), (1.0827115924158387e-27, 3.5527136788004694e-14),8.881784197001252e-15
(2.0000000000000155, 8.71499999999933), (1.0866558969419438e-27, 3.5527136788004694e-14),8.881784197001252e-15
(3.0000000000000155, 8.71499999999933), (1.0807394401527862e-27, 3.5527136788004694e-14),8.881784197001252e-15
(-3.0, 9.71499999999933), (0, 0),0
(-2.0, 9.71499999999933), (0, 0),0
(-1.0, 9.71499999999933), (0, 0),0
(0.0, 9.71499999999933), (0, 0),0
(1.0, 9.71499999999933), (0, 0),0
(2.0, 9.71499999999933), (0, 0),0
(3.0, 9.71499999999933), (0, 0),0
(-3.0, 10.71499999999933), (0, 0),0
(-2.0, 10.71499999999933), (0, 0),0
(-1.0, 10.71499999999933), (0, 0),0
(0.0, 10.71499999999933), (0, 0),0
(1.0, 10.71499999999933), (0, 0),0
(2.0, 10.71499999999933), (0, 0),0
(3.0, 10.71499999999933), (0, 0),0
(-3.0, 11.71499999999933), (0, 0),0
(-2.0, 11.71499999999933), (0, 0),0
(-1.0, 11.71499999999933), (0, 0),0
(0.0, 11.71499999999933), (0, 0),0
(1.0, 11.71499999999933), (0, 0),0
(2.0, 11.71499999999933), (0, 0),0
(3.0, 11.71499999999933), (0, 0),0
(-3.0, 12.714999999999685), (0, 0),0
(-2.0, 12.714999999999685), (0, 0),0
(-1.0, 12.714999999999685), (0, 0),0
(0.0, 12.714999999999685), (0, 0),0
(1.0, 12.714999999999685), (0, 0),0
(2.0, 12.714999999999685), (0, 0),0
(3.0, 12.714999999999685), (0, 0),0
(-3.0, 13.71500000000004), (0, 0),0
(-2.0, 13.71500000000004), (0, 0),0
(-1.0, 13.71500000000004), (0, 0),0
(0.0, 13.71500000000004), (0, 0),0
(1.0, 13.71500000000004), (0, 0),0
(2.0, 13.71500000000004), (0, 0),0
(3.0, 13.71500000000004), (0, 0),0
(-3.0, 14.715000000000396), (0, 0),0
(-2.0, 14.715000000000396), (0, 0),0
(-1.0, 14.715000000000396), (0, 0),0
(0.0, 14.715000000000396), (0, 0),0
(1.0, 14.715000000000396), (0, 0),0
(2.0, 14.715000000000396), (0, 0),0
(3.0, 14.715000000000396), (0, 0),0
