(-3.0, 10.879999999999981), (0, 0),0
(-2.0, 10.879999999999981), (0, 0),0
(-1.0, 10.879999999999981), (0, 0),0
(0.0, 10.879999999999981), (0, 0),0
(1.0, 10.879999999999981), (0, 0),0
(2.0, 10.879999999999981), (0, 0),0
(3.0, 10.879999999999981), (0, 0),0
(-3.0, 11.879999999999981), (0, 0),0
(-2.0, 11.879999999999981), (0, 0),0
(-1.0, 11.879999999999981), (0, 0),0
(0.0, 11.879999999999981), (0, 0),0
(1.0, 11.879999999999981), (0, 0),0
(2.0, 11.879999999999981), (0, 0),0
(3.0, 11.879999999999981), (0, 0),0
(-3.0, 12.879999999999981), (0, 0),0
(-2.0, 12.879999999999981), (0, 0),0
(-1.0, 12.879999999999981), (0, 0),0
(0.0, 12.879999999999981), (0, 0),0
(1.0, 12.879999999999981), (0, 0),0
(2.0, 12.879999999999981), (0, 0),0
(3.0, 12.879999999999981), (0, 0),0
(-3.0, 13.879999999999981), (0, 0),0
(-2.0, 13.879999999999981), (0, 0),0
(-1.0, 13.879999999999981), (0, 0),0
(0.0, 13.879999999999981), (0, 0),0
(1.0, 13.879999999999981), (0, 0),0
(2.0, 13.879999999999981), (0, 0),0
(3.0, 13.879999999999981), (0, 0),0
(-3.0, 14.879999999999981), (0, 0),0
(-2.0, 14.879999999999981), (0, 0),0
(-1.0, 14.879999999999981), (0, 0),0
(0.0, 14.879999999999981), (0, 0),0
(1.0, 14.879999999999981), (0, 0),0
(2.0, 14.879999999999981), (0, 0),0
(3.0, 14.879999999999981), (0, 0),0
(-3.0, 15.879999999999981), (0, 0),0
(-2.0, 15.879999999999981), (0, 0),0
(-1.0, 15.879999999999981), (0, 0),0
(0.0, 15.879999999999981), (0, 0),0
(1.0, 15.879999999999981), (0, 0),0
(2.0, 15.879999999999981), (0, 0),0
(3.0, 15.879999999999981), (0, 0),0
(-3.0, 16.880000000000024), (0, 0),0
(-2.0, 16.880000000000024), (0, 0),0
(-1.0, 16.880000000000024), (0, 0),0
(0.0, 16.880000000000024), (0, 0),0
(1.0, 16.880000000000024), (0, 0),0
(2.0, 16.880000000000024), (0, 0),0
(3.0, 16.880000000000024), (0, 0),0
(-3.0, 17.880000000000024), (0, 0),0
(-2.0, 17.880000000000024), (0, 0),0
(-1.0, 17.880000000000024), (0, 0),0
(0.0, 17.880000000000024), (0, 0),0
(1.0, 17.880000000000024), (0, 0),0
(2.0, 17.880000000000024), (0, 0),0
(3.0, 17.880000000000024), (0, 0),0
(-3.0, 18.880000000000024), (0, 0),0
(-2.0, 18.880000000000024), (0, 0),0
(-1.0, 18.880000000000024), (0, 0),0
(0.0, 18.880000000000024), (0, 0),0
(1.0, 18.880000000000024), (0, 0),0
(2.0, 18.880000000000024), (0, 0),0
(3.0, 18.880000000000024), (0, 0),0
