(-3.0000000000000275, 7.664999999999488), (0.0, -3.5527136788004694e-14),8.881784197001252e-15
(-2.0000000000000275, 7.664999999999488), (0.0, -3.5527136788004694e-14),8.881784197001252e-15
(-1.0000000000000269, 7.664999999999488), (0.0, -3.5527136788004694e-14),8.881784197001252e-15
(-2.644029439835549e-14, 7.664999999999488), (0.0, -3.5527136788004694e-14),8.881784197001252e-15
(0.9999999999999738, 7.664999999999488), (0.0, -3.5527136788004694e-14),8.881784197001252e-15
(1.9999999999999742, 7.664999999999488), (0.0, -3.5527136788004694e-14),8.881784197001252e-15
(2.9999999999999742, 7.664999999999488), (0.0, -3.5527136788004694e-14),8.881784197001252e-15
(-3.0000000000000275, 8.664999999999479), (0.0, 3.5527136788004694e-14),8.881784197001252e-15
(-2.0000000000000275, 8.664999999999479), (0.0, 3.5527136788004694e-14),8.881784197001252e-15
(-1.0000000000000269, 8.664999999999479), (0.0, 3.5527136788004694e-14),8.881784197001252e-15
(-2.644029439835549e-14, 8.664999999999479), (0.0, 3.5527136788004694e-14),8.881784197001252e-15
(0.9999999999999738, 8.664999999999479), (0.0, 3.5527136788004694e-14),8.881784197001252e-15
(1.9999999999999742, 8.664999999999479), (0.0, 3.5527136788004694e-14),8.881784197001252e-15
(2.9999999999999742, 8.664999999999479), (0.0, 3.5527136788004694e-14),8.881784197001252e-15
(-3.0, 9.664999999999479), (0, 0),0
(-2.0, 9.664999999999479), (0, 0),0
(-1.0, 9.664999999999479), (0, 0),0
(0.0, 9.664999999999479), (0, 0),0
(1.0, 9.664999999999479), (0, 0),0
(2.0, 9.664999999999479), (0, 0),0
(3.0, 9.664999999999479), (0, 0),0
(-3.0, 10.664999999999479), (0, 0),0
(-2.0, 10.664999999999479), (0, 0),0
(-1.0, 10.664999999999479), (0, 0),0
(0.0, 10.664999999999479), (0, 0),0
(1.0, 10.664999999999479), (0, 0),0
(2.0, 10.664999999999479), (0, 0),0
(3.0, 10.664999999999479), (0, 0),0
(-3.0, 11.664999999999479), (0, 0),0
(-2.0, 11.664999999999479), (0, 0),0
(-1.0, 11.664999999999479), (0, 0),0
(0.0, 11.664999999999479), (0, 0),0
(1.0, 11.664999999999479), (0, 0),0
(2.0, 11.664999999999479), (0, 0),0
(3.0, 11.664999999999479), (0, 0),0
(-3.0, 12.664999999999479), (0, 0),0
(-2.0, 12.664999999999479), (0, 0),0
(-1.0, 12.664999999999479), (0, 0),0
(0.0, 12.664999999999479), (0, 0),0
(1.0, 12.664999999999479), (0, 0),0
(2.0, 12.664999999999479), (0, 0),0
(3.0, 12.664999999999479), (0, 0),0
(-3.0, 13.664999999999834), (0, 0),0
(-2.0, 13.664999999999834), (0, 0),0
(-1.0, 13.664999999999834), (0, 0),0
(0.0, 13.664999999999834), (0, 0),0
(1.0, 13.664999999999834), (0, 0),0
(2.0, 13.664999999999834), (0, 0),0
(3.0, 13.664999999999834), (0, 0),0
(-3.0, 14.66500000000019), (0, 0),0
(-2.0, 14.66500000000019), (0, 0),0
(-1.0, 14.66500000000019), (0, 0),0
(0.0, 14.66500000000019), (0, 0),0
(1.0, 14.66500000000019), (0, 0),0
(2.0, 14.66500000000019), (0, 0),0
(3.0, 14.66500000000019), (0, 0),0
(-3.0, 15.665000000000544), (0, 0),0
(-2.0, 15.665000000000544), (0, 0),0
(-1.0, 15.665000000000544), (0, 0),0
(0.0, 15.665000000000544), (0, 0),0
(1.0, 15.665000000000544), (0, 0),0
(2.0, 15.665000000000544), (0, 0),0
(3.0, 15.665000000000544), (0, 0),0
