(-0.9207824129686473, -0.9563037398349366), (0.1376700016733658, -0.2766342212951125),0.793607790251812
(0.8794647605691152, -0.5620300916617507), (-0.04733372059919748, 0.7573276649035099),0.7408223190571006
(-0.9928808301544523, 5.028934294064211), (-0.008896353494222017, -0.00045684242488441243),0.00897768541225441
(-0.0019401716548100984, 5.0416559033628845), (0.0005952015334839168, 0.0007826662020913029),0.017349321298379294
(0.9896404553163648, 5.031925912067309), (0.0083011519607381, -0.0003258237772068905),0.008371635886124884
(-1.1950265739181167, -0.9035178366462948), (-0.19765379520574464, 0.15217584305133758),0.7207219819063463
(-0.09779924389866386, -0.5294086382060147), (0.038296654970815885, 0.12735407880345903),0.09507749704208757
(-0.02549673762297955, 1.9173966055451621), (0, 0),0
(-1.960918673436215, 6.2659727570358585), (-0.018373371405992663, -0.0007260053868393332),0.01872488934564287
(-0.9796914380257159, 6.275665810135372), (-0.0020449576923064657, -0.0014105764067269475),0.03958536326943807
(-0.0008867774562223614, 6.301271433974161), (0.0016791209173105462, 0.004246558919557399),0.03997236946475613
(0.9796129401582025, 6.273671121887522), (0.00028387462399472735, -0.0015440479308185887),0.03792157546469921
(1.9607744289139348, 6.266149340583068), (0.018455333556993855, -0.0005659291951725299),0.018809679923738276
(0.9755097331110429, -0.8264995330359137), (0.06902085916076045, -0.760223365463194),0.7186306303604788
(-2.999999999999887, 7.5599999999991585), (1.2621774483536189e-27, -3.5527136788004694e-14),8.881784197001252e-15
(-1.9999999999998863, 7.5599999999991585), (1.270066057405829e-27, -3.5527136788004694e-14),8.881784197001252e-15
(-0.999999999999886, 7.5599999999991585), (1.2631635244851452e-27, -3.5527136788004694e-14),8.881784197001252e-15
(1.1413092693146614e-13, 7.5599999999991585), (1.2610947367612038e-27, -3.5527136788004694e-14),8.881784197001252e-15
(1.0000000000001146, 7.5599999999991585), (1.2631635244851452e-27, -3.5527136788004694e-14),8.881784197001252e-15
(2.000000000000116, 7.5599999999991585), (1.2720382096688815e-27, -3.5527136788004694e-14),8.881784197001252e-15
(3.000000000000116, 7.5599999999991585), (1.266121752879724e-27, -3.5527136788004694e-14),8.881784197001252e-15
(-3.0000000000000293, 8.55999999999915), (-1.2621774483536189e-27, 3.5527136788004694e-14),8.881784197001252e-15
(-2.0000000000000293, 8.55999999999915), (-1.270066057405829e-27, 3.5527136788004694e-14),8.881784197001252e-15
(-1.0000000000000282, 8.55999999999915), (-1.2631635244851452e-27, 3.5527136788004694e-14),8.881784197001252e-15
(-2.7855717732450142e-14, 8.55999999999915), (-1.2610947367612038e-27, 3.5527136788004694e-14),8.881784197001252e-15
(0.9999999999999724, 8.55999999999915), (-1.2631635244851452e-27, 3.5527136788004694e-14),8.881784197001252e-15
(1.9999999999999727, 8.55999999999915), (-1.2720382096688815e-27, 3.5527136788004694e-14),8.881784197001252e-15
(2.9999999999999734, 8.55999999999915), (-1.266121752879724e-27, 3.5527136788004694e-14),8.881784197001252e-15
(-3.0, 9.55999999999915), (0, 0),0
(-2.0, 9.55999999999915), (0, 0),0
(-1.0, 9.55999999999915), (0, 0),0
(0.0, 9.55999999999915), (0, 0),0
(1.0, 9.55999999999915), (0, 0),0
(2.0, 9.55999999999915), (0, 0),0
(3.0, 9.55999999999915), (0, 0),0
(-3.0, 10.55999999999915), (0, 0),0
(-2.0, 10.55999999999915), (0, 0),0
(-1.0, 10.55999999999915), (0, 0),0
(0.0, 10.55999999999915), (0, 0),0
(1.0, 10.55999999999915), (0, 0),0
(2.0, 10.55999999999915), (0, 0),0
(3.0, 10.55999999999915), (0, 0),0
(-3.0, 11.559999999999505), (0, 0),0
(-2.0, 11.559999999999505), (0, 0),0
(-1.0, 11.559999999999505), (0, 0),0
(0.0, 11.559999999999505), (0, 0),0
(1.0, 11.559999999999505), (0, 0),0
(2.0, 11.559999999999505), (0, 0),0
(3.0, 11.559999999999505), (0, 0),0
(-3.0, 12.55999999999986), (0, 0),0
(-2.0, 12.55999999999986), (0, 0),0
(-1.0, 12.55999999999986), (0, 0),0
(0.0, 12.55999999999986), (0, 0),0
(1.0, 12.55999999999986), (0, 0),0
(2.0, 12.55999999999986), (0, 0),0
(3.0, 12.55999999999986), (0, 0),0
(-3.0, 13.560000000000215), (0, 0),0
(-2.0, 13.560000000000215), (0, 0),0
(-1.0, 13.560000000000215), (0, 0),0
(0.0, 13.560000000000215), (0, 0),0
(1.0, 13.560000000000215), (0, 0),0
(2.0, 13.560000000000215), (0, 0),0
(3.0, 13.560000000000215), (0, 0),0
