(-3.0, 9.454999999999758), (0, 0),0
(-2.0, 9.454999999999758), (0, 0),0
(-1.0, 9.454999999999758), (0, 0),0
(0.0, 9.454999999999758), (0, 0),0
(1.0, 9.454999999999758), (0, 0),0
(2.0, 9.454999999999758), (0, 0),0
(3.0, 9.454999999999758), (0, 0),0
(-3.0, 10.454999999999758), (0, 0),0
(-2.0, 10.454999999999758), (0, 0),0
(-1.0, 10.454999999999758), (0, 0),0
(0.0, 10.454999999999758), (0, 0),0
(1.0, 10.454999999999758), (0, 0),0
(2.0, 10.454999999999758), (0, 0),0
(3.0, 10.454999999999758), (0, 0),0
(-3.0, 11.454999999999758), (0, 0),0
(-2.0, 11.454999999999758), (0, 0),0
(-1.0, 11.454999999999758), (0, 0),0
(0.0, 11.454999999999758), (0, 0),0
(1.0, 11.454999999999758), (0, 0),0
(2.0, 11.454999999999758), (0, 0),0
(3.0, 11.454999999999758), (0, 0),0
(-3.0, 12.454999999999758), (0, 0),0
(-2.0, 12.454999999999758), (0, 0),0
(-1.0, 12.454999999999758), (0, 0),0
(0.0, 12.454999999999758), (0, 0),0
(1.0, 12.454999999999758), (0, 0),0
(2.0, 12.454999999999758), (0, 0),0
(3.0, 12.454999999999758), (0, 0),0
(-3.0, 13.454999999999758), (0, 0),0
(-2.0, 13.454999999999758), (0, 0),0
(-1.0, 13.454999999999758), (0, 0),0
(0.0, 13.454999999999758), (0, 0),0
(1.0, 13.454999999999758), (0, 0),0
(2.0, 13.454999999999758), (0, 0),0
(3.0, 13.454999999999758), (0, 0),0
(-3.0, 14.454999999999758), (0, 0),0
(-2.0, 14.454999999999758), (0, 0),0
(-1.0, 14.454999999999758), (0, 0),0
(0.0, 14.454999999999758), (0, 0),0
(1.0, 14.454999999999758), (0, 0),0
(2.0, 14.454999999999758), (0, 0),0
(3.0, 14.454999999999758), (0, 0),0
(-3.0, 15.455000000000114), (0, 0),0
(-2.0, 15.455000000000114), (0, 0),0
(-1.0, 15.455000000000114), (0, 0),0
(0.0, 15.455000000000114), (0, 0),0
(1.0, 15.455000000000114), (0, 0),0
(2.0, 15.455000000000114), (0, 0),0
(3.0, 15.455000000000114), (0, 0),0
(-3.0, 16.455000000000307), (0, 0),0
(-2.0, 16.455000000000307), (0, 0),0
(-1.0, 16.455000000000307), (0, 0),0
(0.0, 16.455000000000307), (0, 0),0
(1.0, 16.455000000000307), (0, 0),0
(2.0, 16.455000000000307), (0, 0),0
(3.0, 16.455000000000307), (0, 0),0
(-3.0, 17.455000000000307), (0, 0),0
(-2.0, 17.455000000000307), (0, 0),0
(-1.0, 17.455000000000307), (0, 0),0
(0.0, 17.455000000000307), (0, 0),0
(1.0, 17.455000000000307), (0, 0),0
(2.0, 17.455000000000307), (0, 0),0
(3.0, 17.455000000000307), (0, 0),0
