(-3.0, 10.769999999999964), (0, 0),0
(-2.0, 10.769999999999964), (0, 0),0
(-1.0, 10.769999999999964), (0, 0),0
(0.0, 10.769999999999964), (0, 0),0
(1.0, 10.769999999999964), (0, 0),0
(2.0, 10.769999999999964), (0, 0),0
(3.0, 10.769999999999964), (0, 0),0
(-3.0, 11.769999999999964), (0, 0),0
(-2.0, 11.769999999999964), (0, 0),0
(-1.0, 11.769999999999964), (0, 0),0
(0.0, 11.769999999999964), (0, 0),0
(1.0, 11.769999999999964), (0, 0),0
(2.0, 11.769999999999964), (0, 0),0
(3.0, 11.769999999999964), (0, 0),0
(-3.0, 12.769999999999964), (0, 0),0
(-2.0, 12.769999999999964), (0, 0),0
(-1.0, 12.769999999999964), (0, 0),0
(0.0, 12.769999999999964), (0, 0),0
(1.0, 12.769999999999964), (0, 0),0
(2.0, 12.769999999999964), (0, 0),0
(3.0, 12.769999999999964), (0, 0),0
(-3.0, 13.769999999999964), (0, 0),0
(-2.0, 13.769999999999964), (0, 0),0
(-1.0, 13.769999999999964), (0, 0),0
(0.0, 13.769999999999964), (0, 0),0
(1.0, 13.769999999999964), (0, 0),0
(2.0, 13.769999999999964), (0, 0),0
(3.0, 13.769999999999964), (0, 0),0
(-3.0, 14.769999999999964), (0, 0),0
(-2.0, 14.769999999999964), (0, 0),0
(-1.0, 14.769999999999964), (0, 0),0
(0.0, 14.769999999999964), (0, 0),0
(1.0, 14.769999999999964), (0, 0),0
(2.0, 14.769999999999964), (0, 0),0
(3.0, 14.769999999999964), (0, 0),0
(-3.0, 15.769999999999964), (0, 0),0
(-2.0, 15.769999999999964), (0, 0),0
(-1.0, 15.769999999999964), (0, 0),0
(0.0, 15.769999999999964), (0, 0),0
(1.0, 15.769999999999964), (0, 0),0
(2.0, 15.769999999999964), (0, 0),0
(3.0, 15.769999999999964), (0, 0),0
(-3.0, 16.770000000000046), (0, 0),0
(-2.0, 16.770000000000046), (0, 0),0
(-1.0, 16.770000000000046), (0, 0),0
(0.0, 16.770000000000046), (0, 0),0
(1.0, 16.770000000000046), (0, 0),0
(2.0, 16.770000000000046), (0, 0),0
(3.0, 16.770000000000046), (0, 0),0
(-3.0, 17.770000000000046), (0, 0),0
(-2.0, 17.770000000000046), (0, 0),0
(-1.0, 17.770000000000046), (0, 0),0
(0.0, 17.770000000000046), (0, 0),0
(1.0, 17.770000000000046), (0, 0),0
(2.0, 17.770000000000046), (0, 0),0
(3.0, 17.770000000000046), (0, 0),0
(-3.0, 18.770000000000046), (0, 0),0
(-2.0, 18.770000000000046), (0, 0),0
(-1.0, 18.770000000000046), (0, 0),0
(0.0, 18.770000000000046), (0, 0),0
(1.0, 18.770000000000046), (0, 0),0
(2.0, 18.770000000000046), (0, 0),0
(3.0, 18.770000000000046), (0, 0),0
