(-3.0, 8.259999999999572), (0, 0),0
(-2.0, 8.259999999999572), (0, 0),0
(-1.0, 8.259999999999572), (0, 0),0
(0.0, 8.259999999999572), (0, 0),0
(1.0, 8.259999999999572), (0, 0),0
(2.0, 8.259999999999572), (0, 0),0
(3.0, 8.259999999999572), (0, 0),0
(-3.0, 9.259999999999572), (0, 0),0
(-2.0, 9.259999999999572), (0, 0),0
(-1.0, 9.259999999999572), (0, 0),0
(0.0, 9.259999999999572), (0, 0),0
(1.0, 9.259999999999572), (0, 0),0
(2.0, 9.259999999999572), (0, 0),0
(3.0, 9.259999999999572), (0, 0),0
(-3.0, 10.259999999999572), (0, 0),0
(-2.0, 10.259999999999572), (0, 0),0
(-1.0, 10.259999999999572), (0, 0),0
(0.0, 10.259999999999572), (0, 0),0
(1.0, 10.259999999999572), (0, 0),0
(2.0, 10.259999999999572), (0, 0),0
(3.0, 10.259999999999572), (0, 0),0
(-3.0, 11.259999999999572), (0, 0),0
(-2.0, 11.259999999999572), (0, 0),0
(-1.0, 11.259999999999572), (0, 0),0
(0.0, 11.259999999999572), (0, 0),0
(1.0, 11.259999999999572), (0, 0),0
(2.0, 11.259999999999572), (0, 0),0
(3.0, 11.259999999999572), (0, 0),0
(-3.0, 12.259999999999572), (0, 0),0
(-2.0, 12.259999999999572), (0, 0),0
(-1.0, 12.259999999999572), (0, 0),0
(0.0, 12.259999999999572), (0, 0),0
(1.0, 12.259999999999572), (0, 0),0
(2.0, 12.259999999999572), (0, 0),0
(3.0, 12.259999999999572), (0, 0),0
(-3.0, 13.259999999999572), (0, 0),0
(-2.0, 13.259999999999572), (0, 0),0
(-1.0, 13.259999999999572), (0, 0),0
(0.0, 13.259999999999572), (0, 0),0
(1.0, 13.259999999999572), (0, 0),0
(2.0, 13.259999999999572), (0, 0),0
(3.0, 13.259999999999572), (0, 0),0
(-3.0, 14.259999999999927), (0, 0),0
(-2.0, 14.259999999999927), (0, 0),0
(-1.0, 14.259999999999927), (0, 0),0
(0.0, 14.259999999999927), (0, 0),0
(1.0, 14.259999999999927), (0, 0),0
(2.0, 14.259999999999927), (0, 0),0
(3.0, 14.259999999999927), (0, 0),0
(-3.0, 15.260000000000282), (0, 0),0
(-2.0, 15.260000000000282), (0, 0),0
(-1.0, 15.260000000000282), (0, 0),0
(0.0, 15.260000000000282), (0, 0),0
(1.0, 15.260000000000282), (0, 0),0
(2.0, 15.260000000000282), (0, 0),0
(3.0, 15.260000000000282), (0, 0),0
(-3.0, 16.260000000000545), (0, 0),0
(-2.0, 16.260000000000545), (0, 0),0
(-1.0, 16.260000000000545), (0, 0),0
(0.0, 16.260000000000545), (0, 0),0
(1.0, 16.260000000000545), (0, 0),0
(2.0, 16.260000000000545), (0, 0),0
(3.0, 16.260000000000545), (0, 0),0
