(-1.221606312677031, -2.7575092233198557), (-0.0032544118638178016, -0.04894547958872819),0.01675752305667433
(0.5690719353051324, -2.032319883428937), (0.0008899443524369123, 0.0020844786255570596),0.01605762685520351
(-1.0014534686895475, 4.500523279436376), (-4.0147626968877186e-05, -6.567026167654064e-07),4.014957463749358e-05
(-0.0015019790071280907, 4.504612380147247), (3.5200790811138906e-06, 8.527766166519151e-07),7.677849700382655e-05
(0.9984604965864498, 4.50327413438939), (3.6627547887763295e-05, -1.960739998865087e-07),3.662892236633297e-05
(-1.6533360181523946, -1.8647390240114465), (-0.0035920031297800225, 0.029711491328206836),0.008320027749364578
(-0.41017889918069483, -2.187612957900361), (-0.0014891253071571426, 0.013946469945096598),0.016949655835752586
(-0.02549673762297955, -0.31733369394802413), (0, 0),0
(-1.996350333530255, 5.711252460894071), (-0.0013267185056055673, 0.00014519157578493733),0.0013289811434102905
(-0.9980528692027455, 5.683939888307006), (-0.00013680329949506027, -0.0002814066737528251),0.0027950484362078143
(0.00021086145313810954, 5.707167863352402), (8.199156909274971e-05, 0.0002814030284244549),0.0028499895030554834
(0.9984824592117753, 5.680940245683504), (7.310057509100887e-05, -0.00030242598478027376),0.0026946602655251173
(1.9967213183484178, 5.71093061135799), (0.001308429660916869, 0.00015723805432370672),0.0013107380552671577
(1.555836122683662, -1.9261952401279712), (0.0074455959483180545, 0.0032030396898676985),0.007545466326760675
(-2.999999999999841, 7.039999999999077), (2.082592789783471e-27, -3.5527136788004694e-14),8.881784197001252e-15
(-1.9999999999998401, 7.039999999999077), (2.0904813988356813e-27, -3.5527136788004694e-14),8.881784197001252e-15
(-0.9999999999998398, 7.039999999999077), (2.0835788659149974e-27, -3.5527136788004694e-14),8.881784197001252e-15
(1.6031620475587265e-13, 7.039999999999077), (2.0815100781910564e-27, -3.5527136788004694e-14),8.881784197001252e-15
(1.0000000000001608, 7.039999999999077), (2.0835788659149974e-27, -3.5527136788004694e-14),8.881784197001252e-15
(2.000000000000162, 7.039999999999077), (2.0924535510987338e-27, -3.5527136788004694e-14),8.881784197001252e-15
(3.000000000000162, 7.039999999999077), (2.0865370943095762e-27, -3.5527136788004694e-14),8.881784197001252e-15
(-3.0000000000000755, 8.039999999999068), (-2.082592789783471e-27, 3.5527136788004694e-14),8.881784197001252e-15
(-2.0000000000000755, 8.039999999999068), (-2.0904813988356813e-27, 3.5527136788004694e-14),8.881784197001252e-15
(-1.0000000000000744, 8.039999999999068), (-2.0835788659149974e-27, 3.5527136788004694e-14),8.881784197001252e-15
(-7.404099555685666e-14, 8.039999999999068), (-2.0815100781910564e-27, 3.5527136788004694e-14),8.881784197001252e-15
(0.9999999999999262, 8.039999999999068), (-2.0835788659149974e-27, 3.5527136788004694e-14),8.881784197001252e-15
(1.9999999999999265, 8.039999999999068), (-2.0924535510987338e-27, 3.5527136788004694e-14),8.881784197001252e-15
(2.999999999999927, 8.039999999999068), (-2.0865370943095762e-27, 3.5527136788004694e-14),8.881784197001252e-15
(-3.0, 9.039999999999068), (0, 0),0
(-2.0, 9.039999999999068), (0, 0),0
(-1.0, 9.039999999999068), (0, 0),0
(0.0, 9.039999999999068), (0, 0),0
(1.0, 9.039999999999068), (0, 0),0
(2.0, 9.039999999999068), (0, 0),0
(3.0, 9.039999999999068), (0, 0),0
(-3.0, 10.039999999999068), (0, 0),0
(-2.0, 10.039999999999068), (0, 0),0
(-1.0, 10.039999999999068), (0, 0),0
(0.0, 10.039999999999068), (0, 0),0
(1.0, 10.039999999999068), (0, 0),0
(2.0, 10.039999999999068), (0, 0),0
(3.0, 10.039999999999068), (0, 0),0
(-3.0, 11.039999999999424), (0, 0),0
(-2.0, 11.039999999999424), (0, 0),0
(-1.0, 11.039999999999424), (0, 0),0
(0.0, 11.039999999999424), (0, 0),0
(1.0, 11.039999999999424), (0, 0),0
(2.0, 11.039999999999424), (0, 0),0
(3.0, 11.039999999999424), (0, 0),0
(-3.0, 12.039999999999779), (0, 0),0
(-2.0, 12.039999999999779), (0, 0),0
(-1.0, 12.039999999999779), (0, 0),0
(0.0, 12.039999999999779), (0, 0),0
(1.0, 12.039999999999779), (0, 0),0
(2.0, 12.039999999999779), (0, 0),0
(3.0, 12.039999999999779), (0, 0),0
(-3.0, 13.040000000000134), (0, 0),0
(-2.0, 13.040000000000134), (0, 0),0
(-1.0, 13.040000000000134), (0, 0),0
(0.0, 13.040000000000134), (0, 0),0
(1.0, 13.040000000000134), (0, 0),0
(2.0, 13.040000000000134), (0, 0),0
(3.0, 13.040000000000134), (0, 0),0
