(-3.0000000000000884, 6.9799999999993805), (0.0, -3.5527136788004694e-14),8.881784197001252e-15
(-2.0000000000000884, 6.9799999999993805), (0.0, -3.5527136788004694e-14),8.881784197001252e-15
(-1.0000000000000877, 6.9799999999993805), (0.0, -3.5527136788004694e-14),8.881784197001252e-15
(-8.728051614781407e-14, 6.9799999999993805), (0.0, -3.5527136788004694e-14),8.881784197001252e-15
(0.999999999999913, 6.9799999999993805), (0.0, -3.5527136788004694e-14),8.881784197001252e-15
(1.9999999999999134, 6.9799999999993805), (0.0, -3.5527136788004694e-14),8.881784197001252e-15
(2.9999999999999134, 6.9799999999993805), (0.0, -3.5527136788004694e-14),8.881784197001252e-15
(-3.0000000000000884, 7.979999999999372), (0.0, 3.5527136788004694e-14),8.881784197001252e-15
(-2.0000000000000884, 7.979999999999372), (0.0, 3.5527136788004694e-14),8.881784197001252e-15
(-1.0000000000000877, 7.979999999999372), (0.0, 3.5527136788004694e-14),8.881784197001252e-15
(-8.728051614781407e-14, 7.979999999999372), (0.0, 3.5527136788004694e-14),8.881784197001252e-15
(0.999999999999913, 7.979999999999372), (0.0, 3.5527136788004694e-14),8.881784197001252e-15
(1.9999999999999134, 7.979999999999372), (0.0, 3.5527136788004694e-14),8.881784197001252e-15
(2.9999999999999134, 7.979999999999372), (0.0, 3.5527136788004694e-14),8.881784197001252e-15
(-3.0, 8.979999999999372), (0, 0),0
(-2.0, 8.979999999999372), (0, 0),0
(-1.0, 8.979999999999372), (0, 0),0
(0.0, 8.979999999999372), (0, 0),0
(1.0, 8.979999999999372), (0, 0),0
(2.0, 8.979999999999372), (0, 0),0
(3.0, 8.979999999999372), (0, 0),0
(-3.0, 9.979999999999372), (0, 0),0
(-2.0, 9.979999999999372), (0, 0),0
(-1.0, 9.979999999999372), (0, 0),0
(0.0, 9.979999999999372), (0, 0),0
(1.0, 9.979999999999372), (0, 0),0
(2.0, 9.979999999999372), (0, 0),0
(3.0, 9.979999999999372), (0, 0),0
(-3.0, 10.979999999999372), (0, 0),0
(-2.0, 10.979999999999372), (0, 0),0
(-1.0, 10.979999999999372), (0, 0),0
(0.0, 10.979999999999372), (0, 0),0
(1.0, 10.979999999999372), (0, 0),0
(2.0, 10.979999999999372), (0, 0),0
(3.0, 10.979999999999372), (0, 0),0
(-3.0, 11.979999999999372), (0, 0),0
(-2.0, 11.979999999999372), (0, 0),0
(-1.0, 11.979999999999372), (0, 0),0
(0.0, 11.979999999999372), (0, 0),0
(1.0, 11.979999999999372), (0, 0),0
(2.0, 11.979999999999372), (0, 0),0
(3.0, 11.979999999999372), (0, 0),0
(-3.0, 12.979999999999727), (0, 0),0
(-2.0, 12.979999999999727), (0, 0),0
(-1.0, 12.979999999999727), (0, 0),0
(0.0, 12.979999999999727), (0, 0),0
(1.0, 12.979999999999727), (0, 0),0
(2.0, 12.979999999999727), (0, 0),0
(3.0, 12.979999999999727), (0, 0),0
(-3.0, 13.980000000000082), (0, 0),0
(-2.0, 13.980000000000082), (0, 0),0
(-1.0, 13.980000000000082), (0, 0),0
(0.0, 13.980000000000082), (0, 0),0
(1.0, 13.980000000000082), (0, 0),0
(2.0, 13.980000000000082), (0, 0),0
(3.0, 13.980000000000082), (0, 0),0
(-3.0, 14.980000000000437), (0, 0),0
(-2.0, 14.980000000000437), (0, 0),0
(-1.0, 14.980000000000437), (0, 0),0
(0.0, 14.980000000000437), (0, 0),0
(1.0, 14.980000000000437), (0, 0),0
(2.0, 14.980000000000437), (0, 0),0
(3.0, 14.980000000000437), (0, 0),0
