(-3.0, 9.289999999999733), (0, 0),0
(-2.0, 9.289999999999733), (0, 0),0
(-1.0, 9.289999999999733), (0, 0),0
(0.0, 9.289999999999733), (0, 0),0
(1.0, 9.289999999999733), (0, 0),0
(2.0, 9.289999999999733), (0, 0),0
(3.0, 9.289999999999733), (0, 0),0
(-3.0, 10.289999999999733), (0, 0),0
(-2.0, 10.289999999999733), (0, 0),0
(-1.0, 10.289999999999733), (0, 0),0
(0.0, 10.289999999999733), (0, 0),0
(1.0, 10.289999999999733), (0, 0),0
(2.0, 10.289999999999733), (0, 0),0
(3.0, 10.289999999999733), (0, 0),0
(-3.0, 11.289999999999733), (0, 0),0
(-2.0, 11.289999999999733), (0, 0),0
(-1.0, 11.289999999999733), (0, 0),0
(0.0, 11.289999999999733), (0, 0),0
(1.0, 11.289999999999733), (0, 0),0
(2.0, 11.289999999999733), (0, 0),0
(3.0, 11.289999999999733), (0, 0),0
(-3.0, 12.289999999999733), (0, 0),0
(-2.0, 12.289999999999733), (0, 0),0
(-1.0, 12.289999999999733), (0, 0),0
(0.0, 12.289999999999733), (0, 0),0
(1.0, 12.289999999999733), (0, 0),0
(2.0, 12.289999999999733), (0, 0),0
(3.0, 12.289999999999733), (0, 0),0
(-3.0, 13.289999999999733), (0, 0),0
(-2.0, 13.289999999999733), (0, 0),0
(-1.0, 13.289999999999733), (0, 0),0
(0.0, 13.289999999999733), (0, 0),0
(1.0, 13.289999999999733), (0, 0),0
(2.0, 13.289999999999733), (0, 0),0
(3.0, 13.289999999999733), (0, 0),0
(-3.0, 14.289999999999733), (0, 0),0
(-2.0, 14.289999999999733), (0, 0),0
(-1.0, 14.289999999999733), (0, 0),0
(0.0, 14.289999999999733), (0, 0),0
(1.0, 14.289999999999733), (0, 0),0
(2.0, 14.289999999999733), (0, 0),0
(3.0, 14.289999999999733), (0, 0),0
(-3.0, 15.290000000000088), (0, 0),0
(-2.0, 15.290000000000088), (0, 0),0
(-1.0, 15.290000000000088), (0, 0),0
(0.0, 15.290000000000088), (0, 0),0
(1.0, 15.290000000000088), (0, 0),0
(2.0, 15.290000000000088), (0, 0),0
(3.0, 15.290000000000088), (0, 0),0
(-3.0, 16.29000000000034), (0, 0),0
(-2.0, 16.29000000000034), (0, 0),0
(-1.0, 16.29000000000034), (0, 0),0
(0.0, 16.29000000000034), (0, 0),0
(1.0, 16.29000000000034), (0, 0),0
(2.0, 16.29000000000034), (0, 0),0
(3.0, 16.29000000000034), (0, 0),0
(-3.0, 17.29000000000034), (0, 0),0
(-2.0, 17.29000000000034), (0, 0),0
(-1.0, 17.29000000000034), (0, 0),0
(0.0, 17.29000000000034), (0, 0),0
(1.0, 17.29000000000034), (0, 0),0
(2.0, 17.29000000000034), (0, 0),0
(3.0, 17.29000000000034), (0, 0),0
