(-3.0, 8.644999999999632), (0, 0),0
(-2.0, 8.644999999999632), (0, 0),0
(-1.0, 8.644999999999632), (0, 0),0
(0.0, 8.644999999999632), (0, 0),0
(1.0, 8.644999999999632), (0, 0),0
(2.0, 8.644999999999632), (0, 0),0
(3.0, 8.644999999999632), (0, 0),0
(-3.0, 9.644999999999632), (0, 0),0
(-2.0, 9.644999999999632), (0, 0),0
(-1.0, 9.644999999999632), (0, 0),0
(0.0, 9.644999999999632), (0, 0),0
(1.0, 9.644999999999632), (0, 0),0
(2.0, 9.644999999999632), (0, 0),0
(3.0, 9.644999999999632), (0, 0),0
(-3.0, 10.644999999999632), (0, 0),0
(-2.0, 10.644999999999632), (0, 0),0
(-1.0, 10.644999999999632), (0, 0),0
(0.0, 10.644999999999632), (0, 0),0
(1.0, 10.644999999999632), (0, 0),0
(2.0, 10.644999999999632), (0, 0),0
(3.0, 10.644999999999632), (0, 0),0
(-3.0, 11.644999999999632), (0, 0),0
(-2.0, 11.644999999999632), (0, 0),0
(-1.0, 11.644999999999632), (0, 0),0
(0.0, 11.644999999999632), (0, 0),0
(1.0, 11.644999999999632), (0, 0),0
(2.0, 11.644999999999632), (0, 0),0
(3.0, 11.644999999999632), (0, 0),0
(-3.0, 12.644999999999632), (0, 0),0
(-2.0, 12.644999999999632), (0, 0),0
(-1.0, 12.644999999999632), (0, 0),0
(0.0, 12.644999999999632), (0, 0),0
(1.0, 12.644999999999632), (0, 0),0
(2.0, 12.644999999999632), (0, 0),0
(3.0, 12.644999999999632), (0, 0),0
(-3.0, 13.644999999999632), (0, 0),0
(-2.0, 13.644999999999632), (0, 0),0
(-1.0, 13.644999999999632), (0, 0),0
(0.0, 13.644999999999632), (0, 0),0
(1.0, 13.644999999999632), (0, 0),0
(2.0, 13.644999999999632), (0, 0),0
(3.0, 13.644999999999632), (0, 0),0
(-3.0, 14.644999999999987), (0, 0),0
(-2.0, 14.644999999999987), (0, 0),0
(-1.0, 14.644999999999987), (0, 0),0
(0.0, 14.644999999999987), (0, 0),0
(1.0, 14.644999999999987), (0, 0),0
(2.0, 14.644999999999987), (0, 0),0
(3.0, 14.644999999999987), (0, 0),0
(-3.0, 15.645000000000342), (0, 0),0
(-2.0, 15.645000000000342), (0, 0),0
(-1.0, 15.645000000000342), (0, 0),0
(0.0, 15.645000000000342), (0, 0),0
(1.0, 15.645000000000342), (0, 0),0
(2.0, 15.645000000000342), (0, 0),0
(3.0, 15.645000000000342), (0, 0),0
(-3.0, 16.64500000000047), (0, 0),0
(-2.0, 16.64500000000047), (0, 0),0
(-1.0, 16.64500000000047), (0, 0),0
(0.0, 16.64500000000047), (0, 0),0
(1.0, 16.64500000000047), (0, 0),0
(2.0, 16.64500000000047), (0, 0),0
(3.0, 16.64500000000047), (0, 0),0
