(-2.779743649053983, 6.705658712562722), (-0.14919067769494088, -0.1640422309023243),0.19133298216146177
(-2.0000000000000937, 6.919999999999371), (0.14919067769494088, 0.16404223090228878),0.19133298216147065
(-1.000000000000093, 6.919999999999371), (0.0, -3.5527136788004694e-14),8.881784197001252e-15
(-9.260958666601482e-14, 6.919999999999371), (0.0, -3.5527136788004694e-14),8.881784197001252e-15
(0.9999999999999076, 6.919999999999371), (0.0, -3.5527136788004694e-14),8.881784197001252e-15
(1.999999999999908, 6.919999999999371), (-0.14919067769494035, 0.16404223090228803),0.19133298216146977
(2.779743649053798, 6.705658712562722), (0.14919067769494035, -0.16404223090232356),0.19133298216146088
(-3.0000000000000937, 7.919999999999362), (0, 0),0
(-2.0000000000000937, 7.919999999999362), (0.0, 3.5527136788004694e-14),8.881784197001252e-15
(-1.000000000000093, 7.919999999999362), (0.0, 3.5527136788004694e-14),8.881784197001252e-15
(-9.260958666601482e-14, 7.919999999999362), (0.0, 3.5527136788004694e-14),8.881784197001252e-15
(0.9999999999999076, 7.919999999999362), (0.0, 3.5527136788004694e-14),8.881784197001252e-15
(1.999999999999908, 7.919999999999362), (0.0, 3.5527136788004694e-14),8.881784197001252e-15
(2.999999999999908, 7.919999999999362), (0, 0),0
(-3.0, 8.919999999999362), (0, 0),0
(-2.0, 8.919999999999362), (0, 0),0
(-1.0, 8.919999999999362), (0, 0),0
(0.0, 8.919999999999362), (0, 0),0
(1.0, 8.919999999999362), (0, 0),0
(2.0, 8.919999999999362), (0, 0),0
(3.0, 8.919999999999362), (0, 0),0
(-3.0, 9.919999999999362), (0, 0),0
(-2.0, 9.919999999999362), (0, 0),0
(-1.0, 9.919999999999362), (0, 0),0
(0.0, 9.919999999999362), (0, 0),0
(1.0, 9.919999999999362), (0, 0),0
(2.0, 9.919999999999362), (0, 0),0
(3.0, 9.919999999999362), (0, 0),0
(-3.0, 10.919999999999362), (0, 0),0
(-2.0, 10.919999999999362), (0, 0),0
(-1.0, 10.919999999999362), (0, 0),0
(0.0, 10.919999999999362), (0, 0),0
(1.0, 10.919999999999362), (0, 0),0
(2.0, 10.919999999999362), (0, 0),0
(3.0, 10.919999999999362), (0, 0),0
(-3.0, 11.919999999999362), (0, 0),0
(-2.0, 11.919999999999362), (0, 0),0
(-1.0, 11.919999999999362), (0, 0),0
(0.0, 11.919999999999362), (0, 0),0
(1.0, 11.919999999999362), (0, 0),0
(2.0, 11.919999999999362), (0, 0),0
(3.0, 11.919999999999362), (0, 0),0
(-3.0, 12.919999999999717), (0, 0),0
(-2.0, 12.919999999999717), (0, 0),0
(-1.0, 12.919999999999717), (0, 0),0
(0.0, 12.919999999999717), (0, 0),0
(1.0, 12.919999999999717), (0, 0),0
(2.0, 12.919999999999717), (0, 0),0
(3.0, 12.919999999999717), (0, 0),0
(-3.0, 13.920000000000073), (0, 0),0
(-2.0, 13.920000000000073), (0, 0),0
(-1.0, 13.920000000000073), (0, 0),0
(0.0, 13.920000000000073), (0, 0),0
(1.0, 13.920000000000073), (0, 0),0
(2.0, 13.920000000000073), (0, 0),0
(3.0, 13.920000000000073), (0, 0),0
(-3.0, 14.920000000000428), (0, 0),0
(-2.0, 14.920000000000428), (0, 0),0
(-1.0, 14.920000000000428), (0, 0),0
(0.0, 14.920000000000428), (0, 0),0
(1.0, 14.920000000000428), (0, 0),0
(2.0, 14.920000000000428), (0, 0),0
(3.0, 14.920000000000428), (0, 0),0
