(-3.0, 9.614999999999783), (0, 0),0
(-2.0, 9.614999999999783), (0, 0),0
(-1.0, 9.614999999999783), (0, 0),0
(0.0, 9.614999999999783), (0, 0),0
(1.0, 9.614999999999783), (0, 0),0
(2.0, 9.614999999999783), (0, 0),0
(3.0, 9.614999999999783), (0, 0),0
(-3.0, 10.614999999999783), (0, 0),0
(-2.0, 10.614999999999783), (0, 0),0
(-1.0, 10.614999999999783), (0, 0),0
(0.0, 10.614999999999783), (0, 0),0
(1.0, 10.614999999999783), (0, 0),0
(2.0, 10.614999999999783), (0, 0),0
(3.0, 10.614999999999783), (0, 0),0
(-3.0, 11.614999999999783), (0, 0),0
(-2.0, 11.614999999999783), (0, 0),0
(-1.0, 11.614999999999783), (0, 0),0
(0.0, 11.614999999999783), (0, 0),0
(1.0, 11.614999999999783), (0, 0),0
(2.0, 11.614999999999783), (0, 0),0
(3.0, 11.614999999999783), (0, 0),0
(-3.0, 12.614999999999783), (0, 0),0
(-2.0, 12.614999999999783), (0, 0),0
(-1.0, 12.614999999999783), (0, 0),0
(0.0, 12.614999999999783), (0, 0),0
(1.0, 12.614999999999783), (0, 0),0
(2.0, 12.614999999999783), (0, 0),0
(3.0, 12.614999999999783), (0, 0),0
(-3.0, 13.614999999999783), (0, 0),0
(-2.0, 13.614999999999783), (0, 0),0
(-1.0, 13.614999999999783), (0, 0),0
(0.0, 13.614999999999783), (0, 0),0
(1.0, 13.614999999999783), (0, 0),0
(2.0, 13.614999999999783), (0, 0),0
(3.0, 13.614999999999783), (0, 0),0
(-3.0, 14.614999999999783), (0, 0),0
(-2.0, 14.614999999999783), (0, 0),0
(-1.0, 14.614999999999783), (0, 0),0
(0.0, 14.614999999999783), (0, 0),0
(1.0, 14.614999999999783), (0, 0),0
(2.0, 14.614999999999783), (0, 0),0
(3.0, 14.614999999999783), (0, 0),0
(-3.0, 15.615000000000139), (0, 0),0
(-2.0, 15.615000000000139), (0, 0),0
(-1.0, 15.615000000000139), (0, 0),0
(0.0, 15.615000000000139), (0, 0),0
(1.0, 15.615000000000139), (0, 0),0
(2.0, 15.615000000000139), (0, 0),0
(3.0, 15.615000000000139), (0, 0),0
(-3.0, 16.615000000000276), (0, 0),0
(-2.0, 16.615000000000276), (0, 0),0
(-1.0, 16.615000000000276), (0, 0),0
(0.0, 16.615000000000276), (0, 0),0
(1.0, 16.615000000000276), (0, 0),0
(2.0, 16.615000000000276), (0, 0),0
(3.0, 16.615000000000276), (0, 0),0
(-3.0, 17.615000000000276), (0, 0),0
(-2.0, 17.615000000000276), (0, 0),0
(-1.0, 17.615000000000276), (0, 0),0
(0.0, 17.615000000000276), (0, 0),0
(1.0, 17.615000000000276), (0, 0),0
(2.0, 17.615000000000276), (0, 0),0
(3.0, 17.615000000000276), (0, 0),0
