(-0.6930903774123474, -1.2207488780479339), (0.09532011239659376, -0.6152088595433792),0.5203858400275583
(0.6319707087719323, -0.8402253317949483), (-0.07384165377635574, 0.22778133927566888),0.5889305774762031
(-0.9955197738734324, 4.991344309637166), (-0.005583825980430897, -0.0002266332134221746),0.005615648937977502
(-0.001186609157845029, 5.001433669563563), (-0.0008303036107003845, 0.00041123405587042657),0.012071624170518103
(0.9923316990911704, 4.994285220421527), (0.006414129591131281, -0.000184600842448252),0.006455975232540601
(-1.3798272017679147, -1.1207276909678434), (-0.21015348937090234, 0.12243293634719978),0.3060175046941891
(-0.15740782524936803, -0.6460652121629372), (-0.032854388489481565, 0.6380804784875709),0.4014620541243149
(-0.02549673762297955, 1.8823966055451629), (0, 0),0
(-1.967143903778579, 6.224864093949022), (-0.01435179456132369, -0.00019000776615276795),0.01456398276671611
(-0.9817132842009004, 6.228125697749237), (-0.0021962535095209103, -0.0015160029588150146),0.03140101172275611
(0.00112330258944707, 6.253456929426483), (-0.002180420631421622, 0.0038039835195532957),0.03593767515413204
(0.9816382290497364, 6.225997481551952), (0.004443336633458923, -0.0020344377558639847),0.033595899464806456
(1.967142366573872, 6.2249016911309), (0.0142851320688073, -6.35350387215284e-05),0.014495253266714414
(1.18326264342659, -1.0723381199222835), (0.22152941924014588, -0.3730858945670603),0.4018368586852574
(-2.999999999999884, 7.524999999999153), (1.3173977117190897e-27, -3.5527136788004694e-14),8.881784197001252e-15
(-1.9999999999998832, 7.524999999999153), (1.3252863207712998e-27, -3.5527136788004694e-14),8.881784197001252e-15
(-0.9999999999998829, 7.524999999999153), (1.318383787850616e-27, -3.5527136788004694e-14),8.881784197001252e-15
(1.1723955140041658e-13, 7.524999999999153), (1.3163150001266748e-27, -3.5527136788004694e-14),8.881784197001252e-15
(1.0000000000001177, 7.524999999999153), (1.318383787850616e-27, -3.5527136788004694e-14),8.881784197001252e-15
(2.000000000000119, 7.524999999999153), (1.3272584730343524e-27, -3.5527136788004694e-14),8.881784197001252e-15
(3.000000000000119, 7.524999999999153), (1.3213420162451948e-27, -3.5527136788004694e-14),8.881784197001252e-15
(-3.0000000000000324, 8.524999999999144), (-1.3173977117190897e-27, 3.5527136788004694e-14),8.881784197001252e-15
(-2.0000000000000324, 8.524999999999144), (-1.3252863207712998e-27, 3.5527136788004694e-14),8.881784197001252e-15
(-1.0000000000000313, 8.524999999999144), (-1.318383787850616e-27, 3.5527136788004694e-14),8.881784197001252e-15
(-3.0964342201400584e-14, 8.524999999999144), (-1.3163150001266748e-27, 3.5527136788004694e-14),8.881784197001252e-15
(0.9999999999999692, 8.524999999999144), (-1.318383787850616e-27, 3.5527136788004694e-14),8.881784197001252e-15
(1.9999999999999696, 8.524999999999144), (-1.3272584730343524e-27, 3.5527136788004694e-14),8.881784197001252e-15
(2.9999999999999702, 8.524999999999144), (-1.3213420162451948e-27, 3.5527136788004694e-14),8.881784197001252e-15
(-3.0, 9.524999999999144), (0, 0),0
(-2.0, 9.524999999999144), (0, 0),0
(-1.0, 9.524999999999144), (0, 0),0
(0.0, 9.524999999999144), (0, 0),0
(1.0, 9.524999999999144), (0, 0),0
(2.0, 9.524999999999144), (0, 0),0
(3.0, 9.524999999999144), (0, 0),0
(-3.0, 10.524999999999144), (0, 0),0
(-2.0, 10.524999999999144), (0, 0),0
(-1.0, 10.524999999999144), (0, 0),0
(0.0, 10.524999999999144), (0, 0),0
(1.0, 10.524999999999144), (0, 0),0
(2.0, 10.524999999999144), (0, 0),0
(3.0, 10.524999999999144), (0, 0),0
(-3.0, 11.5249999999995), (0, 0),0
(-2.0, 11.5249999999995), (0, 0),0
(-1.0, 11.5249999999995), (0, 0),0
(0.0, 11.5249999999995), (0, 0),0
(1.0, 11.5249999999995), (0, 0),0
(2.0, 11.5249999999995), (0, 0),0
(3.0, 11.5249999999995), (0, 0),0
(-3.0, 12.524999999999855), (0, 0),0
(-2.0, 12.524999999999855), (0, 0),0
(-1.0, 12.524999999999855), (0, 0),0
(0.0, 12.524999999999855), (0, 0),0
(1.0, 12.524999999999855), (0, 0),0
(2.0, 12.524999999999855), (0, 0),0
(3.0, 12.524999999999855), (0, 0),0
(-3.0, 13.52500000000021), (0, 0),0
(-2.0, 13.52500000000021), (0, 0),0
(-1.0, 13.52500000000021), (0, 0),0
(0.0, 13.52500000000021), (0, 0),0
(1.0, 13.52500000000021), (0, 0),0
(2.0, 13.52500000000021), (0, 0),0
(3.0, 13.52500000000021), (0, 0),0
