(-3.000000000000044, 7.479999999999459), (0.0, -3.5527136788004694e-14),8.881784197001252e-15
(-2.000000000000044, 7.479999999999459), (0.0, -3.5527136788004694e-14),8.881784197001252e-15
(-1.0000000000000433, 7.479999999999459), (0.0, -3.5527136788004694e-14),8.881784197001252e-15
(-4.287159516280781e-14, 7.479999999999459), (0.0, -3.5527136788004694e-14),8.881784197001252e-15
(0.9999999999999574, 7.479999999999459), (0.0, -3.5527136788004694e-14),8.881784197001252e-15
(1.9999999999999578, 7.479999999999459), (0.0, -3.5527136788004694e-14),8.881784197001252e-15
(2.999999999999958, 7.479999999999459), (0.0, -3.5527136788004694e-14),8.881784197001252e-15
(-3.000000000000044, 8.47999999999945), (0.0, 3.5527136788004694e-14),8.881784197001252e-15
(-2.000000000000044, 8.47999999999945), (0.0, 3.5527136788004694e-14),8.881784197001252e-15
(-1.0000000000000433, 8.47999999999945), (0.0, 3.5527136788004694e-14),8.881784197001252e-15
(-4.287159516280781e-14, 8.47999999999945), (0.0, 3.5527136788004694e-14),8.881784197001252e-15
(0.9999999999999574, 8.47999999999945), (0.0, 3.5527136788004694e-14),8.881784197001252e-15
(1.9999999999999578, 8.47999999999945), (0.0, 3.5527136788004694e-14),8.881784197001252e-15
(2.999999999999958, 8.47999999999945), (0.0, 3.5527136788004694e-14),8.881784197001252e-15
(-3.0, 9.47999999999945), (0, 0),0
(-2.0, 9.47999999999945), (0, 0),0
(-1.0, 9.47999999999945), (0, 0),0
(0.0, 9.47999999999945), (0, 0),0
(1.0, 9.47999999999945), (0, 0),0
(2.0, 9.47999999999945), (0, 0),0
(3.0, 9.47999999999945), (0, 0),0
(-3.0, 10.47999999999945), (0, 0),0
(-2.0, 10.47999999999945), (0, 0),0
(-1.0, 10.47999999999945), (0, 0),0
(0.0, 10.47999999999945), (0, 0),0
(1.0, 10.47999999999945), (0, 0),0
(2.0, 10.47999999999945), (0, 0),0
(3.0, 10.47999999999945), (0, 0),0
(-3.0, 11.47999999999945), (0, 0),0
(-2.0, 11.47999999999945), (0, 0),0
(-1.0, 11.47999999999945), (0, 0),0
(0.0, 11.47999999999945), (0, 0),0
(1.0, 11.47999999999945), (0, 0),0
(2.0, 11.47999999999945), (0, 0),0
(3.0, 11.47999999999945), (0, 0),0
(-3.0, 12.47999999999945), (0, 0),0
(-2.0, 12.47999999999945), (0, 0),0
(-1.0, 12.47999999999945), (0, 0),0
(0.0, 12.47999999999945), (0, 0),0
(1.0, 12.47999999999945), (0, 0),0
(2.0, 12.47999999999945), (0, 0),0
(3.0, 12.47999999999945), (0, 0),0
(-3.0, 13.479999999999805), (0, 0),0
(-2.0, 13.479999999999805), (0, 0),0
(-1.0, 13.479999999999805), (0, 0),0
(0.0, 13.479999999999805), (0, 0),0
(1.0, 13.479999999999805), (0, 0),0
(2.0, 13.479999999999805), (0, 0),0
(3.0, 13.479999999999805), (0, 0),0
(-3.0, 14.48000000000016), (0, 0),0
(-2.0, 14.48000000000016), (0, 0),0
(-1.0, 14.48000000000016), (0, 0),0
(0.0, 14.48000000000016), (0, 0),0
(1.0, 14.48000000000016), (0, 0),0
(2.0, 14.48000000000016), (0, 0),0
(3.0, 14.48000000000016), (0, 0),0
(-3.0, 15.480000000000516), (0, 0),0
(-2.0, 15.480000000000516), (0, 0),0
(-1.0, 15.480000000000516), (0, 0),0
(0.0, 15.480000000000516), (0, 0),0
(1.0, 15.480000000000516), (0, 0),0
(2.0, 15.480000000000516), (0, 0),0
(3.0, 15.480000000000516), (0, 0),0
