(-3.0, 10.54999999999993), (0, 0),0
(-2.0, 10.54999999999993), (0, 0),0
(-1.0, 10.54999999999993), (0, 0),0
(0.0, 10.54999999999993), (0, 0),0
(1.0, 10.54999999999993), (0, 0),0
(2.0, 10.54999999999993), (0, 0),0
(3.0, 10.54999999999993), (0, 0),0
(-3.0, 11.54999999999993), (0, 0),0
(-2.0, 11.54999999999993), (0, 0),0
(-1.0, 11.54999999999993), (0, 0),0
(0.0, 11.54999999999993), (0, 0),0
(1.0, 11.54999999999993), (0, 0),0
(2.0, 11.54999999999993), (0, 0),0
(3.0, 11.54999999999993), (0, 0),0
(-3.0, 12.54999999999993), (0, 0),0
(-2.0, 12.54999999999993), (0, 0),0
(-1.0, 12.54999999999993), (0, 0),0
(0.0, 12.54999999999993), (0, 0),0
(1.0, 12.54999999999993), (0, 0),0
(2.0, 12.54999999999993), (0, 0),0
(3.0, 12.54999999999993), (0, 0),0
(-3.0, 13.54999999999993), (0, 0),0
(-2.0, 13.54999999999993), (0, 0),0
(-1.0, 13.54999999999993), (0, 0),0
(0.0, 13.54999999999993), (0, 0),0
(1.0, 13.54999999999993), (0, 0),0
(2.0, 13.54999999999993), (0, 0),0
(3.0, 13.54999999999993), (0, 0),0
(-3.0, 14.54999999999993), (0, 0),0
(-2.0, 14.54999999999993), (0, 0),0
(-1.0, 14.54999999999993), (0, 0),0
(0.0, 14.54999999999993), (0, 0),0
(1.0, 14.54999999999993), (0, 0),0
(2.0, 14.54999999999993), (0, 0),0
(3.0, 14.54999999999993), (0, 0),0
(-3.0, 15.54999999999993), (0, 0),0
(-2.0, 15.54999999999993), (0, 0),0
(-1.0, 15.54999999999993), (0, 0),0
(0.0, 15.54999999999993), (0, 0),0
(1.0, 15.54999999999993), (0, 0),0
(2.0, 15.54999999999993), (0, 0),0
(3.0, 15.54999999999993), (0, 0),0
(-3.0, 16.55000000000009), (0, 0),0
(-2.0, 16.55000000000009), (0, 0),0
(-1.0, 16.55000000000009), (0, 0),0
(0.0, 16.55000000000009), (0, 0),0
(1.0, 16.55000000000009), (0, 0),0
(2.0, 16.55000000000009), (0, 0),0
(3.0, 16.55000000000009), (0, 0),0
(-3.0, 17.55000000000009), (0, 0),0
(-2.0, 17.55000000000009), (0, 0),0
(-1.0, 17.55000000000009), (0, 0),0
(0.0, 17.55000000000009), (0, 0),0
(1.0, 17.55000000000009), (0, 0),0
(2.0, 17.55000000000009), (0, 0),0
(3.0, 17.55000000000009), (0, 0),0
(-3.0, 18.55000000000009), (0, 0),0
(-2.0, 18.55000000000009), (0, 0),0
(-1.0, 18.55000000000009), (0, 0),0
(0.0, 18.55000000000009), (0, 0),0
(1.0, 18.55000000000009), (0, 0),0
(2.0, 18.55000000000009), (0, 0),0
(3.0, 18.55000000000009), (0, 0),0
