(-2.0757395698300773, 5.406215280574031), (-0.004240256966266391, -0.09616222172977826),0.025038568200617117
(-1.9063905506572525, 6.366356261472933), (-0.03856773146914231, 0.07608908678086909),0.07017718910120574
(-0.9580233302743526, 6.477531207386308), (0.004145232171453121, 0.015592143899446543),0.08544196262185744
(0.001270728549373486, 6.505326613784941), (-0.010681486601091826, 0.009943464534350925),0.09237827680511734
(0.9488329825511443, 6.479102512515814), (0.014129308529915105, 0.010729711116809024),0.08887609802401875
(1.9057303064858053, 6.369104734537833), (0.03127221507115608, 0.07388046545317986),0.0602098532035098
(2.0741600314991233, 5.407147347755496), (0.00394271926397622, -0.09007265005487719),0.023408690263339582
(-3.0000000000001106, 7.7049999999993375), (-1.1044052673094165e-27, -3.5527136788004694e-14),8.881784197001252e-15
(-2.00000000000011, 7.7049999999993375), (-1.106377419572469e-27, -3.5527136788004694e-14),8.881784197001252e-15
(-1.0000000000001092, 7.7049999999993375), (-1.1014470389148377e-27, -3.5527136788004694e-14),8.881784197001252e-15
(-1.0864120714160209e-13, 7.7049999999993375), (-1.0979513990285774e-27, -3.5527136788004694e-14),8.881784197001252e-15
(0.9999999999998916, 7.7049999999993375), (-1.098488810520259e-27, -3.5527136788004694e-14),8.881784197001252e-15
(1.9999999999998923, 7.7049999999993375), (-1.102433115046364e-27, -3.5527136788004694e-14),8.881784197001252e-15
(2.999999999999893, 7.7049999999993375), (-1.0965166582572064e-27, -3.5527136788004694e-14),8.881784197001252e-15
(-2.9999999999999862, 8.704999999999329), (1.1044052673094165e-27, 3.5527136788004694e-14),8.881784197001252e-15
(-1.9999999999999856, 8.704999999999329), (1.106377419572469e-27, 3.5527136788004694e-14),8.881784197001252e-15
(-0.9999999999999852, 8.704999999999329), (1.1014470389148377e-27, 3.5527136788004694e-14),8.881784197001252e-15
(1.4977130646798326e-14, 8.704999999999329), (1.0979513990285774e-27, 3.5527136788004694e-14),8.881784197001252e-15
(1.0000000000000153, 8.704999999999329), (1.098488810520259e-27, 3.5527136788004694e-14),8.881784197001252e-15
(2.0000000000000164, 8.704999999999329), (1.102433115046364e-27, 3.5527136788004694e-14),8.881784197001252e-15
(3.0000000000000164, 8.704999999999329), (1.0965166582572064e-27, 3.5527136788004694e-14),8.881784197001252e-15
(-3.0, 9.704999999999329), (0, 0),0
(-2.0, 9.704999999999329), (0, 0),0
(-1.0, 9.704999999999329), (0, 0),0
(0.0, 9.704999999999329), (0, 0),0
(1.0, 9.704999999999329), (0, 0),0
(2.0, 9.704999999999329), (0, 0),0
(3.0, 9.704999999999329), (0, 0),0
(-3.0, 10.704999999999329), (0, 0),0
(-2.0, 10.704999999999329), (0, 0),0
(-1.0, 10.704999999999329), (0, 0),0
(0.0, 10.704999999999329), (0, 0),0
(1.0, 10.704999999999329), (0, 0),0
(2.0, 10.704999999999329), (0, 0),0
(3.0, 10.704999999999329), (0, 0),0
(-3.0, 11.704999999999329), (0, 0),0
(-2.0, 11.704999999999329), (0, 0),0
(-1.0, 11.704999999999329), (0, 0),0
(0.0, 11.704999999999329), (0, 0),0
(1.0, 11.704999999999329), (0, 0),0
(2.0, 11.704999999999329), (0, 0),0
(3.0, 11.704999999999329), (0, 0),0
(-3.0, 12.704999999999684), (0, 0),0
(-2.0, 12.704999999999684), (0, 0),0
(-1.0, 12.704999999999684), (0, 0),0
(0.0, 12.704999999999684), (0, 0),0
(1.0, 12.704999999999684), (0, 0),0
(2.0, 12.704999999999684), (0, 0),0
(3.0, 12.704999999999684), (0, 0),0
(-3.0, 13.70500000000004), (0, 0),0
(-2.0, 13.70500000000004), (0, 0),0
(-1.0, 13.70500000000004), (0, 0),0
(0.0, 13.70500000000004), (0, 0),0
(1.0, 13.70500000000004), (0, 0),0
(2.0, 13.70500000000004), (0, 0),0
(3.0, 13.70500000000004), (0, 0),0
(-3.0, 14.705000000000394), (0, 0),0
(-2.0, 14.705000000000394), (0, 0),0
(-1.0, 14.705000000000394), (0, 0),0
(0.0, 14.705000000000394), (0, 0),0
(1.0, 14.705000000000394), (0, 0),0
(2.0, 14.705000000000394), (0, 0),0
(3.0, 14.705000000000394), (0, 0),0
