(-1.4278817359547742, 4.3298384778424), (0, 0),0
(-1.9894131408427875, 5.870364292630304), (-0.005011300745572398, -0.0012158261015100633),0.005045972241376706
(-0.9962842638188522, 5.93060174754238), (-6.85667644412984e-05, 0.0007110656776961866),0.010153493642616862
(-0.0016986104371052133, 5.955308468481979), (-0.0001920324609164985, 0.000980576825483743),0.01040886750016834
(0.9927469270832725, 5.932869997535606), (0.0009365775620793224, 0.0005322734511658597),0.009663011785569942
(1.9867071982999396, 5.87508875492896), (0.004335322408850872, -0.0010080898528357259),0.004361665686641758
(1.4254960910340317, 4.331882209880134), (0, 0),0
(-3.0000000000001474, 7.289999999999273), (-1.7591598186428563e-27, -3.5527136788004694e-14),8.881784197001252e-15
(-2.000000000000147, 7.289999999999273), (-1.761131970905909e-27, -3.5527136788004694e-14),8.881784197001252e-15
(-1.000000000000146, 7.289999999999273), (-1.7562015902482775e-27, -3.5527136788004694e-14),8.881784197001252e-15
(-1.455006115591573e-13, 7.289999999999273), (-1.7527059503620172e-27, -3.5527136788004694e-14),8.881784197001252e-15
(0.9999999999998548, 7.289999999999273), (-1.7532433618536987e-27, -3.5527136788004694e-14),8.881784197001252e-15
(1.9999999999998554, 7.289999999999273), (-1.7571876663798038e-27, -3.5527136788004694e-14),8.881784197001252e-15
(2.999999999999856, 7.289999999999273), (-1.7512712095906462e-27, -3.5527136788004694e-14),8.881784197001252e-15
(-2.9999999999999494, 8.289999999999264), (1.7591598186428563e-27, 3.5527136788004694e-14),8.881784197001252e-15
(-1.9999999999999487, 8.289999999999264), (1.761131970905909e-27, 3.5527136788004694e-14),8.881784197001252e-15
(-0.9999999999999484, 8.289999999999264), (1.7562015902482775e-27, 3.5527136788004694e-14),8.881784197001252e-15
(5.1836535064353527e-14, 8.289999999999264), (1.7527059503620172e-27, 3.5527136788004694e-14),8.881784197001252e-15
(1.0000000000000522, 8.289999999999264), (1.7532433618536987e-27, 3.5527136788004694e-14),8.881784197001252e-15
(2.0000000000000533, 8.289999999999264), (1.7571876663798038e-27, 3.5527136788004694e-14),8.881784197001252e-15
(3.0000000000000533, 8.289999999999264), (1.7512712095906462e-27, 3.5527136788004694e-14),8.881784197001252e-15
(-3.0, 9.289999999999264), (0, 0),0
(-2.0, 9.289999999999264), (0, 0),0
(-1.0, 9.289999999999264), (0, 0),0
(0.0, 9.289999999999264), (0, 0),0
(1.0, 9.289999999999264), (0, 0),0
(2.0, 9.289999999999264), (0, 0),0
(3.0, 9.289999999999264), (0, 0),0
(-3.0, 10.289999999999264), (0, 0),0
(-2.0, 10.289999999999264), (0, 0),0
(-1.0, 10.289999999999264), (0, 0),0
(0.0, 10.289999999999264), (0, 0),0
(1.0, 10.289999999999264), (0, 0),0
(2.0, 10.289999999999264), (0, 0),0
(3.0, 10.289999999999264), (0, 0),0
(-3.0, 11.289999999999264), (0, 0),0
(-2.0, 11.289999999999264), (0, 0),0
(-1.0, 11.289999999999264), (0, 0),0
(0.0, 11.289999999999264), (0, 0),0
(1.0, 11.289999999999264), (0, 0),0
(2.0, 11.289999999999264), (0, 0),0
(3.0, 11.289999999999264), (0, 0),0
(-3.0, 12.289999999999619), (0, 0),0
(-2.0, 12.289999999999619), (0, 0),0
(-1.0, 12.289999999999619), (0, 0),0
(0.0, 12.289999999999619), (0, 0),0
(1.0, 12.289999999999619), (0, 0),0
(2.0, 12.289999999999619), (0, 0),0
(3.0, 12.289999999999619), (0, 0),0
(-3.0, 13.289999999999974), (0, 0),0
(-2.0, 13.289999999999974), (0, 0),0
(-1.0, 13.289999999999974), (0, 0),0
(0.0, 13.289999999999974), (0, 0),0
(1.0, 13.289999999999974), (0, 0),0
(2.0, 13.289999999999974), (0, 0),0
(3.0, 13.289999999999974), (0, 0),0
(-3.0, 14.29000000000033), (0, 0),0
(-2.0, 14.29000000000033), (0, 0),0
(-1.0, 14.29000000000033), (0, 0),0
(0.0, 14.29000000000033), (0, 0),0
(1.0, 14.29000000000033), (0, 0),0
(2.0, 14.29000000000033), (0, 0),0
(3.0, 14.29000000000033), (0, 0),0
