(-3.0, 9.109999999999705), (0, 0),0
(-2.0, 9.109999999999705), (0, 0),0
(-1.0, 9.109999999999705), (0, 0),0
(0.0, 9.109999999999705), (0, 0),0
(1.0, 9.109999999999705), (0, 0),0
(2.0, 9.109999999999705), (0, 0),0
(3.0, 9.109999999999705), (0, 0),0
(-3.0, 10.109999999999705), (0, 0),0
(-2.0, 10.109999999999705), (0, 0),0
(-1.0, 10.109999999999705), (0, 0),0
(0.0, 10.109999999999705), (0, 0),0
(1.0, 10.109999999999705), (0, 0),0
(2.0, 10.109999999999705), (0, 0),0
(3.0, 10.109999999999705), (0, 0),0
(-3.0, 11.109999999999705), (0, 0),0
(-2.0, 11.109999999999705), (0, 0),0
(-1.0, 11.109999999999705), (0, 0),0
(0.0, 11.109999999999705), (0, 0),0
(1.0, 11.109999999999705), (0, 0),0
(2.0, 11.109999999999705), (0, 0),0
(3.0, 11.109999999999705), (0, 0),0
(-3.0, 12.109999999999705), (0, 0),0
(-2.0, 12.109999999999705), (0, 0),0
(-1.0, 12.109999999999705), (0, 0),0
(0.0, 12.109999999999705), (0, 0),0
(1.0, 12.109999999999705), (0, 0),0
(2.0, 12.109999999999705), (0, 0),0
(3.0, 12.109999999999705), (0, 0),0
(-3.0, 13.109999999999705), (0, 0),0
(-2.0, 13.109999999999705), (0, 0),0
(-1.0, 13.109999999999705), (0, 0),0
(0.0, 13.109999999999705), (0, 0),0
(1.0, 13.109999999999705), (0, 0),0
(2.0, 13.109999999999705), (0, 0),0
(3.0, 13.109999999999705), (0, 0),0
(-3.0, 14.109999999999705), (0, 0),0
(-2.0, 14.109999999999705), (0, 0),0
(-1.0, 14.109999999999705), (0, 0),0
(0.0, 14.109999999999705), (0, 0),0
(1.0, 14.109999999999705), (0, 0),0
(2.0, 14.109999999999705), (0, 0),0
(3.0, 14.109999999999705), (0, 0),0
(-3.0, 15.11000000000006), (0, 0),0
(-2.0, 15.11000000000006), (0, 0),0
(-1.0, 15.11000000000006), (0, 0),0
(0.0, 15.11000000000006), (0, 0),0
(1.0, 15.11000000000006), (0, 0),0
(2.0, 15.11000000000006), (0, 0),0
(3.0, 15.11000000000006), (0, 0),0
(-3.0, 16.110000000000376), (0, 0),0
(-2.0, 16.110000000000376), (0, 0),0
(-1.0, 16.110000000000376), (0, 0),0
(0.0, 16.110000000000376), (0, 0),0
(1.0, 16.110000000000376), (0, 0),0
(2.0, 16.110000000000376), (0, 0),0
(3.0, 16.110000000000376), (0, 0),0
(-3.0, 17.110000000000376), (0, 0),0
(-2.0, 17.110000000000376), (0, 0),0
(-1.0, 17.110000000000376), (0, 0),0
(0.0, 17.110000000000376), (0, 0),0
(1.0, 17.110000000000376), (0, 0),0
(2.0, 17.110000000000376), (0, 0),0
(3.0, 17.110000000000376), (0, 0),0
