(-3.0, 8.749999999999648), (0, 0),0
(-2.0, 8.749999999999648), (0, 0),0
(-1.0, 8.749999999999648), (0, 0),0
(0.0, 8.749999999999648), (0, 0),0
(1.0, 8.749999999999648), (0, 0),0
(2.0, 8.749999999999648), (0, 0),0
(3.0, 8.749999999999648), (0, 0),0
(-3.0, 9.749999999999648), (0, 0),0
(-2.0, 9.749999999999648), (0, 0),0
(-1.0, 9.749999999999648), (0, 0),0
(0.0, 9.749999999999648), (0, 0),0
(1.0, 9.749999999999648), (0, 0),0
(2.0, 9.749999999999648), (0, 0),0
(3.0, 9.749999999999648), (0, 0),0
(-3.0, 10.749999999999648), (0, 0),0
(-2.0, 10.749999999999648), (0, 0),0
(-1.0, 10.749999999999648), (0, 0),0
(0.0, 10.749999999999648), (0, 0),0
(1.0, 10.749999999999648), (0, 0),0
(2.0, 10.749999999999648), (0, 0),0
(3.0, 10.749999999999648), (0, 0),0
(-3.0, 11.749999999999648), (0, 0),0
(-2.0, 11.749999999999648), (0, 0),0
(-1.0, 11.749999999999648), (0, 0),0
(0.0, 11.749999999999648), (0, 0),0
(1.0, 11.749999999999648), (0, 0),0
(2.0, 11.749999999999648), (0, 0),0
(3.0, 11.749999999999648), (0, 0),0
(-3.0, 12.749999999999648), (0, 0),0
(-2.0, 12.749999999999648), (0, 0),0
(-1.0, 12.749999999999648), (0, 0),0
(0.0, 12.749999999999648), (0, 0),0
(1.0, 12.749999999999648), (0, 0),0
(2.0, 12.749999999999648), (0, 0),0
(3.0, 12.749999999999648), (0, 0),0
(-3.0, 13.749999999999648), (0, 0),0
(-2.0, 13.749999999999648), (0, 0),0
(-1.0, 13.749999999999648), (0, 0),0
(0.0, 13.749999999999648), (0, 0),0
(1.0, 13.749999999999648), (0, 0),0
(2.0, 13.749999999999648), (0, 0),0
(3.0, 13.749999999999648), (0, 0),0
(-3.0, 14.750000000000004), (0, 0),0
(-2.0, 14.750000000000004), (0, 0),0
(-1.0, 14.750000000000004), (0, 0),0
(0.0, 14.750000000000004), (0, 0),0
(1.0, 14.750000000000004), (0, 0),0
(2.0, 14.750000000000004), (0, 0),0
(3.0, 14.750000000000004), (0, 0),0
(-3.0, 15.750000000000359), (0, 0),0
(-2.0, 15.750000000000359), (0, 0),0
(-1.0, 15.750000000000359), (0, 0),0
(0.0, 15.750000000000359), (0, 0),0
(1.0, 15.750000000000359), (0, 0),0
(2.0, 15.750000000000359), (0, 0),0
(3.0, 15.750000000000359), (0, 0),0
(-3.0, 16.750000000000448), (0, 0),0
(-2.0, 16.750000000000448), (0, 0),0
(-1.0, 16.750000000000448), (0, 0),0
(0.0, 16.750000000000448), (0, 0),0
(1.0, 16.750000000000448), (0, 0),0
(2.0, 16.750000000000448), (0, 0),0
(3.0, 16.750000000000448), (0, 0),0
