(-2.6161966208104435, 6.38065415538989), (-0.13151451334318875, -0.3162798512184075),0.18928145752738612
(-1.9213873401699422, 6.798391655076893), (0.0743218556206117, 0.30131237415265755),0.2503223867764607
(-0.9844314578437543, 6.8596926429954905), (0.04260849200827959, 0.014285325140843486),0.07584526022645732
(0.0006968628198643251, 6.8712121085820925), (-0.0013261390118755444, 0.0014257001275656803),0.030977286041887764
(0.9844567670992976, 6.8597184112383855), (-0.041301835351879035, 0.014235377141020583),0.07723624194096412
(1.921388645558468, 6.79839299743457), (-0.07430241654894389, 0.3013026732045274),0.25034516630003345
(2.6161966061910498, 6.380654121014666), (0.13151455662699593, -0.3162815985482072),0.18928187942357433
(-3.0000000000000955, 7.874999999999363), (-7.667727998748235e-28, -3.1974423109204256e-14),7.993605777301127e-15
(-2.000000000000095, 7.874999999999362), (-6.768426566796281e-28, -2.8421709430403805e-14),7.105427357601002e-15
(-1.0000000000000944, 7.874999999999361), (-5.901665647184695e-28, -2.4868995751603352e-14),6.217248937900877e-15
(-9.397493894169885e-14, 7.8749999999993605), (-2.220446049255337e-16, -2.1316282072802892e-14),5.551115123125783e-15
(0.9999999999999059, 7.874999999999361), (2.2204460492444316e-16, -2.4868995751603352e-14),6.439293542825908e-15
(1.9999999999999065, 7.874999999999362), (-2.2204460492570495e-16, -2.8421709430403805e-14),7.327471962526033e-15
(2.9999999999999063, 7.874999999999363), (2.2204460492427159e-16, -3.1974423109204256e-14),8.215650382226158e-15
(-2.9999999999999996, 8.874999999999355), (-2.2204460492426449e-16, 3.1974423109204256e-14),8.215650382226158e-15
(-1.9999999999999998, 8.874999999999355), (2.220446049257081e-16, 2.8421709430403805e-14),7.327471962526033e-15
(-0.9999999999999994, 8.874999999999355), (-2.220446049244411e-16, 2.4868995751603352e-14),6.439293542825908e-15
(3.1086244689504514e-16, 8.874999999999355), (2.220446049255337e-16, 2.1316282072802892e-14),5.551115123125783e-15
(1.0000000000000004, 8.874999999999355), (5.880958048422643e-28, 2.4868995751603352e-14),6.217248937900877e-15
(2.0000000000000013, 8.874999999999355), (6.736872130587441e-28, 2.8421709430403805e-14),7.105427357601002e-15
(3.0000000000000013, 8.874999999999355), (7.596730517278344e-28, 3.1974423109204256e-14),7.993605777301127e-15
(-3.0, 9.874999999999355), (0, 0),0
(-2.0, 9.874999999999355), (0, 0),0
(-1.0, 9.874999999999355), (0, 0),0
(0.0, 9.874999999999355), (0, 0),0
(1.0, 9.874999999999355), (0, 0),0
(2.0, 9.874999999999355), (0, 0),0
(3.0, 9.874999999999355), (0, 0),0
(-3.0, 10.874999999999355), (0, 0),0
(-2.0, 10.874999999999355), (0, 0),0
(-1.0, 10.874999999999355), (0, 0),0
(0.0, 10.874999999999355), (0, 0),0
(1.0, 10.874999999999355), (0, 0),0
(2.0, 10.874999999999355), (0, 0),0
(3.0, 10.874999999999355), (0, 0),0
(-3.0, 11.874999999999355), (0, 0),0
(-2.0, 11.874999999999355), (0, 0),0
(-1.0, 11.874999999999355), (0, 0),0
(0.0, 11.874999999999355), (0, 0),0
(1.0, 11.874999999999355), (0, 0),0
(2.0, 11.874999999999355), (0, 0),0
(3.0, 11.874999999999355), (0, 0),0
(-3.0, 12.87499999999971), (0, 0),0
(-2.0, 12.87499999999971), (0, 0),0
(-1.0, 12.87499999999971), (0, 0),0
(0.0, 12.87499999999971), (0, 0),0
(1.0, 12.87499999999971), (0, 0),0
(2.0, 12.87499999999971), (0, 0),0
(3.0, 12.87499999999971), (0, 0),0
(-3.0, 13.875000000000066), (0, 0),0
(-2.0, 13.875000000000066), (0, 0),0
(-1.0, 13.875000000000066), (0, 0),0
(0.0, 13.875000000000066), (0, 0),0
(1.0, 13.875000000000066), (0, 0),0
(2.0, 13.875000000000066), (0, 0),0
(3.0, 13.875000000000066), (0, 0),0
(-3.0, 14.875000000000421), (0, 0),0
(-2.0, 14.875000000000421), (0, 0),0
(-1.0, 14.875000000000421), (0, 0),0
(0.0, 14.875000000000421), (0, 0),0
(1.0, 14.875000000000421), (0, 0),0
(2.0, 14.875000000000421), (0, 0),0
(3.0, 14.875000000000421), (0, 0),0
