(-3.000000000000033, 7.604999999999478), (0.0, -3.5527136788004694e-14),8.881784197001252e-15
(-2.000000000000033, 7.604999999999478), (0.0, -3.5527136788004694e-14),8.881784197001252e-15
(-1.0000000000000322, 7.604999999999478), (0.0, -3.5527136788004694e-14),8.881784197001252e-15
(-3.1769364916556244e-14, 7.604999999999478), (0.0, -3.5527136788004694e-14),8.881784197001252e-15
(0.9999999999999685, 7.604999999999478), (0.0, -3.5527136788004694e-14),8.881784197001252e-15
(1.999999999999969, 7.604999999999478), (0.0, -3.5527136788004694e-14),8.881784197001252e-15
(2.999999999999969, 7.604999999999478), (0.0, -3.5527136788004694e-14),8.881784197001252e-15
(-3.000000000000033, 8.60499999999947), (0.0, 3.5527136788004694e-14),8.881784197001252e-15
(-2.000000000000033, 8.60499999999947), (0.0, 3.5527136788004694e-14),8.881784197001252e-15
(-1.0000000000000322, 8.60499999999947), (0.0, 3.5527136788004694e-14),8.881784197001252e-15
(-3.1769364916556244e-14, 8.60499999999947), (0.0, 3.5527136788004694e-14),8.881784197001252e-15
(0.9999999999999685, 8.60499999999947), (0.0, 3.5527136788004694e-14),8.881784197001252e-15
(1.999999999999969, 8.60499999999947), (0.0, 3.5527136788004694e-14),8.881784197001252e-15
(2.999999999999969, 8.60499999999947), (0.0, 3.5527136788004694e-14),8.881784197001252e-15
(-3.0, 9.60499999999947), (0, 0),0
(-2.0, 9.60499999999947), (0, 0),0
(-1.0, 9.60499999999947), (0, 0),0
(0.0, 9.60499999999947), (0, 0),0
(1.0, 9.60499999999947), (0, 0),0
(2.0, 9.60499999999947), (0, 0),0
(3.0, 9.60499999999947), (0, 0),0
(-3.0, 10.60499999999947), (0, 0),0
(-2.0, 10.60499999999947), (0, 0),0
(-1.0, 10.60499999999947), (0, 0),0
(0.0, 10.60499999999947), (0, 0),0
(1.0, 10.60499999999947), (0, 0),0
(2.0, 10.60499999999947), (0, 0),0
(3.0, 10.60499999999947), (0, 0),0
(-3.0, 11.60499999999947), (0, 0),0
(-2.0, 11.60499999999947), (0, 0),0
(-1.0, 11.60499999999947), (0, 0),0
(0.0, 11.60499999999947), (0, 0),0
(1.0, 11.60499999999947), (0, 0),0
(2.0, 11.60499999999947), (0, 0),0
(3.0, 11.60499999999947), (0, 0),0
(-3.0, 12.60499999999947), (0, 0),0
(-2.0, 12.60499999999947), (0, 0),0
(-1.0, 12.60499999999947), (0, 0),0
(0.0, 12.60499999999947), (0, 0),0
(1.0, 12.60499999999947), (0, 0),0
(2.0, 12.60499999999947), (0, 0),0
(3.0, 12.60499999999947), (0, 0),0
(-3.0, 13.604999999999825), (0, 0),0
(-2.0, 13.604999999999825), (0, 0),0
(-1.0, 13.604999999999825), (0, 0),0
(0.0, 13.604999999999825), (0, 0),0
(1.0, 13.604999999999825), (0, 0),0
(2.0, 13.604999999999825), (0, 0),0
(3.0, 13.604999999999825), (0, 0),0
(-3.0, 14.60500000000018), (0, 0),0
(-2.0, 14.60500000000018), (0, 0),0
(-1.0, 14.60500000000018), (0, 0),0
(0.0, 14.60500000000018), (0, 0),0
(1.0, 14.60500000000018), (0, 0),0
(2.0, 14.60500000000018), (0, 0),0
(3.0, 14.60500000000018), (0, 0),0
(-3.0, 15.605000000000535), (0, 0),0
(-2.0, 15.605000000000535), (0, 0),0
(-1.0, 15.605000000000535), (0, 0),0
(0.0, 15.605000000000535), (0, 0),0
(1.0, 15.605000000000535), (0, 0),0
(2.0, 15.605000000000535), (0, 0),0
(3.0, 15.605000000000535), (0, 0),0
