(-1.6481380869008837, 4.624179765279047), (0, 0),0
(-1.9844847915999027, 5.955221132542194), (-0.006960670127008729, -0.0018373924386342496),0.007025163215429009
(-0.9936650891164981, 6.020607244661229), (-0.0007202221191245292, 0.0010725239417872685),0.014768392890161297
(-0.0017156611927015937, 6.0453019950747064), (0.001281046322688762, 0.0013584856943802681),0.014186309295550092
(0.9915742405440985, 6.022268863697), (-0.0010982467401890583, 0.0013011268553389753),0.014013429957470791
(1.9820294150332385, 5.959697649400002), (0.007498092663633554, -0.0018947440528722624),0.007570350336652987
(1.6457524419801413, 4.626223497316781), (0, 0),0
(-3.0000000000001403, 7.369999999999285), (-1.6329420738074944e-27, -3.5527136788004694e-14),8.881784197001252e-15
(-2.00000000000014, 7.369999999999285), (-1.634914226070547e-27, -3.5527136788004694e-14),8.881784197001252e-15
(-1.000000000000139, 7.369999999999285), (-1.6299838454129156e-27, -3.5527136788004694e-14),8.881784197001252e-15
(-1.383951842015563e-13, 7.369999999999285), (-1.6264882055266553e-27, -3.5527136788004694e-14),8.881784197001252e-15
(0.9999999999998619, 7.369999999999285), (-1.627025617018337e-27, -3.5527136788004694e-14),8.881784197001252e-15
(1.9999999999998626, 7.369999999999285), (-1.630969921544442e-27, -3.5527136788004694e-14),8.881784197001252e-15
(2.999999999999863, 7.369999999999285), (-1.6250534647552843e-27, -3.5527136788004694e-14),8.881784197001252e-15
(-2.9999999999999565, 8.369999999999276), (1.6329420738074944e-27, 3.5527136788004694e-14),8.881784197001252e-15
(-1.9999999999999558, 8.369999999999276), (1.634914226070547e-27, 3.5527136788004694e-14),8.881784197001252e-15
(-0.9999999999999555, 8.369999999999276), (1.6299838454129156e-27, 3.5527136788004694e-14),8.881784197001252e-15
(4.4731107706752525e-14, 8.369999999999276), (1.6264882055266553e-27, 3.5527136788004694e-14),8.881784197001252e-15
(1.000000000000045, 8.369999999999276), (1.627025617018337e-27, 3.5527136788004694e-14),8.881784197001252e-15
(2.000000000000046, 8.369999999999276), (1.630969921544442e-27, 3.5527136788004694e-14),8.881784197001252e-15
(3.000000000000046, 8.369999999999276), (1.6250534647552843e-27, 3.5527136788004694e-14),8.881784197001252e-15
(-3.0, 9.369999999999276), (0, 0),0
(-2.0, 9.369999999999276), (0, 0),0
(-1.0, 9.369999999999276), (0, 0),0
(0.0, 9.369999999999276), (0, 0),0
(1.0, 9.369999999999276), (0, 0),0
(2.0, 9.369999999999276), (0, 0),0
(3.0, 9.369999999999276), (0, 0),0
(-3.0, 10.369999999999276), (0, 0),0
(-2.0, 10.369999999999276), (0, 0),0
(-1.0, 10.369999999999276), (0, 0),0
(0.0, 10.369999999999276), (0, 0),0
(1.0, 10.369999999999276), (0, 0),0
(2.0, 10.369999999999276), (0, 0),0
(3.0, 10.369999999999276), (0, 0),0
(-3.0, 11.369999999999276), (0, 0),0
(-2.0, 11.369999999999276), (0, 0),0
(-1.0, 11.369999999999276), (0, 0),0
(0.0, 11.369999999999276), (0, 0),0
(1.0, 11.369999999999276), (0, 0),0
(2.0, 11.369999999999276), (0, 0),0
(3.0, 11.369999999999276), (0, 0),0
(-3.0, 12.369999999999632), (0, 0),0
(-2.0, 12.369999999999632), (0, 0),0
(-1.0, 12.369999999999632), (0, 0),0
(0.0, 12.369999999999632), (0, 0),0
(1.0, 12.369999999999632), (0, 0),0
(2.0, 12.369999999999632), (0, 0),0
(3.0, 12.369999999999632), (0, 0),0
(-3.0, 13.369999999999987), (0, 0),0
(-2.0, 13.369999999999987), (0, 0),0
(-1.0, 13.369999999999987), (0, 0),0
(0.0, 13.369999999999987), (0, 0),0
(1.0, 13.369999999999987), (0, 0),0
(2.0, 13.369999999999987), (0, 0),0
(3.0, 13.369999999999987), (0, 0),0
(-3.0, 14.370000000000342), (0, 0),0
(-2.0, 14.370000000000342), (0, 0),0
(-1.0, 14.370000000000342), (0, 0),0
(0.0, 14.370000000000342), (0, 0),0
(1.0, 14.370000000000342), (0, 0),0
(2.0, 14.370000000000342), (0, 0),0
(3.0, 14.370000000000342), (0, 0),0
