(-1.2354069940775618, -3.15796160194063), (-3.9720564129096687e-05, -0.0018860686835611516),0.0006101188582857686
(0.5700469425626992, -2.427272810404125), (1.7004538784467767e-06, 3.384957448195323e-05),0.0003857356659564548
(-0.24579939171396567, 2.889006092873574), (-0.32687849526482127, 2.0647668947201554),1.8115492772590476
(-0.08091327404380508, 3.526711873299884), (0.029554687634864258, 0.9859717578602536),0.38231374694512776
(0.5710460645648004, 2.8234006026295706), (0.3968273932556547, 1.28592109632253),0.9272614618882561
(-1.66471628148999, -2.2552118154480594), (-0.00015809192907700504, 0.0013297402073983954),0.00036824716751382436
(-0.41756637546372416, -2.5829372218786135), (5.937593934686014e-06, 0.000435357676248887),0.00043615309197342356
(-0.02549673762297955, -0.6973336939480245), (0, 0),0
(-0.3636536810172287, 2.4321538557607876), (-0.5369204337615754, 0.21643578607690367),2.071272349830584
(-0.9695837089243069, 5.13137716655121), (-0.030046035908678992, -0.0030981190886832832),0.031018142359899192
(-0.000923640243887055, 5.156347384405782), (0.0025241100566324275, 0.006467934977274766),0.05935599284062887
(0.9702836103117627, 5.1266184544461595), (0.027521925852046564, -0.003369815888591483),0.028337850480729676
(0.3105875123769018, 2.3710856048841014), (0.576228298255349, -0.6634137505197389),2.140866304546644
(1.5633622162462366, -2.3135103596911386), (0.00019017444539296894, 8.71212254319158e-05),0.0001914542647549755
(-0.3171811369722386, 2.2194414391743877), (3.29320520368592, 0.4897312795977804),6.334471861891837
(-1.9367614055667324, 6.393488399343562), (-0.0316202569827393, -0.004318343057777807),0.03270852922641854
(-0.9700332239400343, 6.426494645419967), (0.00404027150661106, 0.0008843863188541011),0.06110842685818196
(0.001096525671521653, 6.456723246799529), (-0.008450946407219755, 0.007773962711774422),0.06584964580749841
(0.9632106556323128, 6.427751049493388), (0.010179423937303565, -0.0007703524787954163),0.06402278099713765
(1.9360581329899933, 6.394167627551612), (0.02585150794604443, -0.0035696534940552996),0.026573032821402665
(0.14007288823830583, 2.1825246623432113), (0.31798334619460805, -2.2143495545967875),2.147544110778232
(-3.000000000000107, 7.659999999999018), (-1.1083495718355216e-27, -3.5527136788004694e-14),8.881784197001252e-15
(-2.000000000000107, 7.659999999999018), (-1.1142660286246792e-27, -3.5527136788004694e-14),8.881784197001252e-15
(-1.0000000000001057, 7.659999999999018), (-1.1053913434409428e-27, -3.5527136788004694e-14),8.881784197001252e-15
(-1.0524914273446489e-13, 7.659999999999018), (-1.1033225557170014e-27, -3.5527136788004694e-14),8.881784197001252e-15
(0.9999999999998949, 7.659999999999018), (-1.1053913434409428e-27, -3.5527136788004694e-14),8.881784197001252e-15
(1.9999999999998952, 7.659999999999018), (-1.1122938763616266e-27, -3.5527136788004694e-14),8.881784197001252e-15
(2.999999999999896, 7.659999999999018), (-1.1044052673094165e-27, -3.5527136788004694e-14),8.881784197001252e-15
(-2.9999999999999822, 8.659999999999009), (1.1083495718355216e-27, 3.5527136788004694e-14),8.881784197001252e-15
(-1.9999999999999816, 8.659999999999009), (1.1142660286246792e-27, 3.5527136788004694e-14),8.881784197001252e-15
(-0.9999999999999812, 8.659999999999009), (1.1053913434409428e-27, 3.5527136788004694e-14),8.881784197001252e-15
(1.897393353544889e-14, 8.659999999999009), (1.1033225557170014e-27, 3.5527136788004694e-14),8.881784197001252e-15
(1.0000000000000193, 8.659999999999009), (1.1053913434409428e-27, 3.5527136788004694e-14),8.881784197001252e-15
(2.0000000000000204, 8.659999999999009), (1.1122938763616266e-27, 3.5527136788004694e-14),8.881784197001252e-15
(3.0000000000000204, 8.659999999999009), (1.1044052673094165e-27, 3.5527136788004694e-14),8.881784197001252e-15
(-3.0, 9.659999999999009), (0, 0),0
(-2.0, 9.659999999999009), (0, 0),0
(-1.0, 9.659999999999009), (0, 0),0
(0.0, 9.659999999999009), (0, 0),0
(1.0, 9.659999999999009), (0, 0),0
(2.0, 9.659999999999009), (0, 0),0
(3.0, 9.659999999999009), (0, 0),0
(-3.0, 10.659999999999364), (0, 0),0
(-2.0, 10.659999999999364), (0, 0),0
(-1.0, 10.659999999999364), (0, 0),0
(0.0, 10.659999999999364), (0, 0),0
(1.0, 10.659999999999364), (0, 0),0
(2.0, 10.659999999999364), (0, 0),0
(3.0, 10.659999999999364), (0, 0),0
(-3.0, 11.65999999999972), (0, 0),0
(-2.0, 11.65999999999972), (0, 0),0
(-1.0, 11.65999999999972), (0, 0),0
(0.0, 11.65999999999972), (0, 0),0
(1.0, 11.65999999999972), (0, 0),0
(2.0, 11.65999999999972), (0, 0),0
(3.0, 11.65999999999972), (0, 0),0
(-3.0, 12.660000000000075), (0, 0),0
(-2.0, 12.660000000000075), (0, 0),0
(-1.0, 12.660000000000075), (0, 0),0
(0.0, 12.660000000000075), (0, 0),0
(1.0, 12.660000000000075), (0, 0),0
(2.0, 12.660000000000075), (0, 0),0
(3.0, 12.660000000000075), (0, 0),0
