(-3.0, 9.264999999999729), (0, 0),0
(-2.0, 9.264999999999729), (0, 0),0
(-1.0, 9.264999999999729), (0, 0),0
(0.0, 9.264999999999729), (0, 0),0
(1.0, 9.264999999999729), (0, 0),0
(2.0, 9.264999999999729), (0, 0),0
(3.0, 9.264999999999729), (0, 0),0
(-3.0, 10.264999999999729), (0, 0),0
(-2.0, 10.264999999999729), (0, 0),0
(-1.0, 10.264999999999729), (0, 0),0
(0.0, 10.264999999999729), (0, 0),0
(1.0, 10.264999999999729), (0, 0),0
(2.0, 10.264999999999729), (0, 0),0
(3.0, 10.264999999999729), (0, 0),0
(-3.0, 11.264999999999729), (0, 0),0
(-2.0, 11.264999999999729), (0, 0),0
(-1.0, 11.264999999999729), (0, 0),0
(0.0, 11.264999999999729), (0, 0),0
(1.0, 11.264999999999729), (0, 0),0
(2.0, 11.264999999999729), (0, 0),0
(3.0, 11.264999999999729), (0, 0),0
(-3.0, 12.264999999999729), (0, 0),0
(-2.0, 12.264999999999729), (0, 0),0
(-1.0, 12.264999999999729), (0, 0),0
(0.0, 12.264999999999729), (0, 0),0
(1.0, 12.264999999999729), (0, 0),0
(2.0, 12.264999999999729), (0, 0),0
(3.0, 12.264999999999729), (0, 0),0
(-3.0, 13.264999999999729), (0, 0),0
(-2.0, 13.264999999999729), (0, 0),0
(-1.0, 13.264999999999729), (0, 0),0
(0.0, 13.264999999999729), (0, 0),0
(1.0, 13.264999999999729), (0, 0),0
(2.0, 13.264999999999729), (0, 0),0
(3.0, 13.264999999999729), (0, 0),0
(-3.0, 14.264999999999729), (0, 0),0
(-2.0, 14.264999999999729), (0, 0),0
(-1.0, 14.264999999999729), (0, 0),0
(0.0, 14.264999999999729), (0, 0),0
(1.0, 14.264999999999729), (0, 0),0
(2.0, 14.264999999999729), (0, 0),0
(3.0, 14.264999999999729), (0, 0),0
(-3.0, 15.265000000000084), (0, 0),0
(-2.0, 15.265000000000084), (0, 0),0
(-1.0, 15.265000000000084), (0, 0),0
(0.0, 15.265000000000084), (0, 0),0
(1.0, 15.265000000000084), (0, 0),0
(2.0, 15.265000000000084), (0, 0),0
(3.0, 15.265000000000084), (0, 0),0
(-3.0, 16.265000000000345), (0, 0),0
(-2.0, 16.265000000000345), (0, 0),0
(-1.0, 16.265000000000345), (0, 0),0
(0.0, 16.265000000000345), (0, 0),0
(1.0, 16.265000000000345), (0, 0),0
(2.0, 16.265000000000345), (0, 0),0
(3.0, 16.265000000000345), (0, 0),0
(-3.0, 17.265000000000345), (0, 0),0
(-2.0, 17.265000000000345), (0, 0),0
(-1.0, 17.265000000000345), (0, 0),0
(0.0, 17.265000000000345), (0, 0),0
(1.0, 17.265000000000345), (0, 0),0
(2.0, 17.265000000000345), (0, 0),0
(3.0, 17.265000000000345), (0, 0),0
