(-0.7671126831164453, 3.211814615532463), (0, 0),0
(-1.9084098231937112, 5.292018100440845), (0.09214664051657136, -0.7667112898998579),0.485739711908984
(-0.9928480882033166, 5.428210971094678), (0.0599777785106913, 0.03947480068513209),0.08254230173519839
(-0.0015326540306820776, 5.459900440291685), (-0.0007480676939949516, 0.0020332304717079466),0.017116817282727737
(0.9891366844950573, 5.432027576975182), (-0.05986146645951803, 0.03960355799511762),0.08404131907952739
(1.9041065491822964, 5.296878820130229), (-0.09379450424038913, -0.7594787307430898),0.4873501248770018
(0.7647270381957029, 3.213858347570197), (0, 0),0
(-2.297911733342892, 5.733342189761599), (-0.16675741577761197, 0.6731177748812857),0.4263892829409628
(-1.8632526559102076, 6.6172367094373765), (-0.056032341323920695, 0.0238886426980878),0.08255845269991413
(-0.9370790744793012, 6.725288836922749), (0.0066497177597521565, 0.021525367593755725),0.127023840724394
(0.0028894531178908847, 6.757518888303001), (-0.016172052883367753, 0.01769383829135768),0.13772568453656464
(0.9240860790806482, 6.725486242489329), (0.020733432284551323, 0.013632508268529473),0.13292268351246173
(1.8632003097883072, 6.6173114510090025), (0.04513106898807151, 0.02688428822090678),0.06896200596101942
(2.298314455774753, 5.732829735435432), (0.16872721031916488, 0.6683360115370669),0.4265333692736675
(-2.99999999999991, 7.814999999999198), (8.598583866909029e-28, -3.5527136788004694e-14),8.881784197001252e-15
(-1.999999999999909, 7.814999999999198), (8.67746995743113e-28, -3.5527136788004694e-14),8.881784197001252e-15
(-0.9999999999999086, 7.814999999999198), (8.608444628224291e-28, -3.5527136788004694e-14),8.881784197001252e-15
(9.148237722911295e-14, 7.814999999999198), (8.587756750984874e-28, -3.5527136788004694e-14),8.881784197001252e-15
(1.000000000000092, 7.814999999999198), (8.608444628224291e-28, -3.5527136788004694e-14),8.881784197001252e-15
(2.0000000000000933, 7.814999999999198), (8.697191480061655e-28, -3.5527136788004694e-14),8.881784197001252e-15
(3.0000000000000933, 7.814999999999198), (8.63802691217008e-28, -3.5527136788004694e-14),8.881784197001252e-15
(-3.0000000000000067, 8.81499999999919), (-8.598583866909029e-28, 3.5527136788004694e-14),8.881784197001252e-15
(-2.0000000000000067, 8.81499999999919), (-8.67746995743113e-28, 3.5527136788004694e-14),8.881784197001252e-15
(-1.0000000000000056, 8.81499999999919), (-8.608444628224291e-28, 3.5527136788004694e-14),8.881784197001252e-15
(-5.207168030096919e-15, 8.81499999999919), (-8.587756750984874e-28, 3.5527136788004694e-14),8.881784197001252e-15
(0.999999999999995, 8.81499999999919), (-8.608444628224291e-28, 3.5527136788004694e-14),8.881784197001252e-15
(1.9999999999999953, 8.81499999999919), (-8.697191480061655e-28, 3.5527136788004694e-14),8.881784197001252e-15
(2.999999999999996, 8.81499999999919), (-8.63802691217008e-28, 3.5527136788004694e-14),8.881784197001252e-15
(-3.0, 9.81499999999919), (0, 0),0
(-2.0, 9.81499999999919), (0, 0),0
(-1.0, 9.81499999999919), (0, 0),0
(0.0, 9.81499999999919), (0, 0),0
(1.0, 9.81499999999919), (0, 0),0
(2.0, 9.81499999999919), (0, 0),0
(3.0, 9.81499999999919), (0, 0),0
(-3.0, 10.81499999999919), (0, 0),0
(-2.0, 10.81499999999919), (0, 0),0
(-1.0, 10.81499999999919), (0, 0),0
(0.0, 10.81499999999919), (0, 0),0
(1.0, 10.81499999999919), (0, 0),0
(2.0, 10.81499999999919), (0, 0),0
(3.0, 10.81499999999919), (0, 0),0
(-3.0, 11.814999999999545), (0, 0),0
(-2.0, 11.814999999999545), (0, 0),0
(-1.0, 11.814999999999545), (0, 0),0
(0.0, 11.814999999999545), (0, 0),0
(1.0, 11.814999999999545), (0, 0),0
(2.0, 11.814999999999545), (0, 0),0
(3.0, 11.814999999999545), (0, 0),0
(-3.0, 12.8149999999999), (0, 0),0
(-2.0, 12.8149999999999), (0, 0),0
(-1.0, 12.8149999999999), (0, 0),0
(0.0, 12.8149999999999), (0, 0),0
(1.0, 12.8149999999999), (0, 0),0
(2.0, 12.8149999999999), (0, 0),0
(3.0, 12.8149999999999), (0, 0),0
(-3.0, 13.815000000000255), (0, 0),0
(-2.0, 13.815000000000255), (0, 0),0
(-1.0, 13.815000000000255), (0, 0),0
(0.0, 13.815000000000255), (0, 0),0
(1.0, 13.815000000000255), (0, 0),0
(2.0, 13.815000000000255), (0, 0),0
(3.0, 13.815000000000255), (0, 0),0
