(-2.088715881526965, 5.35229425653274), (-0.006235587886976506, -0.15313573140826223),0.04042239721999952
(-1.9344551667791674, 6.299391298890338), (-0.02462801698803797, 0.1392862047934327),0.07250916635751892
(-0.9725756848426288, 6.407298132353941), (0.005031141223610758, 0.01099820448360774),0.05863381142603996
(0.0005068669026615864, 6.434149731302638), (-0.00780152490429557, 0.006364229208373494),0.06140776467177056
(0.9653172969888685, 6.408957288081498), (0.007473132732114404, 0.007912497004980874),0.06190864022719822
(1.9325213521963265, 6.303353927519227), (0.020259560160615517, 0.13426946342454324),0.06541893050342629
(2.0863170238232436, 5.354103064637142), (0.005901295662969368, -0.14569486750667585),0.038371012659478065
(-3.000000000000114, 7.664999999999331), (-1.1675141397270975e-27, -3.5527136788004694e-14),8.881784197001252e-15
(-2.0000000000001137, 7.664999999999331), (-1.16948629199015e-27, -3.5527136788004694e-14),8.881784197001252e-15
(-1.0000000000001128, 7.664999999999331), (-1.1645559113325187e-27, -3.5527136788004694e-14),8.881784197001252e-15
(-1.121939208204026e-13, 7.664999999999331), (-1.1610602714462584e-27, -3.5527136788004694e-14),8.881784197001252e-15
(0.9999999999998881, 7.664999999999331), (-1.1615976829379399e-27, -3.5527136788004694e-14),8.881784197001252e-15
(1.9999999999998888, 7.664999999999331), (-1.165541987464045e-27, -3.5527136788004694e-14),8.881784197001252e-15
(2.9999999999998894, 7.664999999999331), (-1.1596255306748874e-27, -3.5527136788004694e-14),8.881784197001252e-15
(-2.9999999999999827, 8.664999999999322), (1.1675141397270975e-27, 3.5527136788004694e-14),8.881784197001252e-15
(-1.999999999999982, 8.664999999999322), (1.16948629199015e-27, 3.5527136788004694e-14),8.881784197001252e-15
(-0.9999999999999817, 8.664999999999322), (1.1645559113325187e-27, 3.5527136788004694e-14),8.881784197001252e-15
(1.8529844325598827e-14, 8.664999999999322), (1.1610602714462584e-27, 3.5527136788004694e-14),8.881784197001252e-15
(1.0000000000000189, 8.664999999999322), (1.1615976829379399e-27, 3.5527136788004694e-14),8.881784197001252e-15
(2.00000000000002, 8.664999999999322), (1.165541987464045e-27, 3.5527136788004694e-14),8.881784197001252e-15
(3.00000000000002, 8.664999999999322), (1.1596255306748874e-27, 3.5527136788004694e-14),8.881784197001252e-15
(-3.0, 9.664999999999322), (0, 0),0
(-2.0, 9.664999999999322), (0, 0),0
(-1.0, 9.664999999999322), (0, 0),0
(0.0, 9.664999999999322), (0, 0),0
(1.0, 9.664999999999322), (0, 0),0
(2.0, 9.664999999999322), (0, 0),0
(3.0, 9.664999999999322), (0, 0),0
(-3.0, 10.664999999999322), (0, 0),0
(-2.0, 10.664999999999322), (0, 0),0
(-1.0, 10.664999999999322), (0, 0),0
(0.0, 10.664999999999322), (0, 0),0
(1.0, 10.664999999999322), (0, 0),0
(2.0, 10.664999999999322), (0, 0),0
(3.0, 10.664999999999322), (0, 0),0
(-3.0, 11.664999999999322), (0, 0),0
(-2.0, 11.664999999999322), (0, 0),0
(-1.0, 11.664999999999322), (0, 0),0
(0.0, 11.664999999999322), (0, 0),0
(1.0, 11.664999999999322), (0, 0),0
(2.0, 11.664999999999322), (0, 0),0
(3.0, 11.664999999999322), (0, 0),0
(-3.0, 12.664999999999678), (0, 0),0
(-2.0, 12.664999999999678), (0, 0),0
(-1.0, 12.664999999999678), (0, 0),0
(0.0, 12.664999999999678), (0, 0),0
(1.0, 12.664999999999678), (0, 0),0
(2.0, 12.664999999999678), (0, 0),0
(3.0, 12.664999999999678), (0, 0),0
(-3.0, 13.665000000000033), (0, 0),0
(-2.0, 13.665000000000033), (0, 0),0
(-1.0, 13.665000000000033), (0, 0),0
(0.0, 13.665000000000033), (0, 0),0
(1.0, 13.665000000000033), (0, 0),0
(2.0, 13.665000000000033), (0, 0),0
(3.0, 13.665000000000033), (0, 0),0
(-3.0, 14.665000000000388), (0, 0),0
(-2.0, 14.665000000000388), (0, 0),0
(-1.0, 14.665000000000388), (0, 0),0
(0.0, 14.665000000000388), (0, 0),0
(1.0, 14.665000000000388), (0, 0),0
(2.0, 14.665000000000388), (0, 0),0
(3.0, 14.665000000000388), (0, 0),0
