(-3.0000000000000644, 7.249999999999423), (0.0, -3.5527136788004694e-14),8.881784197001252e-15
(-2.0000000000000644, 7.249999999999423), (0.0, -3.5527136788004694e-14),8.881784197001252e-15
(-1.0000000000000637, 7.249999999999423), (0.0, -3.5527136788004694e-14),8.881784197001252e-15
(-6.329969881591069e-14, 7.249999999999423), (0.0, -3.5527136788004694e-14),8.881784197001252e-15
(0.9999999999999369, 7.249999999999423), (0.0, -3.5527136788004694e-14),8.881784197001252e-15
(1.9999999999999374, 7.249999999999423), (0.0, -3.5527136788004694e-14),8.881784197001252e-15
(2.9999999999999374, 7.249999999999423), (0.0, -3.5527136788004694e-14),8.881784197001252e-15
(-3.0000000000000644, 8.249999999999414), (0.0, 3.5527136788004694e-14),8.881784197001252e-15
(-2.0000000000000644, 8.249999999999414), (0.0, 3.5527136788004694e-14),8.881784197001252e-15
(-1.0000000000000637, 8.249999999999414), (0.0, 3.5527136788004694e-14),8.881784197001252e-15
(-6.329969881591069e-14, 8.249999999999414), (0.0, 3.5527136788004694e-14),8.881784197001252e-15
(0.9999999999999369, 8.249999999999414), (0.0, 3.5527136788004694e-14),8.881784197001252e-15
(1.9999999999999374, 8.249999999999414), (0.0, 3.5527136788004694e-14),8.881784197001252e-15
(2.9999999999999374, 8.249999999999414), (0.0, 3.5527136788004694e-14),8.881784197001252e-15
(-3.0, 9.249999999999414), (0, 0),0
(-2.0, 9.249999999999414), (0, 0),0
(-1.0, 9.249999999999414), (0, 0),0
(0.0, 9.249999999999414), (0, 0),0
(1.0, 9.249999999999414), (0, 0),0
(2.0, 9.249999999999414), (0, 0),0
(3.0, 9.249999999999414), (0, 0),0
(-3.0, 10.249999999999414), (0, 0),0
(-2.0, 10.249999999999414), (0, 0),0
(-1.0, 10.249999999999414), (0, 0),0
(0.0, 10.249999999999414), (0, 0),0
(1.0, 10.249999999999414), (0, 0),0
(2.0, 10.249999999999414), (0, 0),0
(3.0, 10.249999999999414), (0, 0),0
(-3.0, 11.249999999999414), (0, 0),0
(-2.0, 11.249999999999414), (0, 0),0
(-1.0, 11.249999999999414), (0, 0),0
(0.0, 11.249999999999414), (0, 0),0
(1.0, 11.249999999999414), (0, 0),0
(2.0, 11.249999999999414), (0, 0),0
(3.0, 11.249999999999414), (0, 0),0
(-3.0, 12.249999999999414), (0, 0),0
(-2.0, 12.249999999999414), (0, 0),0
(-1.0, 12.249999999999414), (0, 0),0
(0.0, 12.249999999999414), (0, 0),0
(1.0, 12.249999999999414), (0, 0),0
(2.0, 12.249999999999414), (0, 0),0
(3.0, 12.249999999999414), (0, 0),0
(-3.0, 13.249999999999769), (0, 0),0
(-2.0, 13.249999999999769), (0, 0),0
(-1.0, 13.249999999999769), (0, 0),0
(0.0, 13.249999999999769), (0, 0),0
(1.0, 13.249999999999769), (0, 0),0
(2.0, 13.249999999999769), (0, 0),0
(3.0, 13.249999999999769), (0, 0),0
(-3.0, 14.250000000000124), (0, 0),0
(-2.0, 14.250000000000124), (0, 0),0
(-1.0, 14.250000000000124), (0, 0),0
(0.0, 14.250000000000124), (0, 0),0
(1.0, 14.250000000000124), (0, 0),0
(2.0, 14.250000000000124), (0, 0),0
(3.0, 14.250000000000124), (0, 0),0
(-3.0, 15.25000000000048), (0, 0),0
(-2.0, 15.25000000000048), (0, 0),0
(-1.0, 15.25000000000048), (0, 0),0
(0.0, 15.25000000000048), (0, 0),0
(1.0, 15.25000000000048), (0, 0),0
(2.0, 15.25000000000048), (0, 0),0
(3.0, 15.25000000000048), (0, 0),0
