(-3.0, 8.144999999999554), (0, 0),0
(-2.0, 8.144999999999554), (0, 0),0
(-1.0, 8.144999999999554), (0, 0),0
(0.0, 8.144999999999554), (0, 0),0
(1.0, 8.144999999999554), (0, 0),0
(2.0, 8.144999999999554), (0, 0),0
(3.0, 8.144999999999554), (0, 0),0
(-3.0, 9.144999999999554), (0, 0),0
(-2.0, 9.144999999999554), (0, 0),0
(-1.0, 9.144999999999554), (0, 0),0
(0.0, 9.144999999999554), (0, 0),0
(1.0, 9.144999999999554), (0, 0),0
(2.0, 9.144999999999554), (0, 0),0
(3.0, 9.144999999999554), (0, 0),0
(-3.0, 10.144999999999554), (0, 0),0
(-2.0, 10.144999999999554), (0, 0),0
(-1.0, 10.144999999999554), (0, 0),0
(0.0, 10.144999999999554), (0, 0),0
(1.0, 10.144999999999554), (0, 0),0
(2.0, 10.144999999999554), (0, 0),0
(3.0, 10.144999999999554), (0, 0),0
(-3.0, 11.144999999999554), (0, 0),0
(-2.0, 11.144999999999554), (0, 0),0
(-1.0, 11.144999999999554), (0, 0),0
(0.0, 11.144999999999554), (0, 0),0
(1.0, 11.144999999999554), (0, 0),0
(2.0, 11.144999999999554), (0, 0),0
(3.0, 11.144999999999554), (0, 0),0
(-3.0, 12.144999999999554), (0, 0),0
(-2.0, 12.144999999999554), (0, 0),0
(-1.0, 12.144999999999554), (0, 0),0
(0.0, 12.144999999999554), (0, 0),0
(1.0, 12.144999999999554), (0, 0),0
(2.0, 12.144999999999554), (0, 0),0
(3.0, 12.144999999999554), (0, 0),0
(-3.0, 13.144999999999554), (0, 0),0
(-2.0, 13.144999999999554), (0, 0),0
(-1.0, 13.144999999999554), (0, 0),0
(0.0, 13.144999999999554), (0, 0),0
(1.0, 13.144999999999554), (0, 0),0
(2.0, 13.144999999999554), (0, 0),0
(3.0, 13.144999999999554), (0, 0),0
(-3.0, 14.144999999999909), (0, 0),0
(-2.0, 14.144999999999909), (0, 0),0
(-1.0, 14.144999999999909), (0, 0),0
(0.0, 14.144999999999909), (0, 0),0
(1.0, 14.144999999999909), (0, 0),0
(2.0, 14.144999999999909), (0, 0),0
(3.0, 14.144999999999909), (0, 0),0
(-3.0, 15.145000000000264), (0, 0),0
(-2.0, 15.145000000000264), (0, 0),0
(-1.0, 15.145000000000264), (0, 0),0
(0.0, 15.145000000000264), (0, 0),0
(1.0, 15.145000000000264), (0, 0),0
(2.0, 15.145000000000264), (0, 0),0
(3.0, 15.145000000000264), (0, 0),0
(-3.0, 16.145000000000568), (0, 0),0
(-2.0, 16.145000000000568), (0, 0),0
(-1.0, 16.145000000000568), (0, 0),0
(0.0, 16.145000000000568), (0, 0),0
(1.0, 16.145000000000568), (0, 0),0
(2.0, 16.145000000000568), (0, 0),0
(3.0, 16.145000000000568), (0, 0),0
