(-3.0, 10.93499999999999), (0, 0),0
(-2.0, 10.93499999999999), (0, 0),0
(-1.0, 10.93499999999999), (0, 0),0
(0.0, 10.93499999999999), (0, 0),0
(1.0, 10.93499999999999), (0, 0),0
(2.0, 10.93499999999999), (0, 0),0
(3.0, 10.93499999999999), (0, 0),0
(-3.0, 11.93499999999999), (0, 0),0
(-2.0, 11.93499999999999), (0, 0),0
(-1.0, 11.93499999999999), (0, 0),0
(0.0, 11.93499999999999), (0, 0),0
(1.0, 11.93499999999999), (0, 0),0
(2.0, 11.93499999999999), (0, 0),0
(3.0, 11.93499999999999), (0, 0),0
(-3.0, 12.93499999999999), (0, 0),0
(-2.0, 12.93499999999999), (0, 0),0
(-1.0, 12.93499999999999), (0, 0),0
(0.0, 12.93499999999999), (0, 0),0
(1.0, 12.93499999999999), (0, 0),0
(2.0, 12.93499999999999), (0, 0),0
(3.0, 12.93499999999999), (0, 0),0
(-3.0, 13.93499999999999), (0, 0),0
(-2.0, 13.93499999999999), (0, 0),0
(-1.0, 13.93499999999999), (0, 0),0
(0.0, 13.93499999999999), (0, 0),0
(1.0, 13.93499999999999), (0, 0),0
(2.0, 13.93499999999999), (0, 0),0
(3.0, 13.93499999999999), (0, 0),0
(-3.0, 14.93499999999999), (0, 0),0
(-2.0, 14.93499999999999), (0, 0),0
(-1.0, 14.93499999999999), (0, 0),0
(0.0, 14.93499999999999), (0, 0),0
(1.0, 14.93499999999999), (0, 0),0
(2.0, 14.93499999999999), (0, 0),0
(3.0, 14.93499999999999), (0, 0),0
(-3.0, 15.93499999999999), (0, 0),0
(-2.0, 15.93499999999999), (0, 0),0
(-1.0, 15.93499999999999), (0, 0),0
(0.0, 15.93499999999999), (0, 0),0
(1.0, 15.93499999999999), (0, 0),0
(2.0, 15.93499999999999), (0, 0),0
(3.0, 15.93499999999999), (0, 0),0
(-3.0, 16.935000000000013), (0, 0),0
(-2.0, 16.935000000000013), (0, 0),0
(-1.0, 16.935000000000013), (0, 0),0
(0.0, 16.935000000000013), (0, 0),0
(1.0, 16.935000000000013), (0, 0),0
(2.0, 16.935000000000013), (0, 0),0
(3.0, 16.935000000000013), (0, 0),0
(-3.0, 17.935000000000013), (0, 0),0
(-2.0, 17.935000000000013), (0, 0),0
(-1.0, 17.935000000000013), (0, 0),0
(0.0, 17.935000000000013), (0, 0),0
(1.0, 17.935000000000013), (0, 0),0
(2.0, 17.935000000000013), (0, 0),0
(3.0, 17.935000000000013), (0, 0),0
(-3.0, 18.935000000000013), (0, 0),0
(-2.0, 18.935000000000013), (0, 0),0
(-1.0, 18.935000000000013), (0, 0),0
(0.0, 18.935000000000013), (0, 0),0
(1.0, 18.935000000000013), (0, 0),0
(2.0, 18.935000000000013), (0, 0),0
(3.0, 18.935000000000013), (0, 0),0
