(-1.2076253850086647, 3.8954971904057554), (0, 0),0
(-1.9965676304618458, 5.643317569272821), (-0.0017719064987285064, -0.0003763220836661125),0.0017775621009651354
(-0.9997492927135097, 5.696244283262417), (-7.500722123866691e-06, 0.0001979057012303383),0.003560707884519787
(-0.0018459035104270729, 5.721258556363535), (-0.00011173315853027022, 0.00034091306397242174),0.003678314105756031
(0.9960287217819283, 5.6998229034411745), (0.0003556083818424603, 0.0001523132004086262),0.003435087263462644
(1.9931799070790657, 5.648714713017945), (0.001535531997540183, -0.0003148098819452737),0.0015399189412612646
(1.2052397400879222, 3.8975409224434894), (0, 0),0
(-3.000000000000167, 7.069999999999238), (-2.1062586169401015e-27, -3.5527136788004694e-14),8.881784197001252e-15
(-2.0000000000001665, 7.069999999999238), (-2.108230769203154e-27, -3.5527136788004694e-14),8.881784197001252e-15
(-1.0000000000001656, 7.069999999999238), (-2.1033003885455227e-27, -3.5527136788004694e-14),8.881784197001252e-15
(-1.6504053679256005e-13, 7.069999999999238), (-2.0998047486592624e-27, -3.5527136788004694e-14),8.881784197001252e-15
(0.9999999999998352, 7.069999999999238), (-2.100342160150944e-27, -3.5527136788004694e-14),8.881784197001252e-15
(1.999999999999836, 7.069999999999238), (-2.104286464677049e-27, -3.5527136788004694e-14),8.881784197001252e-15
(2.9999999999998366, 7.069999999999238), (-2.0983700078878914e-27, -3.5527136788004694e-14),8.881784197001252e-15
(-2.99999999999993, 8.06999999999923), (2.1062586169401015e-27, 3.5527136788004694e-14),8.881784197001252e-15
(-1.9999999999999292, 8.06999999999923), (2.108230769203154e-27, 3.5527136788004694e-14),8.881784197001252e-15
(-0.9999999999999288, 8.06999999999923), (2.1033003885455227e-27, 3.5527136788004694e-14),8.881784197001252e-15
(7.137646029775628e-14, 8.06999999999923), (2.0998047486592624e-27, 3.5527136788004694e-14),8.881784197001252e-15
(1.0000000000000717, 8.06999999999923), (2.100342160150944e-27, 3.5527136788004694e-14),8.881784197001252e-15
(2.000000000000073, 8.06999999999923), (2.104286464677049e-27, 3.5527136788004694e-14),8.881784197001252e-15
(3.000000000000073, 8.06999999999923), (2.0983700078878914e-27, 3.5527136788004694e-14),8.881784197001252e-15
(-3.0, 9.06999999999923), (0, 0),0
(-2.0, 9.06999999999923), (0, 0),0
(-1.0, 9.06999999999923), (0, 0),0
(0.0, 9.06999999999923), (0, 0),0
(1.0, 9.06999999999923), (0, 0),0
(2.0, 9.06999999999923), (0, 0),0
(3.0, 9.06999999999923), (0, 0),0
(-3.0, 10.06999999999923), (0, 0),0
(-2.0, 10.06999999999923), (0, 0),0
(-1.0, 10.06999999999923), (0, 0),0
(0.0, 10.06999999999923), (0, 0),0
(1.0, 10.06999999999923), (0, 0),0
(2.0, 10.06999999999923), (0, 0),0
(3.0, 10.06999999999923), (0, 0),0
(-3.0, 11.06999999999923), (0, 0),0
(-2.0, 11.06999999999923), (0, 0),0
(-1.0, 11.06999999999923), (0, 0),0
(0.0, 11.06999999999923), (0, 0),0
(1.0, 11.06999999999923), (0, 0),0
(2.0, 11.06999999999923), (0, 0),0
(3.0, 11.06999999999923), (0, 0),0
(-3.0, 12.069999999999585), (0, 0),0
(-2.0, 12.069999999999585), (0, 0),0
(-1.0, 12.069999999999585), (0, 0),0
(0.0, 12.069999999999585), (0, 0),0
(1.0, 12.069999999999585), (0, 0),0
(2.0, 12.069999999999585), (0, 0),0
(3.0, 12.069999999999585), (0, 0),0
(-3.0, 13.06999999999994), (0, 0),0
(-2.0, 13.06999999999994), (0, 0),0
(-1.0, 13.06999999999994), (0, 0),0
(0.0, 13.06999999999994), (0, 0),0
(1.0, 13.06999999999994), (0, 0),0
(2.0, 13.06999999999994), (0, 0),0
(3.0, 13.06999999999994), (0, 0),0
(-3.0, 14.070000000000295), (0, 0),0
(-2.0, 14.070000000000295), (0, 0),0
(-1.0, 14.070000000000295), (0, 0),0
(0.0, 14.070000000000295), (0, 0),0
(1.0, 14.070000000000295), (0, 0),0
(2.0, 14.070000000000295), (0, 0),0
(3.0, 14.070000000000295), (0, 0),0
